type_name	rank_1_or_rank	rewards_2_num	rewards_15_num	rewards_17_num	rewards_1_num	rewards_12003_num	rewards_21_num	rewards_40002_num	rewards_4_num	rewards_(33, 34, 35, 36, 37, 50010, 50020, 50030, 50040, 50050, 50060, 50070, 50080, 50090, 50100, 50110, 50120, 50130, 50140, 50150, 50160, 50170, 50180, 50190, 50200, 50210, 50220)_item_name
Daily Crystal Crown League	1	60	500	40						
Daily Crystal Crown League	2	57	470	37						
Daily Crystal Crown League	3	54	440	34						
Daily Crystal Crown League	4	51	410	31						
Daily Crystal Crown League	5	48	380	28						
Daily Crystal Crown League	10	40	350	25						
Daily Crystal Crown League	20	35	300	22						
Daily Crystal Crown League	50	25	250	19						
Daily Crystal Crown League	100	15	200	16						
Daily Crystal Crown League	200	10	180	13						
Daily Crystal Crown League	500	8	160	10						
Daily Crystal Crown League	1000	6	140	8						
Daily Crystal Crown League	3000	5	120	6						
Daily Crystal Crown League	999999	1	100	4						
Seasonal Crystal Crown League	1	600	3000	800						
Seasonal Crystal Crown League	2	570	2800	720						
Seasonal Crystal Crown League	3	540	2600	680						
Seasonal Crystal Crown League	4	510	2400	640						
Seasonal Crystal Crown League	5	480	2200	600						
Seasonal Crystal Crown League	10	400	2000	520						
Seasonal Crystal Crown League	20	350	1700	440						
Seasonal Crystal Crown League	50	250	1400	360						
Seasonal Crystal Crown League	100	150	1100	280						
Seasonal Crystal Crown League	200	100	900	200						
Seasonal Crystal Crown League	500	80	800	120						
Seasonal Crystal Crown League	1000	60	700	80						
Seasonal Crystal Crown League	3000	50	600	40						
Seasonal Crystal Crown League	999999	5	500	25						
Trial Of The Champion	1	960		1200						
Trial Of The Champion	2	840		1080						
Trial Of The Champion	3	780		1020						
Trial Of The Champion	4	720		960						
Trial Of The Champion	5	660		900						
Trial Of The Champion	10	540		780						
Trial Of The Champion	20	420		660						
Trial Of The Champion	50	300		540						
Trial Of The Champion	100	180		420						
Trial Of The Champion	200	60		300						
Trial Of The Champion	500	60		180						
Trial Of The Champion	1000	48		120						
Trial Of The Champion	3000	48		60						
Trial Of The Champion	999999	36		36						
Free Team-up Arena	1	500			5000000		5			Champion Avatar
Free Team-up Arena	2	450			4500000		4			Diamond Medal Avatar
Free Team-up Arena	3	400			4000000		4			Gold Medal Avatar
Free Team-up Arena	10	300			3000000		3			Silver Medal Avatar
Free Team-up Arena	20	260			2600000		2			Bronze Medal Avatar
Free Team-up Arena	50	220			2200000	4				
Free Team-up Arena	100	170			1700000	3				
Free Team-up Arena	200	100			1000000	2				
Free Team-up Arena	500	80			800000	1				
Free Team-up Arena	1000	60			600000					
Free Team-up Arena	3000	50			500000					
Free Team-up Arena	999999	40			400000					
Inter-Dimensional Arena Challenges	400	600	5000					25		Inter-Dimensional Arena [Seeker]
Inter-Dimensional Arena Challenges	800	700	5500					27		Inter-Dimensional Arena [Seeker]
Inter-Dimensional Arena Challenges	1200	800	6000					29		Inter-Dimensional Arena [Seeker]
Inter-Dimensional Arena Challenges	1600	900	6500					32		Inter-Dimensional Arena [Seeker]
Inter-Dimensional Arena Challenges	2000	1000	7000					35		Inter-Dimensional Arena [Seeker]
Inter-Dimensional Arena Challenges	2400	1100	8000					38		Inter-Dimensional Arena [Watcher]
Inter-Dimensional Arena Challenges	2800	1200	8500					41		Inter-Dimensional Arena [Watcher]
Inter-Dimensional Arena Challenges	3200	1300	9000					44		Inter-Dimensional Arena [Watcher]
Inter-Dimensional Arena Challenges	3600	1400	9500					47		Inter-Dimensional Arena [Watcher]
Inter-Dimensional Arena Challenges	4000	1500	10000					50		Inter-Dimensional Arena [Watcher]
Inter-Dimensional Arena Challenges	4400	1600	12000					55		Inter-Dimensional Arena [Runner]
Inter-Dimensional Arena Challenges	4800	1700	13000					60		Inter-Dimensional Arena [Runner]
Inter-Dimensional Arena Challenges	5200	1800	14000					65		Inter-Dimensional Arena [Runner]
Inter-Dimensional Arena Challenges	5600	1900	15000					70		Inter-Dimensional Arena [Runner]
Inter-Dimensional Arena Challenges	6000	2000	16000					75		Inter-Dimensional Arena [Runner]
Inter-Dimensional Arena Challenges	6400	2100	19000					80		Inter-Dimensional Arena [Mediator]
Inter-Dimensional Arena Challenges	6800	2200	20000					85		Inter-Dimensional Arena [Mediator]
Inter-Dimensional Arena Challenges	7200	2300	21000					90		Inter-Dimensional Arena [Mediator]
Inter-Dimensional Arena Challenges	7600	2400	22000					95		Inter-Dimensional Arena [Mediator]
Inter-Dimensional Arena Challenges	8000	2500	23000					100		Inter-Dimensional Arena [Mediator]
Inter-Dimensional Arena Challenges	8400	2600	26000					110		Inter-Dimensional Arena [Protector]
Inter-Dimensional Arena Challenges	8800	2700	27000					120		Inter-Dimensional Arena [Protector]
Inter-Dimensional Arena Challenges	9200	2800	28000					130		Inter-Dimensional Arena [Protector]
Inter-Dimensional Arena Challenges	9600	2900	29000					140		Inter-Dimensional Arena [Protector]
Inter-Dimensional Arena Challenges	10000	3000	30000					150		Inter-Dimensional Arena [Protector]
Inter-Dimensional Arena Challenges	99999	3000	35000					170		Inter-Dimensional Arena [Overseer]
Inter-Dimensional Arena Challenges	100000	3000	40000					200		Inter-Dimensional Arena [Maverick]
Inter-Dimensional Arena Finals	1									Inter-Dimensional Arena [Champion]
Inter-Dimensional Arena Finals	2									Inter-Dimensional Arena [2nd Place]
Inter-Dimensional Arena Finals	8									Inter-Dimensional Arena [Top 8]
Inter-Dimensional Arena Finals	32									Inter-Dimensional Arena [Top 32]
Guild War Qualifying Round	1				1000000				2240	
Guild War Qualifying Round	2				900000				2170	
Guild War Qualifying Round	3				800000				2100	
Guild War Qualifying Round	4				700000				1890	
Guild War Qualifying Round	11				600000				1750	
Guild War Qualifying Round	21				500000				1610	
Guild War Qualifying Round	51				400000				1400	
Guild War Qualifying Round	101				300000				1260	
Guild War Qualifying Round	201				250000				1120	
Guild War Qualifying Round	501				200000				980	
Guild War Qualifying Round	1001				150000				840	
Guild War Qualifying Round	3001				100000				700	
Guild War Finals	1				1500000				4000	Guild War [Champion]
Guild War Finals	2				1000000				3000	Guild War [2nd Place]
Guild War Finals	4				750000				2000	Guild War [Top 4]
Guild War Finals	8				500000				1500	Guild War [Top 8]
Guild War Finals	16				250000				1000	Guild War [Top 16]
