gift_1_item_name	gift_1_item_uiid	gift_1_item_num	cost_1_num	cost_per_item	limitNum	weight	rate
Hero Promotion Stone	T1XX-11	5000	600	=RC[-1]/RC[-2]	1	1000	=RC[-1]/SUM(C[-1]:C[-1])
Hero Promotion Stone	T1XX-11	10000	1200	=RC[-1]/RC[-2]	1	1000	=RC[-1]/SUM(C[-1]:C[-1])
Magic Dust	T1XX-15	5000	600	=RC[-1]/RC[-2]	1	1000	=RC[-1]/SUM(C[-1]:C[-1])
Magic Dust	T1XX-15	10000	1200	=RC[-1]/RC[-2]	1	1000	=RC[-1]/SUM(C[-1]:C[-1])
Heroic Summon Scroll	T1XX-12003	2	250	=RC[-1]/RC[-2]	1	1000	=RC[-1]/SUM(C[-1]:C[-1])
Heroic Summon Scroll	T1XX-12003	5	625	=RC[-1]/RC[-2]	1	1000	=RC[-1]/SUM(C[-1]:C[-1])
Prophet Orb	T1XX-21	1	450	=RC[-1]/RC[-2]	1	1000	=RC[-1]/SUM(C[-1]:C[-1])
Prophet Orb	T1XX-21	2	900	=RC[-1]/RC[-2]	1	1000	=RC[-1]/SUM(C[-1]:C[-1])
Arena Ticket	T1XX-12001	5	60	=RC[-1]/RC[-2]	1	1000	=RC[-1]/SUM(C[-1]:C[-1])
Arena Ticket	T1XX-12001	10	100	=RC[-1]/RC[-2]	1	1000	=RC[-1]/SUM(C[-1]:C[-1])
Wishing Coin	T1XX-12002	10	250	=RC[-1]/RC[-2]	1	1000	=RC[-1]/SUM(C[-1]:C[-1])
Wishing Coin	T1XX-12002	20	500	=RC[-1]/RC[-2]	1	1000	=RC[-1]/SUM(C[-1]:C[-1])
Super Wishing Coin	T1XX-58	2	400	=RC[-1]/RC[-2]	1	1000	=RC[-1]/SUM(C[-1]:C[-1])
Super Wishing Coin	T1XX-58	5	1000	=RC[-1]/RC[-2]	1	1000	=RC[-1]/SUM(C[-1]:C[-1])
Red Artifact Fragment	T1Q5-55001	50	500	=RC[-1]/RC[-2]	1	1000	=RC[-1]/SUM(C[-1]:C[-1])
Red Artifact Exclusive Fragment	T1Q5-55099	50	1000	=RC[-1]/RC[-2]	1	1000	=RC[-1]/SUM(C[-1]:C[-1])
Orange Artifact Fragment	T1Q6-56001	50	3000	=RC[-1]/RC[-2]	1	1000	=RC[-1]/SUM(C[-1]:C[-1])
Orange Artifact Exclusive Fragment	T1Q6-56099	50	5000	=RC[-1]/RC[-2]	1	1000	=RC[-1]/SUM(C[-1]:C[-1])
Skin Shards Package	T1XX-227	1	3000	=RC[-1]/RC[-2]	1	1000	=RC[-1]/SUM(C[-1]:C[-1])
