actTime_1_date	actTime_2_date	parameter_1_group	rewards_1_item_name	rewards_1_item_uiid	rewards_1_item_num	parameter_1_job	extra_1_item_name	extra_1_item_uiid	extra_1_item_num
2020-05-11	2020-05-21	400	Eternal Crystal	T1XX-340	5	1	Eternal Crystal	T1XX-340	15
2020-05-11	2020-05-21	800	Eternal Crystal	T1XX-340	5	2	Eternal Crystal	T1XX-340	15
2020-05-11	2020-05-21	1200	Eternal Crystal	T1XX-340	5	3	Eternal Crystal	T1XX-340	15
2020-05-11	2020-05-21	1600	Eternal Crystal	T1XX-340	5	4	Eternal Crystal	T1XX-340	15
2020-05-11	2020-05-21	2000	Eternal Crystal	T1XX-340	5	5	Eternal Crystal	T1XX-340	15
