id	power	guildExp	reward_1_num	reward_4_num	kill_1_num	kill_4_num	final1_1_num	final1_4_num	final2_1_num	final2_4_num	final3_1_num	final3_4_num	final10_1_num	final10_4_num	final15_1_num	final15_4_num	final20_1_num	final20_4_num	final30_1_num	final30_4_num	enemies_hp_sum	monster_1	monster_3	monster_4	monster_5	monster_6	enemy_link	enemy_link	enemy_link	enemy_link	enemy_link
1	320000	30	5000	10	10000	30	75000	300	70000	280	65000	260	50000	200	40000	160	30000	120	25000	100	"=IF(SUM(ARRAYFORMULA(IFERROR(VLOOKUP(R[0]C[1]:R[0]C[5],Enemies!C1:C10,COLUMN(Enemies!C10:C10),0),0)))>0,SUM(ARRAYFORMULA(IFERROR(VLOOKUP(R[0]C[1]:R[0]C[5],Enemies!C1:C10,COLUMN(Enemies!C10:C10),0),0))),"""")"	4001	4002	4003	4004	4005	"=IFERROR(HYPERLINK(""#gid=""&Enemies!R1C40&""&range=B""&MATCH(RC[-5],Enemies!C1:C1,0),VLOOKUP(RC[-5],Enemies!C1:C2,2,0)),"""")"	"=IFERROR(HYPERLINK(""#gid=""&Enemies!R1C40&""&range=B""&MATCH(RC[-5],Enemies!C1:C1,0),VLOOKUP(RC[-5],Enemies!C1:C2,2,0)),"""")"	"=IFERROR(HYPERLINK(""#gid=""&Enemies!R1C40&""&range=B""&MATCH(RC[-5],Enemies!C1:C1,0),VLOOKUP(RC[-5],Enemies!C1:C2,2,0)),"""")"	"=IFERROR(HYPERLINK(""#gid=""&Enemies!R1C40&""&range=B""&MATCH(RC[-5],Enemies!C1:C1,0),VLOOKUP(RC[-5],Enemies!C1:C2,2,0)),"""")"	"=IFERROR(HYPERLINK(""#gid=""&Enemies!R1C40&""&range=B""&MATCH(RC[-5],Enemies!C1:C1,0),VLOOKUP(RC[-5],Enemies!C1:C2,2,0)),"""")"
2	1000000	35	6000	12	15000	50	90000	450	84000	420	78000	390	60000	300	48000	240	36000	180	30000	150	"=IF(SUM(ARRAYFORMULA(IFERROR(VLOOKUP(R[0]C[1]:R[0]C[5],Enemies!C1:C10,COLUMN(Enemies!C10:C10),0),0)))>0,SUM(ARRAYFORMULA(IFERROR(VLOOKUP(R[0]C[1]:R[0]C[5],Enemies!C1:C10,COLUMN(Enemies!C10:C10),0),0))),"""")"	4006	4007			4008	"=IFERROR(HYPERLINK(""#gid=""&Enemies!R1C40&""&range=B""&MATCH(RC[-5],Enemies!C1:C1,0),VLOOKUP(RC[-5],Enemies!C1:C2,2,0)),"""")"	"=IFERROR(HYPERLINK(""#gid=""&Enemies!R1C40&""&range=B""&MATCH(RC[-5],Enemies!C1:C1,0),VLOOKUP(RC[-5],Enemies!C1:C2,2,0)),"""")"	"=IFERROR(HYPERLINK(""#gid=""&Enemies!R1C40&""&range=B""&MATCH(RC[-5],Enemies!C1:C1,0),VLOOKUP(RC[-5],Enemies!C1:C2,2,0)),"""")"	"=IFERROR(HYPERLINK(""#gid=""&Enemies!R1C40&""&range=B""&MATCH(RC[-5],Enemies!C1:C1,0),VLOOKUP(RC[-5],Enemies!C1:C2,2,0)),"""")"	"=IFERROR(HYPERLINK(""#gid=""&Enemies!R1C40&""&range=B""&MATCH(RC[-5],Enemies!C1:C1,0),VLOOKUP(RC[-5],Enemies!C1:C2,2,0)),"""")"
3	3000000	40	7000	14	20000	80	105000	900	98000	840	91000	780	70000	600	56000	480	42000	360	35000	300	"=IF(SUM(ARRAYFORMULA(IFERROR(VLOOKUP(R[0]C[1]:R[0]C[5],Enemies!C1:C10,COLUMN(Enemies!C10:C10),0),0)))>0,SUM(ARRAYFORMULA(IFERROR(VLOOKUP(R[0]C[1]:R[0]C[5],Enemies!C1:C10,COLUMN(Enemies!C10:C10),0),0))),"""")"	4009	4010			4011	"=IFERROR(HYPERLINK(""#gid=""&Enemies!R1C40&""&range=B""&MATCH(RC[-5],Enemies!C1:C1,0),VLOOKUP(RC[-5],Enemies!C1:C2,2,0)),"""")"	"=IFERROR(HYPERLINK(""#gid=""&Enemies!R1C40&""&range=B""&MATCH(RC[-5],Enemies!C1:C1,0),VLOOKUP(RC[-5],Enemies!C1:C2,2,0)),"""")"	"=IFERROR(HYPERLINK(""#gid=""&Enemies!R1C40&""&range=B""&MATCH(RC[-5],Enemies!C1:C1,0),VLOOKUP(RC[-5],Enemies!C1:C2,2,0)),"""")"	"=IFERROR(HYPERLINK(""#gid=""&Enemies!R1C40&""&range=B""&MATCH(RC[-5],Enemies!C1:C1,0),VLOOKUP(RC[-5],Enemies!C1:C2,2,0)),"""")"	"=IFERROR(HYPERLINK(""#gid=""&Enemies!R1C40&""&range=B""&MATCH(RC[-5],Enemies!C1:C1,0),VLOOKUP(RC[-5],Enemies!C1:C2,2,0)),"""")"
4	10000000	45	8000	16	25000	100	120000	1500	112000	1400	104000	1300	80000	1000	64000	800	48000	600	40000	500	"=IF(SUM(ARRAYFORMULA(IFERROR(VLOOKUP(R[0]C[1]:R[0]C[5],Enemies!C1:C10,COLUMN(Enemies!C10:C10),0),0)))>0,SUM(ARRAYFORMULA(IFERROR(VLOOKUP(R[0]C[1]:R[0]C[5],Enemies!C1:C10,COLUMN(Enemies!C10:C10),0),0))),"""")"	4012	4013			4014	"=IFERROR(HYPERLINK(""#gid=""&Enemies!R1C40&""&range=B""&MATCH(RC[-5],Enemies!C1:C1,0),VLOOKUP(RC[-5],Enemies!C1:C2,2,0)),"""")"	"=IFERROR(HYPERLINK(""#gid=""&Enemies!R1C40&""&range=B""&MATCH(RC[-5],Enemies!C1:C1,0),VLOOKUP(RC[-5],Enemies!C1:C2,2,0)),"""")"	"=IFERROR(HYPERLINK(""#gid=""&Enemies!R1C40&""&range=B""&MATCH(RC[-5],Enemies!C1:C1,0),VLOOKUP(RC[-5],Enemies!C1:C2,2,0)),"""")"	"=IFERROR(HYPERLINK(""#gid=""&Enemies!R1C40&""&range=B""&MATCH(RC[-5],Enemies!C1:C1,0),VLOOKUP(RC[-5],Enemies!C1:C2,2,0)),"""")"	"=IFERROR(HYPERLINK(""#gid=""&Enemies!R1C40&""&range=B""&MATCH(RC[-5],Enemies!C1:C1,0),VLOOKUP(RC[-5],Enemies!C1:C2,2,0)),"""")"
5	20000000	50	9000	18	30000	120	135000	2100	126000	1960	117000	1820	90000	1400	72000	1120	54000	840	45000	700	"=IF(SUM(ARRAYFORMULA(IFERROR(VLOOKUP(R[0]C[1]:R[0]C[5],Enemies!C1:C10,COLUMN(Enemies!C10:C10),0),0)))>0,SUM(ARRAYFORMULA(IFERROR(VLOOKUP(R[0]C[1]:R[0]C[5],Enemies!C1:C10,COLUMN(Enemies!C10:C10),0),0))),"""")"	4015	4016			4017	"=IFERROR(HYPERLINK(""#gid=""&Enemies!R1C40&""&range=B""&MATCH(RC[-5],Enemies!C1:C1,0),VLOOKUP(RC[-5],Enemies!C1:C2,2,0)),"""")"	"=IFERROR(HYPERLINK(""#gid=""&Enemies!R1C40&""&range=B""&MATCH(RC[-5],Enemies!C1:C1,0),VLOOKUP(RC[-5],Enemies!C1:C2,2,0)),"""")"	"=IFERROR(HYPERLINK(""#gid=""&Enemies!R1C40&""&range=B""&MATCH(RC[-5],Enemies!C1:C1,0),VLOOKUP(RC[-5],Enemies!C1:C2,2,0)),"""")"	"=IFERROR(HYPERLINK(""#gid=""&Enemies!R1C40&""&range=B""&MATCH(RC[-5],Enemies!C1:C1,0),VLOOKUP(RC[-5],Enemies!C1:C2,2,0)),"""")"	"=IFERROR(HYPERLINK(""#gid=""&Enemies!R1C40&""&range=B""&MATCH(RC[-5],Enemies!C1:C1,0),VLOOKUP(RC[-5],Enemies!C1:C2,2,0)),"""")"
6	40000000	55	10000	20	35000	150	150000	3000	140000	2800	130000	2600	100000	2000	80000	1600	60000	1200	50000	1000	"=IF(SUM(ARRAYFORMULA(IFERROR(VLOOKUP(R[0]C[1]:R[0]C[5],Enemies!C1:C10,COLUMN(Enemies!C10:C10),0),0)))>0,SUM(ARRAYFORMULA(IFERROR(VLOOKUP(R[0]C[1]:R[0]C[5],Enemies!C1:C10,COLUMN(Enemies!C10:C10),0),0))),"""")"	4018	4019			4020	"=IFERROR(HYPERLINK(""#gid=""&Enemies!R1C40&""&range=B""&MATCH(RC[-5],Enemies!C1:C1,0),VLOOKUP(RC[-5],Enemies!C1:C2,2,0)),"""")"	"=IFERROR(HYPERLINK(""#gid=""&Enemies!R1C40&""&range=B""&MATCH(RC[-5],Enemies!C1:C1,0),VLOOKUP(RC[-5],Enemies!C1:C2,2,0)),"""")"	"=IFERROR(HYPERLINK(""#gid=""&Enemies!R1C40&""&range=B""&MATCH(RC[-5],Enemies!C1:C1,0),VLOOKUP(RC[-5],Enemies!C1:C2,2,0)),"""")"	"=IFERROR(HYPERLINK(""#gid=""&Enemies!R1C40&""&range=B""&MATCH(RC[-5],Enemies!C1:C1,0),VLOOKUP(RC[-5],Enemies!C1:C2,2,0)),"""")"	"=IFERROR(HYPERLINK(""#gid=""&Enemies!R1C40&""&range=B""&MATCH(RC[-5],Enemies!C1:C1,0),VLOOKUP(RC[-5],Enemies!C1:C2,2,0)),"""")"
7	50000000	60	11000	22	40000	200	165000	3750	154000	3500	143000	3250	110000	2500	88000	2000	66000	1500	55000	1250	"=IF(SUM(ARRAYFORMULA(IFERROR(VLOOKUP(R[0]C[1]:R[0]C[5],Enemies!C1:C10,COLUMN(Enemies!C10:C10),0),0)))>0,SUM(ARRAYFORMULA(IFERROR(VLOOKUP(R[0]C[1]:R[0]C[5],Enemies!C1:C10,COLUMN(Enemies!C10:C10),0),0))),"""")"		4021			4022	"=IFERROR(HYPERLINK(""#gid=""&Enemies!R1C40&""&range=B""&MATCH(RC[-5],Enemies!C1:C1,0),VLOOKUP(RC[-5],Enemies!C1:C2,2,0)),"""")"	"=IFERROR(HYPERLINK(""#gid=""&Enemies!R1C40&""&range=B""&MATCH(RC[-5],Enemies!C1:C1,0),VLOOKUP(RC[-5],Enemies!C1:C2,2,0)),"""")"	"=IFERROR(HYPERLINK(""#gid=""&Enemies!R1C40&""&range=B""&MATCH(RC[-5],Enemies!C1:C1,0),VLOOKUP(RC[-5],Enemies!C1:C2,2,0)),"""")"	"=IFERROR(HYPERLINK(""#gid=""&Enemies!R1C40&""&range=B""&MATCH(RC[-5],Enemies!C1:C1,0),VLOOKUP(RC[-5],Enemies!C1:C2,2,0)),"""")"	"=IFERROR(HYPERLINK(""#gid=""&Enemies!R1C40&""&range=B""&MATCH(RC[-5],Enemies!C1:C1,0),VLOOKUP(RC[-5],Enemies!C1:C2,2,0)),"""")"
8	70000000	65	12000	24	45000	250	180000	4500	168000	4200	156000	3900	120000	3000	96000	2400	72000	1800	60000	1500	"=IF(SUM(ARRAYFORMULA(IFERROR(VLOOKUP(R[0]C[1]:R[0]C[5],Enemies!C1:C10,COLUMN(Enemies!C10:C10),0),0)))>0,SUM(ARRAYFORMULA(IFERROR(VLOOKUP(R[0]C[1]:R[0]C[5],Enemies!C1:C10,COLUMN(Enemies!C10:C10),0),0))),"""")"	4023					"=IFERROR(HYPERLINK(""#gid=""&Enemies!R1C40&""&range=B""&MATCH(RC[-5],Enemies!C1:C1,0),VLOOKUP(RC[-5],Enemies!C1:C2,2,0)),"""")"	"=IFERROR(HYPERLINK(""#gid=""&Enemies!R1C40&""&range=B""&MATCH(RC[-5],Enemies!C1:C1,0),VLOOKUP(RC[-5],Enemies!C1:C2,2,0)),"""")"	"=IFERROR(HYPERLINK(""#gid=""&Enemies!R1C40&""&range=B""&MATCH(RC[-5],Enemies!C1:C1,0),VLOOKUP(RC[-5],Enemies!C1:C2,2,0)),"""")"	"=IFERROR(HYPERLINK(""#gid=""&Enemies!R1C40&""&range=B""&MATCH(RC[-5],Enemies!C1:C1,0),VLOOKUP(RC[-5],Enemies!C1:C2,2,0)),"""")"	"=IFERROR(HYPERLINK(""#gid=""&Enemies!R1C40&""&range=B""&MATCH(RC[-5],Enemies!C1:C1,0),VLOOKUP(RC[-5],Enemies!C1:C2,2,0)),"""")"
9	90000000	70	13000	26	50000	300	195000	5250	182000	4900	169000	4550	130000	3500	104000	2800	78000	2100	65000	1750	"=IF(SUM(ARRAYFORMULA(IFERROR(VLOOKUP(R[0]C[1]:R[0]C[5],Enemies!C1:C10,COLUMN(Enemies!C10:C10),0),0)))>0,SUM(ARRAYFORMULA(IFERROR(VLOOKUP(R[0]C[1]:R[0]C[5],Enemies!C1:C10,COLUMN(Enemies!C10:C10),0),0))),"""")"	4024	4025			4026	"=IFERROR(HYPERLINK(""#gid=""&Enemies!R1C40&""&range=B""&MATCH(RC[-5],Enemies!C1:C1,0),VLOOKUP(RC[-5],Enemies!C1:C2,2,0)),"""")"	"=IFERROR(HYPERLINK(""#gid=""&Enemies!R1C40&""&range=B""&MATCH(RC[-5],Enemies!C1:C1,0),VLOOKUP(RC[-5],Enemies!C1:C2,2,0)),"""")"	"=IFERROR(HYPERLINK(""#gid=""&Enemies!R1C40&""&range=B""&MATCH(RC[-5],Enemies!C1:C1,0),VLOOKUP(RC[-5],Enemies!C1:C2,2,0)),"""")"	"=IFERROR(HYPERLINK(""#gid=""&Enemies!R1C40&""&range=B""&MATCH(RC[-5],Enemies!C1:C1,0),VLOOKUP(RC[-5],Enemies!C1:C2,2,0)),"""")"	"=IFERROR(HYPERLINK(""#gid=""&Enemies!R1C40&""&range=B""&MATCH(RC[-5],Enemies!C1:C1,0),VLOOKUP(RC[-5],Enemies!C1:C2,2,0)),"""")"
10	100000000	75	14000	28	55000	350	210000	6000	196000	5600	182000	5200	140000	4000	112000	3200	84000	2400	70000	2000	"=IF(SUM(ARRAYFORMULA(IFERROR(VLOOKUP(R[0]C[1]:R[0]C[5],Enemies!C1:C10,COLUMN(Enemies!C10:C10),0),0)))>0,SUM(ARRAYFORMULA(IFERROR(VLOOKUP(R[0]C[1]:R[0]C[5],Enemies!C1:C10,COLUMN(Enemies!C10:C10),0),0))),"""")"		4027			4028	"=IFERROR(HYPERLINK(""#gid=""&Enemies!R1C40&""&range=B""&MATCH(RC[-5],Enemies!C1:C1,0),VLOOKUP(RC[-5],Enemies!C1:C2,2,0)),"""")"	"=IFERROR(HYPERLINK(""#gid=""&Enemies!R1C40&""&range=B""&MATCH(RC[-5],Enemies!C1:C1,0),VLOOKUP(RC[-5],Enemies!C1:C2,2,0)),"""")"	"=IFERROR(HYPERLINK(""#gid=""&Enemies!R1C40&""&range=B""&MATCH(RC[-5],Enemies!C1:C1,0),VLOOKUP(RC[-5],Enemies!C1:C2,2,0)),"""")"	"=IFERROR(HYPERLINK(""#gid=""&Enemies!R1C40&""&range=B""&MATCH(RC[-5],Enemies!C1:C1,0),VLOOKUP(RC[-5],Enemies!C1:C2,2,0)),"""")"	"=IFERROR(HYPERLINK(""#gid=""&Enemies!R1C40&""&range=B""&MATCH(RC[-5],Enemies!C1:C1,0),VLOOKUP(RC[-5],Enemies!C1:C2,2,0)),"""")"
11	130000000	80	15000	30	60000	400	225000	6750	210000	6300	195000	5850	150000	4500	120000	3600	90000	2700	75000	2250	"=IF(SUM(ARRAYFORMULA(IFERROR(VLOOKUP(R[0]C[1]:R[0]C[5],Enemies!C1:C10,COLUMN(Enemies!C10:C10),0),0)))>0,SUM(ARRAYFORMULA(IFERROR(VLOOKUP(R[0]C[1]:R[0]C[5],Enemies!C1:C10,COLUMN(Enemies!C10:C10),0),0))),"""")"	4029					"=IFERROR(HYPERLINK(""#gid=""&Enemies!R1C40&""&range=B""&MATCH(RC[-5],Enemies!C1:C1,0),VLOOKUP(RC[-5],Enemies!C1:C2,2,0)),"""")"	"=IFERROR(HYPERLINK(""#gid=""&Enemies!R1C40&""&range=B""&MATCH(RC[-5],Enemies!C1:C1,0),VLOOKUP(RC[-5],Enemies!C1:C2,2,0)),"""")"	"=IFERROR(HYPERLINK(""#gid=""&Enemies!R1C40&""&range=B""&MATCH(RC[-5],Enemies!C1:C1,0),VLOOKUP(RC[-5],Enemies!C1:C2,2,0)),"""")"	"=IFERROR(HYPERLINK(""#gid=""&Enemies!R1C40&""&range=B""&MATCH(RC[-5],Enemies!C1:C1,0),VLOOKUP(RC[-5],Enemies!C1:C2,2,0)),"""")"	"=IFERROR(HYPERLINK(""#gid=""&Enemies!R1C40&""&range=B""&MATCH(RC[-5],Enemies!C1:C1,0),VLOOKUP(RC[-5],Enemies!C1:C2,2,0)),"""")"
12	160000000	85	16000	32	70000	450	240000	7500	224000	7000	208000	6500	160000	5000	128000	4000	96000	3000	80000	2500	"=IF(SUM(ARRAYFORMULA(IFERROR(VLOOKUP(R[0]C[1]:R[0]C[5],Enemies!C1:C10,COLUMN(Enemies!C10:C10),0),0)))>0,SUM(ARRAYFORMULA(IFERROR(VLOOKUP(R[0]C[1]:R[0]C[5],Enemies!C1:C10,COLUMN(Enemies!C10:C10),0),0))),"""")"	4030					"=IFERROR(HYPERLINK(""#gid=""&Enemies!R1C40&""&range=B""&MATCH(RC[-5],Enemies!C1:C1,0),VLOOKUP(RC[-5],Enemies!C1:C2,2,0)),"""")"	"=IFERROR(HYPERLINK(""#gid=""&Enemies!R1C40&""&range=B""&MATCH(RC[-5],Enemies!C1:C1,0),VLOOKUP(RC[-5],Enemies!C1:C2,2,0)),"""")"	"=IFERROR(HYPERLINK(""#gid=""&Enemies!R1C40&""&range=B""&MATCH(RC[-5],Enemies!C1:C1,0),VLOOKUP(RC[-5],Enemies!C1:C2,2,0)),"""")"	"=IFERROR(HYPERLINK(""#gid=""&Enemies!R1C40&""&range=B""&MATCH(RC[-5],Enemies!C1:C1,0),VLOOKUP(RC[-5],Enemies!C1:C2,2,0)),"""")"	"=IFERROR(HYPERLINK(""#gid=""&Enemies!R1C40&""&range=B""&MATCH(RC[-5],Enemies!C1:C1,0),VLOOKUP(RC[-5],Enemies!C1:C2,2,0)),"""")"
13	190000000	90	34000	34	80000	500	255000	8250	238000	7700	221000	7150	170000	5500	136000	4400	102000	3300	85000	2750	"=IF(SUM(ARRAYFORMULA(IFERROR(VLOOKUP(R[0]C[1]:R[0]C[5],Enemies!C1:C10,COLUMN(Enemies!C10:C10),0),0)))>0,SUM(ARRAYFORMULA(IFERROR(VLOOKUP(R[0]C[1]:R[0]C[5],Enemies!C1:C10,COLUMN(Enemies!C10:C10),0),0))),"""")"	4031					"=IFERROR(HYPERLINK(""#gid=""&Enemies!R1C40&""&range=B""&MATCH(RC[-5],Enemies!C1:C1,0),VLOOKUP(RC[-5],Enemies!C1:C2,2,0)),"""")"	"=IFERROR(HYPERLINK(""#gid=""&Enemies!R1C40&""&range=B""&MATCH(RC[-5],Enemies!C1:C1,0),VLOOKUP(RC[-5],Enemies!C1:C2,2,0)),"""")"	"=IFERROR(HYPERLINK(""#gid=""&Enemies!R1C40&""&range=B""&MATCH(RC[-5],Enemies!C1:C1,0),VLOOKUP(RC[-5],Enemies!C1:C2,2,0)),"""")"	"=IFERROR(HYPERLINK(""#gid=""&Enemies!R1C40&""&range=B""&MATCH(RC[-5],Enemies!C1:C1,0),VLOOKUP(RC[-5],Enemies!C1:C2,2,0)),"""")"	"=IFERROR(HYPERLINK(""#gid=""&Enemies!R1C40&""&range=B""&MATCH(RC[-5],Enemies!C1:C1,0),VLOOKUP(RC[-5],Enemies!C1:C2,2,0)),"""")"
14	220000000	90	34000	34	80000	500	255000	8250	238000	7700	221000	7150	170000	5500	136000	4400	102000	3300	85000	2750	"=IF(SUM(ARRAYFORMULA(IFERROR(VLOOKUP(R[0]C[1]:R[0]C[5],Enemies!C1:C10,COLUMN(Enemies!C10:C10),0),0)))>0,SUM(ARRAYFORMULA(IFERROR(VLOOKUP(R[0]C[1]:R[0]C[5],Enemies!C1:C10,COLUMN(Enemies!C10:C10),0),0))),"""")"	4032		4033			"=IFERROR(HYPERLINK(""#gid=""&Enemies!R1C40&""&range=B""&MATCH(RC[-5],Enemies!C1:C1,0),VLOOKUP(RC[-5],Enemies!C1:C2,2,0)),"""")"	"=IFERROR(HYPERLINK(""#gid=""&Enemies!R1C40&""&range=B""&MATCH(RC[-5],Enemies!C1:C1,0),VLOOKUP(RC[-5],Enemies!C1:C2,2,0)),"""")"	"=IFERROR(HYPERLINK(""#gid=""&Enemies!R1C40&""&range=B""&MATCH(RC[-5],Enemies!C1:C1,0),VLOOKUP(RC[-5],Enemies!C1:C2,2,0)),"""")"	"=IFERROR(HYPERLINK(""#gid=""&Enemies!R1C40&""&range=B""&MATCH(RC[-5],Enemies!C1:C1,0),VLOOKUP(RC[-5],Enemies!C1:C2,2,0)),"""")"	"=IFERROR(HYPERLINK(""#gid=""&Enemies!R1C40&""&range=B""&MATCH(RC[-5],Enemies!C1:C1,0),VLOOKUP(RC[-5],Enemies!C1:C2,2,0)),"""")"
15	250000000	90	34000	34	80000	500	255000	8250	238000	7700	221000	7150	170000	5500	136000	4400	102000	3300	85000	2750	"=IF(SUM(ARRAYFORMULA(IFERROR(VLOOKUP(R[0]C[1]:R[0]C[5],Enemies!C1:C10,COLUMN(Enemies!C10:C10),0),0)))>0,SUM(ARRAYFORMULA(IFERROR(VLOOKUP(R[0]C[1]:R[0]C[5],Enemies!C1:C10,COLUMN(Enemies!C10:C10),0),0))),"""")"		4034			4035	"=IFERROR(HYPERLINK(""#gid=""&Enemies!R1C40&""&range=B""&MATCH(RC[-5],Enemies!C1:C1,0),VLOOKUP(RC[-5],Enemies!C1:C2,2,0)),"""")"	"=IFERROR(HYPERLINK(""#gid=""&Enemies!R1C40&""&range=B""&MATCH(RC[-5],Enemies!C1:C1,0),VLOOKUP(RC[-5],Enemies!C1:C2,2,0)),"""")"	"=IFERROR(HYPERLINK(""#gid=""&Enemies!R1C40&""&range=B""&MATCH(RC[-5],Enemies!C1:C1,0),VLOOKUP(RC[-5],Enemies!C1:C2,2,0)),"""")"	"=IFERROR(HYPERLINK(""#gid=""&Enemies!R1C40&""&range=B""&MATCH(RC[-5],Enemies!C1:C1,0),VLOOKUP(RC[-5],Enemies!C1:C2,2,0)),"""")"	"=IFERROR(HYPERLINK(""#gid=""&Enemies!R1C40&""&range=B""&MATCH(RC[-5],Enemies!C1:C1,0),VLOOKUP(RC[-5],Enemies!C1:C2,2,0)),"""")"
16	280000000	90	34000	34	80000	500	255000	8250	238000	7700	221000	7150	170000	5500	136000	4400	102000	3300	85000	2750	"=IF(SUM(ARRAYFORMULA(IFERROR(VLOOKUP(R[0]C[1]:R[0]C[5],Enemies!C1:C10,COLUMN(Enemies!C10:C10),0),0)))>0,SUM(ARRAYFORMULA(IFERROR(VLOOKUP(R[0]C[1]:R[0]C[5],Enemies!C1:C10,COLUMN(Enemies!C10:C10),0),0))),"""")"	4036					"=IFERROR(HYPERLINK(""#gid=""&Enemies!R1C40&""&range=B""&MATCH(RC[-5],Enemies!C1:C1,0),VLOOKUP(RC[-5],Enemies!C1:C2,2,0)),"""")"	"=IFERROR(HYPERLINK(""#gid=""&Enemies!R1C40&""&range=B""&MATCH(RC[-5],Enemies!C1:C1,0),VLOOKUP(RC[-5],Enemies!C1:C2,2,0)),"""")"	"=IFERROR(HYPERLINK(""#gid=""&Enemies!R1C40&""&range=B""&MATCH(RC[-5],Enemies!C1:C1,0),VLOOKUP(RC[-5],Enemies!C1:C2,2,0)),"""")"	"=IFERROR(HYPERLINK(""#gid=""&Enemies!R1C40&""&range=B""&MATCH(RC[-5],Enemies!C1:C1,0),VLOOKUP(RC[-5],Enemies!C1:C2,2,0)),"""")"	"=IFERROR(HYPERLINK(""#gid=""&Enemies!R1C40&""&range=B""&MATCH(RC[-5],Enemies!C1:C1,0),VLOOKUP(RC[-5],Enemies!C1:C2,2,0)),"""")"
17	310000000	90	34000	34	80000	500	255000	8250	238000	7700	221000	7150	170000	5500	136000	4400	102000	3300	85000	2750	"=IF(SUM(ARRAYFORMULA(IFERROR(VLOOKUP(R[0]C[1]:R[0]C[5],Enemies!C1:C10,COLUMN(Enemies!C10:C10),0),0)))>0,SUM(ARRAYFORMULA(IFERROR(VLOOKUP(R[0]C[1]:R[0]C[5],Enemies!C1:C10,COLUMN(Enemies!C10:C10),0),0))),"""")"	4037					"=IFERROR(HYPERLINK(""#gid=""&Enemies!R1C40&""&range=B""&MATCH(RC[-5],Enemies!C1:C1,0),VLOOKUP(RC[-5],Enemies!C1:C2,2,0)),"""")"	"=IFERROR(HYPERLINK(""#gid=""&Enemies!R1C40&""&range=B""&MATCH(RC[-5],Enemies!C1:C1,0),VLOOKUP(RC[-5],Enemies!C1:C2,2,0)),"""")"	"=IFERROR(HYPERLINK(""#gid=""&Enemies!R1C40&""&range=B""&MATCH(RC[-5],Enemies!C1:C1,0),VLOOKUP(RC[-5],Enemies!C1:C2,2,0)),"""")"	"=IFERROR(HYPERLINK(""#gid=""&Enemies!R1C40&""&range=B""&MATCH(RC[-5],Enemies!C1:C1,0),VLOOKUP(RC[-5],Enemies!C1:C2,2,0)),"""")"	"=IFERROR(HYPERLINK(""#gid=""&Enemies!R1C40&""&range=B""&MATCH(RC[-5],Enemies!C1:C1,0),VLOOKUP(RC[-5],Enemies!C1:C2,2,0)),"""")"
18	340000000	90	34000	34	80000	500	255000	8250	238000	7700	221000	7150	170000	5500	136000	4400	102000	3300	85000	2750	"=IF(SUM(ARRAYFORMULA(IFERROR(VLOOKUP(R[0]C[1]:R[0]C[5],Enemies!C1:C10,COLUMN(Enemies!C10:C10),0),0)))>0,SUM(ARRAYFORMULA(IFERROR(VLOOKUP(R[0]C[1]:R[0]C[5],Enemies!C1:C10,COLUMN(Enemies!C10:C10),0),0))),"""")"		4038			4039	"=IFERROR(HYPERLINK(""#gid=""&Enemies!R1C40&""&range=B""&MATCH(RC[-5],Enemies!C1:C1,0),VLOOKUP(RC[-5],Enemies!C1:C2,2,0)),"""")"	"=IFERROR(HYPERLINK(""#gid=""&Enemies!R1C40&""&range=B""&MATCH(RC[-5],Enemies!C1:C1,0),VLOOKUP(RC[-5],Enemies!C1:C2,2,0)),"""")"	"=IFERROR(HYPERLINK(""#gid=""&Enemies!R1C40&""&range=B""&MATCH(RC[-5],Enemies!C1:C1,0),VLOOKUP(RC[-5],Enemies!C1:C2,2,0)),"""")"	"=IFERROR(HYPERLINK(""#gid=""&Enemies!R1C40&""&range=B""&MATCH(RC[-5],Enemies!C1:C1,0),VLOOKUP(RC[-5],Enemies!C1:C2,2,0)),"""")"	"=IFERROR(HYPERLINK(""#gid=""&Enemies!R1C40&""&range=B""&MATCH(RC[-5],Enemies!C1:C1,0),VLOOKUP(RC[-5],Enemies!C1:C2,2,0)),"""")"
19	370000000	90	34000	34	80000	500	255000	8250	238000	7700	221000	7150	170000	5500	136000	4400	102000	3300	85000	2750	"=IF(SUM(ARRAYFORMULA(IFERROR(VLOOKUP(R[0]C[1]:R[0]C[5],Enemies!C1:C10,COLUMN(Enemies!C10:C10),0),0)))>0,SUM(ARRAYFORMULA(IFERROR(VLOOKUP(R[0]C[1]:R[0]C[5],Enemies!C1:C10,COLUMN(Enemies!C10:C10),0),0))),"""")"	4040	4041			4042	"=IFERROR(HYPERLINK(""#gid=""&Enemies!R1C40&""&range=B""&MATCH(RC[-5],Enemies!C1:C1,0),VLOOKUP(RC[-5],Enemies!C1:C2,2,0)),"""")"	"=IFERROR(HYPERLINK(""#gid=""&Enemies!R1C40&""&range=B""&MATCH(RC[-5],Enemies!C1:C1,0),VLOOKUP(RC[-5],Enemies!C1:C2,2,0)),"""")"	"=IFERROR(HYPERLINK(""#gid=""&Enemies!R1C40&""&range=B""&MATCH(RC[-5],Enemies!C1:C1,0),VLOOKUP(RC[-5],Enemies!C1:C2,2,0)),"""")"	"=IFERROR(HYPERLINK(""#gid=""&Enemies!R1C40&""&range=B""&MATCH(RC[-5],Enemies!C1:C1,0),VLOOKUP(RC[-5],Enemies!C1:C2,2,0)),"""")"	"=IFERROR(HYPERLINK(""#gid=""&Enemies!R1C40&""&range=B""&MATCH(RC[-5],Enemies!C1:C1,0),VLOOKUP(RC[-5],Enemies!C1:C2,2,0)),"""")"
20	400000000	90	34000	34	80000	500	255000	8250	238000	7700	221000	7150	170000	5500	136000	4400	102000	3300	85000	2750	"=IF(SUM(ARRAYFORMULA(IFERROR(VLOOKUP(R[0]C[1]:R[0]C[5],Enemies!C1:C10,COLUMN(Enemies!C10:C10),0),0)))>0,SUM(ARRAYFORMULA(IFERROR(VLOOKUP(R[0]C[1]:R[0]C[5],Enemies!C1:C10,COLUMN(Enemies!C10:C10),0),0))),"""")"	4043		4044			"=IFERROR(HYPERLINK(""#gid=""&Enemies!R1C40&""&range=B""&MATCH(RC[-5],Enemies!C1:C1,0),VLOOKUP(RC[-5],Enemies!C1:C2,2,0)),"""")"	"=IFERROR(HYPERLINK(""#gid=""&Enemies!R1C40&""&range=B""&MATCH(RC[-5],Enemies!C1:C1,0),VLOOKUP(RC[-5],Enemies!C1:C2,2,0)),"""")"	"=IFERROR(HYPERLINK(""#gid=""&Enemies!R1C40&""&range=B""&MATCH(RC[-5],Enemies!C1:C1,0),VLOOKUP(RC[-5],Enemies!C1:C2,2,0)),"""")"	"=IFERROR(HYPERLINK(""#gid=""&Enemies!R1C40&""&range=B""&MATCH(RC[-5],Enemies!C1:C1,0),VLOOKUP(RC[-5],Enemies!C1:C2,2,0)),"""")"	"=IFERROR(HYPERLINK(""#gid=""&Enemies!R1C40&""&range=B""&MATCH(RC[-5],Enemies!C1:C1,0),VLOOKUP(RC[-5],Enemies!C1:C2,2,0)),"""")"
21	430000000	90	34000	34	100000	600	255000	9750	238000	9100	221000	8450	170000	6500	136000	5200	102000	3900	85000	3250	"=IF(SUM(ARRAYFORMULA(IFERROR(VLOOKUP(R[0]C[1]:R[0]C[5],Enemies!C1:C10,COLUMN(Enemies!C10:C10),0),0)))>0,SUM(ARRAYFORMULA(IFERROR(VLOOKUP(R[0]C[1]:R[0]C[5],Enemies!C1:C10,COLUMN(Enemies!C10:C10),0),0))),"""")"	4045		4046			"=IFERROR(HYPERLINK(""#gid=""&Enemies!R1C40&""&range=B""&MATCH(RC[-5],Enemies!C1:C1,0),VLOOKUP(RC[-5],Enemies!C1:C2,2,0)),"""")"	"=IFERROR(HYPERLINK(""#gid=""&Enemies!R1C40&""&range=B""&MATCH(RC[-5],Enemies!C1:C1,0),VLOOKUP(RC[-5],Enemies!C1:C2,2,0)),"""")"	"=IFERROR(HYPERLINK(""#gid=""&Enemies!R1C40&""&range=B""&MATCH(RC[-5],Enemies!C1:C1,0),VLOOKUP(RC[-5],Enemies!C1:C2,2,0)),"""")"	"=IFERROR(HYPERLINK(""#gid=""&Enemies!R1C40&""&range=B""&MATCH(RC[-5],Enemies!C1:C1,0),VLOOKUP(RC[-5],Enemies!C1:C2,2,0)),"""")"	"=IFERROR(HYPERLINK(""#gid=""&Enemies!R1C40&""&range=B""&MATCH(RC[-5],Enemies!C1:C1,0),VLOOKUP(RC[-5],Enemies!C1:C2,2,0)),"""")"
22	460000000	90	34000	34	100000	600	255000	9750	238000	9100	221000	8450	170000	6500	136000	5200	102000	3900	85000	3250	"=IF(SUM(ARRAYFORMULA(IFERROR(VLOOKUP(R[0]C[1]:R[0]C[5],Enemies!C1:C10,COLUMN(Enemies!C10:C10),0),0)))>0,SUM(ARRAYFORMULA(IFERROR(VLOOKUP(R[0]C[1]:R[0]C[5],Enemies!C1:C10,COLUMN(Enemies!C10:C10),0),0))),"""")"	4047		4048			"=IFERROR(HYPERLINK(""#gid=""&Enemies!R1C40&""&range=B""&MATCH(RC[-5],Enemies!C1:C1,0),VLOOKUP(RC[-5],Enemies!C1:C2,2,0)),"""")"	"=IFERROR(HYPERLINK(""#gid=""&Enemies!R1C40&""&range=B""&MATCH(RC[-5],Enemies!C1:C1,0),VLOOKUP(RC[-5],Enemies!C1:C2,2,0)),"""")"	"=IFERROR(HYPERLINK(""#gid=""&Enemies!R1C40&""&range=B""&MATCH(RC[-5],Enemies!C1:C1,0),VLOOKUP(RC[-5],Enemies!C1:C2,2,0)),"""")"	"=IFERROR(HYPERLINK(""#gid=""&Enemies!R1C40&""&range=B""&MATCH(RC[-5],Enemies!C1:C1,0),VLOOKUP(RC[-5],Enemies!C1:C2,2,0)),"""")"	"=IFERROR(HYPERLINK(""#gid=""&Enemies!R1C40&""&range=B""&MATCH(RC[-5],Enemies!C1:C1,0),VLOOKUP(RC[-5],Enemies!C1:C2,2,0)),"""")"
23	490000000	90	34000	34	100000	600	255000	9750	238000	9100	221000	8450	170000	6500	136000	5200	102000	3900	85000	3250	"=IF(SUM(ARRAYFORMULA(IFERROR(VLOOKUP(R[0]C[1]:R[0]C[5],Enemies!C1:C10,COLUMN(Enemies!C10:C10),0),0)))>0,SUM(ARRAYFORMULA(IFERROR(VLOOKUP(R[0]C[1]:R[0]C[5],Enemies!C1:C10,COLUMN(Enemies!C10:C10),0),0))),"""")"	4049	4050			4051	"=IFERROR(HYPERLINK(""#gid=""&Enemies!R1C40&""&range=B""&MATCH(RC[-5],Enemies!C1:C1,0),VLOOKUP(RC[-5],Enemies!C1:C2,2,0)),"""")"	"=IFERROR(HYPERLINK(""#gid=""&Enemies!R1C40&""&range=B""&MATCH(RC[-5],Enemies!C1:C1,0),VLOOKUP(RC[-5],Enemies!C1:C2,2,0)),"""")"	"=IFERROR(HYPERLINK(""#gid=""&Enemies!R1C40&""&range=B""&MATCH(RC[-5],Enemies!C1:C1,0),VLOOKUP(RC[-5],Enemies!C1:C2,2,0)),"""")"	"=IFERROR(HYPERLINK(""#gid=""&Enemies!R1C40&""&range=B""&MATCH(RC[-5],Enemies!C1:C1,0),VLOOKUP(RC[-5],Enemies!C1:C2,2,0)),"""")"	"=IFERROR(HYPERLINK(""#gid=""&Enemies!R1C40&""&range=B""&MATCH(RC[-5],Enemies!C1:C1,0),VLOOKUP(RC[-5],Enemies!C1:C2,2,0)),"""")"
24	520000000	90	34000	34	100000	600	255000	9750	238000	9100	221000	8450	170000	6500	136000	5200	102000	3900	85000	3250	"=IF(SUM(ARRAYFORMULA(IFERROR(VLOOKUP(R[0]C[1]:R[0]C[5],Enemies!C1:C10,COLUMN(Enemies!C10:C10),0),0)))>0,SUM(ARRAYFORMULA(IFERROR(VLOOKUP(R[0]C[1]:R[0]C[5],Enemies!C1:C10,COLUMN(Enemies!C10:C10),0),0))),"""")"	4052	4053			4054	"=IFERROR(HYPERLINK(""#gid=""&Enemies!R1C40&""&range=B""&MATCH(RC[-5],Enemies!C1:C1,0),VLOOKUP(RC[-5],Enemies!C1:C2,2,0)),"""")"	"=IFERROR(HYPERLINK(""#gid=""&Enemies!R1C40&""&range=B""&MATCH(RC[-5],Enemies!C1:C1,0),VLOOKUP(RC[-5],Enemies!C1:C2,2,0)),"""")"	"=IFERROR(HYPERLINK(""#gid=""&Enemies!R1C40&""&range=B""&MATCH(RC[-5],Enemies!C1:C1,0),VLOOKUP(RC[-5],Enemies!C1:C2,2,0)),"""")"	"=IFERROR(HYPERLINK(""#gid=""&Enemies!R1C40&""&range=B""&MATCH(RC[-5],Enemies!C1:C1,0),VLOOKUP(RC[-5],Enemies!C1:C2,2,0)),"""")"	"=IFERROR(HYPERLINK(""#gid=""&Enemies!R1C40&""&range=B""&MATCH(RC[-5],Enemies!C1:C1,0),VLOOKUP(RC[-5],Enemies!C1:C2,2,0)),"""")"
25	550000000	90	34000	34	100000	600	255000	9750	238000	9100	221000	8450	170000	6500	136000	5200	102000	3900	85000	3250	"=IF(SUM(ARRAYFORMULA(IFERROR(VLOOKUP(R[0]C[1]:R[0]C[5],Enemies!C1:C10,COLUMN(Enemies!C10:C10),0),0)))>0,SUM(ARRAYFORMULA(IFERROR(VLOOKUP(R[0]C[1]:R[0]C[5],Enemies!C1:C10,COLUMN(Enemies!C10:C10),0),0))),"""")"	4055	4056			4057	"=IFERROR(HYPERLINK(""#gid=""&Enemies!R1C40&""&range=B""&MATCH(RC[-5],Enemies!C1:C1,0),VLOOKUP(RC[-5],Enemies!C1:C2,2,0)),"""")"	"=IFERROR(HYPERLINK(""#gid=""&Enemies!R1C40&""&range=B""&MATCH(RC[-5],Enemies!C1:C1,0),VLOOKUP(RC[-5],Enemies!C1:C2,2,0)),"""")"	"=IFERROR(HYPERLINK(""#gid=""&Enemies!R1C40&""&range=B""&MATCH(RC[-5],Enemies!C1:C1,0),VLOOKUP(RC[-5],Enemies!C1:C2,2,0)),"""")"	"=IFERROR(HYPERLINK(""#gid=""&Enemies!R1C40&""&range=B""&MATCH(RC[-5],Enemies!C1:C1,0),VLOOKUP(RC[-5],Enemies!C1:C2,2,0)),"""")"	"=IFERROR(HYPERLINK(""#gid=""&Enemies!R1C40&""&range=B""&MATCH(RC[-5],Enemies!C1:C1,0),VLOOKUP(RC[-5],Enemies!C1:C2,2,0)),"""")"
26	580000000	90	34000	34	100000	600	255000	9750	238000	9100	221000	8450	170000	6500	136000	5200	102000	3900	85000	3250	"=IF(SUM(ARRAYFORMULA(IFERROR(VLOOKUP(R[0]C[1]:R[0]C[5],Enemies!C1:C10,COLUMN(Enemies!C10:C10),0),0)))>0,SUM(ARRAYFORMULA(IFERROR(VLOOKUP(R[0]C[1]:R[0]C[5],Enemies!C1:C10,COLUMN(Enemies!C10:C10),0),0))),"""")"	4058	4059			4060	"=IFERROR(HYPERLINK(""#gid=""&Enemies!R1C40&""&range=B""&MATCH(RC[-5],Enemies!C1:C1,0),VLOOKUP(RC[-5],Enemies!C1:C2,2,0)),"""")"	"=IFERROR(HYPERLINK(""#gid=""&Enemies!R1C40&""&range=B""&MATCH(RC[-5],Enemies!C1:C1,0),VLOOKUP(RC[-5],Enemies!C1:C2,2,0)),"""")"	"=IFERROR(HYPERLINK(""#gid=""&Enemies!R1C40&""&range=B""&MATCH(RC[-5],Enemies!C1:C1,0),VLOOKUP(RC[-5],Enemies!C1:C2,2,0)),"""")"	"=IFERROR(HYPERLINK(""#gid=""&Enemies!R1C40&""&range=B""&MATCH(RC[-5],Enemies!C1:C1,0),VLOOKUP(RC[-5],Enemies!C1:C2,2,0)),"""")"	"=IFERROR(HYPERLINK(""#gid=""&Enemies!R1C40&""&range=B""&MATCH(RC[-5],Enemies!C1:C1,0),VLOOKUP(RC[-5],Enemies!C1:C2,2,0)),"""")"
27	610000000	90	34000	34	100000	600	255000	9750	238000	9100	221000	8450	170000	6500	136000	5200	102000	3900	85000	3250	"=IF(SUM(ARRAYFORMULA(IFERROR(VLOOKUP(R[0]C[1]:R[0]C[5],Enemies!C1:C10,COLUMN(Enemies!C10:C10),0),0)))>0,SUM(ARRAYFORMULA(IFERROR(VLOOKUP(R[0]C[1]:R[0]C[5],Enemies!C1:C10,COLUMN(Enemies!C10:C10),0),0))),"""")"	4061	4062			4063	"=IFERROR(HYPERLINK(""#gid=""&Enemies!R1C40&""&range=B""&MATCH(RC[-5],Enemies!C1:C1,0),VLOOKUP(RC[-5],Enemies!C1:C2,2,0)),"""")"	"=IFERROR(HYPERLINK(""#gid=""&Enemies!R1C40&""&range=B""&MATCH(RC[-5],Enemies!C1:C1,0),VLOOKUP(RC[-5],Enemies!C1:C2,2,0)),"""")"	"=IFERROR(HYPERLINK(""#gid=""&Enemies!R1C40&""&range=B""&MATCH(RC[-5],Enemies!C1:C1,0),VLOOKUP(RC[-5],Enemies!C1:C2,2,0)),"""")"	"=IFERROR(HYPERLINK(""#gid=""&Enemies!R1C40&""&range=B""&MATCH(RC[-5],Enemies!C1:C1,0),VLOOKUP(RC[-5],Enemies!C1:C2,2,0)),"""")"	"=IFERROR(HYPERLINK(""#gid=""&Enemies!R1C40&""&range=B""&MATCH(RC[-5],Enemies!C1:C1,0),VLOOKUP(RC[-5],Enemies!C1:C2,2,0)),"""")"
28	640000000	90	34000	34	100000	600	255000	9750	238000	9100	221000	8450	170000	6500	136000	5200	102000	3900	85000	3250	"=IF(SUM(ARRAYFORMULA(IFERROR(VLOOKUP(R[0]C[1]:R[0]C[5],Enemies!C1:C10,COLUMN(Enemies!C10:C10),0),0)))>0,SUM(ARRAYFORMULA(IFERROR(VLOOKUP(R[0]C[1]:R[0]C[5],Enemies!C1:C10,COLUMN(Enemies!C10:C10),0),0))),"""")"	4064	4065			4066	"=IFERROR(HYPERLINK(""#gid=""&Enemies!R1C40&""&range=B""&MATCH(RC[-5],Enemies!C1:C1,0),VLOOKUP(RC[-5],Enemies!C1:C2,2,0)),"""")"	"=IFERROR(HYPERLINK(""#gid=""&Enemies!R1C40&""&range=B""&MATCH(RC[-5],Enemies!C1:C1,0),VLOOKUP(RC[-5],Enemies!C1:C2,2,0)),"""")"	"=IFERROR(HYPERLINK(""#gid=""&Enemies!R1C40&""&range=B""&MATCH(RC[-5],Enemies!C1:C1,0),VLOOKUP(RC[-5],Enemies!C1:C2,2,0)),"""")"	"=IFERROR(HYPERLINK(""#gid=""&Enemies!R1C40&""&range=B""&MATCH(RC[-5],Enemies!C1:C1,0),VLOOKUP(RC[-5],Enemies!C1:C2,2,0)),"""")"	"=IFERROR(HYPERLINK(""#gid=""&Enemies!R1C40&""&range=B""&MATCH(RC[-5],Enemies!C1:C1,0),VLOOKUP(RC[-5],Enemies!C1:C2,2,0)),"""")"
29	670000000	90	34000	34	100000	600	255000	9750	238000	9100	221000	8450	170000	6500	136000	5200	102000	3900	85000	3250	"=IF(SUM(ARRAYFORMULA(IFERROR(VLOOKUP(R[0]C[1]:R[0]C[5],Enemies!C1:C10,COLUMN(Enemies!C10:C10),0),0)))>0,SUM(ARRAYFORMULA(IFERROR(VLOOKUP(R[0]C[1]:R[0]C[5],Enemies!C1:C10,COLUMN(Enemies!C10:C10),0),0))),"""")"	4067	4068			4069	"=IFERROR(HYPERLINK(""#gid=""&Enemies!R1C40&""&range=B""&MATCH(RC[-5],Enemies!C1:C1,0),VLOOKUP(RC[-5],Enemies!C1:C2,2,0)),"""")"	"=IFERROR(HYPERLINK(""#gid=""&Enemies!R1C40&""&range=B""&MATCH(RC[-5],Enemies!C1:C1,0),VLOOKUP(RC[-5],Enemies!C1:C2,2,0)),"""")"	"=IFERROR(HYPERLINK(""#gid=""&Enemies!R1C40&""&range=B""&MATCH(RC[-5],Enemies!C1:C1,0),VLOOKUP(RC[-5],Enemies!C1:C2,2,0)),"""")"	"=IFERROR(HYPERLINK(""#gid=""&Enemies!R1C40&""&range=B""&MATCH(RC[-5],Enemies!C1:C1,0),VLOOKUP(RC[-5],Enemies!C1:C2,2,0)),"""")"	"=IFERROR(HYPERLINK(""#gid=""&Enemies!R1C40&""&range=B""&MATCH(RC[-5],Enemies!C1:C1,0),VLOOKUP(RC[-5],Enemies!C1:C2,2,0)),"""")"
30	700000000	90	34000	34	100000	600	255000	9750	238000	9100	221000	8450	170000	6500	136000	5200	102000	3900	85000	3250	"=IF(SUM(ARRAYFORMULA(IFERROR(VLOOKUP(R[0]C[1]:R[0]C[5],Enemies!C1:C10,COLUMN(Enemies!C10:C10),0),0)))>0,SUM(ARRAYFORMULA(IFERROR(VLOOKUP(R[0]C[1]:R[0]C[5],Enemies!C1:C10,COLUMN(Enemies!C10:C10),0),0))),"""")"	4070	4071			4072	"=IFERROR(HYPERLINK(""#gid=""&Enemies!R1C40&""&range=B""&MATCH(RC[-5],Enemies!C1:C1,0),VLOOKUP(RC[-5],Enemies!C1:C2,2,0)),"""")"	"=IFERROR(HYPERLINK(""#gid=""&Enemies!R1C40&""&range=B""&MATCH(RC[-5],Enemies!C1:C1,0),VLOOKUP(RC[-5],Enemies!C1:C2,2,0)),"""")"	"=IFERROR(HYPERLINK(""#gid=""&Enemies!R1C40&""&range=B""&MATCH(RC[-5],Enemies!C1:C1,0),VLOOKUP(RC[-5],Enemies!C1:C2,2,0)),"""")"	"=IFERROR(HYPERLINK(""#gid=""&Enemies!R1C40&""&range=B""&MATCH(RC[-5],Enemies!C1:C1,0),VLOOKUP(RC[-5],Enemies!C1:C2,2,0)),"""")"	"=IFERROR(HYPERLINK(""#gid=""&Enemies!R1C40&""&range=B""&MATCH(RC[-5],Enemies!C1:C1,0),VLOOKUP(RC[-5],Enemies!C1:C2,2,0)),"""")"
31	710000000	90	34000	34	100000	600	255000	9750	238000	9100	221000	8450	170000	6500	136000	5200	102000	3900	85000	3250	"=IF(SUM(ARRAYFORMULA(IFERROR(VLOOKUP(R[0]C[1]:R[0]C[5],Enemies!C1:C10,COLUMN(Enemies!C10:C10),0),0)))>0,SUM(ARRAYFORMULA(IFERROR(VLOOKUP(R[0]C[1]:R[0]C[5],Enemies!C1:C10,COLUMN(Enemies!C10:C10),0),0))),"""")"	4073		4074			"=IFERROR(HYPERLINK(""#gid=""&Enemies!R1C40&""&range=B""&MATCH(RC[-5],Enemies!C1:C1,0),VLOOKUP(RC[-5],Enemies!C1:C2,2,0)),"""")"	"=IFERROR(HYPERLINK(""#gid=""&Enemies!R1C40&""&range=B""&MATCH(RC[-5],Enemies!C1:C1,0),VLOOKUP(RC[-5],Enemies!C1:C2,2,0)),"""")"	"=IFERROR(HYPERLINK(""#gid=""&Enemies!R1C40&""&range=B""&MATCH(RC[-5],Enemies!C1:C1,0),VLOOKUP(RC[-5],Enemies!C1:C2,2,0)),"""")"	"=IFERROR(HYPERLINK(""#gid=""&Enemies!R1C40&""&range=B""&MATCH(RC[-5],Enemies!C1:C1,0),VLOOKUP(RC[-5],Enemies!C1:C2,2,0)),"""")"	"=IFERROR(HYPERLINK(""#gid=""&Enemies!R1C40&""&range=B""&MATCH(RC[-5],Enemies!C1:C1,0),VLOOKUP(RC[-5],Enemies!C1:C2,2,0)),"""")"
32	720000000	90	34000	34	100000	600	255000	9750	238000	9100	221000	8450	170000	6500	136000	5200	102000	3900	85000	3250	"=IF(SUM(ARRAYFORMULA(IFERROR(VLOOKUP(R[0]C[1]:R[0]C[5],Enemies!C1:C10,COLUMN(Enemies!C10:C10),0),0)))>0,SUM(ARRAYFORMULA(IFERROR(VLOOKUP(R[0]C[1]:R[0]C[5],Enemies!C1:C10,COLUMN(Enemies!C10:C10),0),0))),"""")"	4075		4076			"=IFERROR(HYPERLINK(""#gid=""&Enemies!R1C40&""&range=B""&MATCH(RC[-5],Enemies!C1:C1,0),VLOOKUP(RC[-5],Enemies!C1:C2,2,0)),"""")"	"=IFERROR(HYPERLINK(""#gid=""&Enemies!R1C40&""&range=B""&MATCH(RC[-5],Enemies!C1:C1,0),VLOOKUP(RC[-5],Enemies!C1:C2,2,0)),"""")"	"=IFERROR(HYPERLINK(""#gid=""&Enemies!R1C40&""&range=B""&MATCH(RC[-5],Enemies!C1:C1,0),VLOOKUP(RC[-5],Enemies!C1:C2,2,0)),"""")"	"=IFERROR(HYPERLINK(""#gid=""&Enemies!R1C40&""&range=B""&MATCH(RC[-5],Enemies!C1:C1,0),VLOOKUP(RC[-5],Enemies!C1:C2,2,0)),"""")"	"=IFERROR(HYPERLINK(""#gid=""&Enemies!R1C40&""&range=B""&MATCH(RC[-5],Enemies!C1:C1,0),VLOOKUP(RC[-5],Enemies!C1:C2,2,0)),"""")"
33	730000000	90	34000	34	100000	600	255000	9750	238000	9100	221000	8450	170000	6500	136000	5200	102000	3900	85000	3250	"=IF(SUM(ARRAYFORMULA(IFERROR(VLOOKUP(R[0]C[1]:R[0]C[5],Enemies!C1:C10,COLUMN(Enemies!C10:C10),0),0)))>0,SUM(ARRAYFORMULA(IFERROR(VLOOKUP(R[0]C[1]:R[0]C[5],Enemies!C1:C10,COLUMN(Enemies!C10:C10),0),0))),"""")"	4077	4078			4079	"=IFERROR(HYPERLINK(""#gid=""&Enemies!R1C40&""&range=B""&MATCH(RC[-5],Enemies!C1:C1,0),VLOOKUP(RC[-5],Enemies!C1:C2,2,0)),"""")"	"=IFERROR(HYPERLINK(""#gid=""&Enemies!R1C40&""&range=B""&MATCH(RC[-5],Enemies!C1:C1,0),VLOOKUP(RC[-5],Enemies!C1:C2,2,0)),"""")"	"=IFERROR(HYPERLINK(""#gid=""&Enemies!R1C40&""&range=B""&MATCH(RC[-5],Enemies!C1:C1,0),VLOOKUP(RC[-5],Enemies!C1:C2,2,0)),"""")"	"=IFERROR(HYPERLINK(""#gid=""&Enemies!R1C40&""&range=B""&MATCH(RC[-5],Enemies!C1:C1,0),VLOOKUP(RC[-5],Enemies!C1:C2,2,0)),"""")"	"=IFERROR(HYPERLINK(""#gid=""&Enemies!R1C40&""&range=B""&MATCH(RC[-5],Enemies!C1:C1,0),VLOOKUP(RC[-5],Enemies!C1:C2,2,0)),"""")"
34	740000000	90	34000	34	100000	600	255000	9750	238000	9100	221000	8450	170000	6500	136000	5200	102000	3900	85000	3250	"=IF(SUM(ARRAYFORMULA(IFERROR(VLOOKUP(R[0]C[1]:R[0]C[5],Enemies!C1:C10,COLUMN(Enemies!C10:C10),0),0)))>0,SUM(ARRAYFORMULA(IFERROR(VLOOKUP(R[0]C[1]:R[0]C[5],Enemies!C1:C10,COLUMN(Enemies!C10:C10),0),0))),"""")"	4080	4081			4082	"=IFERROR(HYPERLINK(""#gid=""&Enemies!R1C40&""&range=B""&MATCH(RC[-5],Enemies!C1:C1,0),VLOOKUP(RC[-5],Enemies!C1:C2,2,0)),"""")"	"=IFERROR(HYPERLINK(""#gid=""&Enemies!R1C40&""&range=B""&MATCH(RC[-5],Enemies!C1:C1,0),VLOOKUP(RC[-5],Enemies!C1:C2,2,0)),"""")"	"=IFERROR(HYPERLINK(""#gid=""&Enemies!R1C40&""&range=B""&MATCH(RC[-5],Enemies!C1:C1,0),VLOOKUP(RC[-5],Enemies!C1:C2,2,0)),"""")"	"=IFERROR(HYPERLINK(""#gid=""&Enemies!R1C40&""&range=B""&MATCH(RC[-5],Enemies!C1:C1,0),VLOOKUP(RC[-5],Enemies!C1:C2,2,0)),"""")"	"=IFERROR(HYPERLINK(""#gid=""&Enemies!R1C40&""&range=B""&MATCH(RC[-5],Enemies!C1:C1,0),VLOOKUP(RC[-5],Enemies!C1:C2,2,0)),"""")"
35	750000000	90	34000	34	100000	600	255000	9750	238000	9100	221000	8450	170000	6500	136000	5200	102000	3900	85000	3250	"=IF(SUM(ARRAYFORMULA(IFERROR(VLOOKUP(R[0]C[1]:R[0]C[5],Enemies!C1:C10,COLUMN(Enemies!C10:C10),0),0)))>0,SUM(ARRAYFORMULA(IFERROR(VLOOKUP(R[0]C[1]:R[0]C[5],Enemies!C1:C10,COLUMN(Enemies!C10:C10),0),0))),"""")"	4083	4084			4085	"=IFERROR(HYPERLINK(""#gid=""&Enemies!R1C40&""&range=B""&MATCH(RC[-5],Enemies!C1:C1,0),VLOOKUP(RC[-5],Enemies!C1:C2,2,0)),"""")"	"=IFERROR(HYPERLINK(""#gid=""&Enemies!R1C40&""&range=B""&MATCH(RC[-5],Enemies!C1:C1,0),VLOOKUP(RC[-5],Enemies!C1:C2,2,0)),"""")"	"=IFERROR(HYPERLINK(""#gid=""&Enemies!R1C40&""&range=B""&MATCH(RC[-5],Enemies!C1:C1,0),VLOOKUP(RC[-5],Enemies!C1:C2,2,0)),"""")"	"=IFERROR(HYPERLINK(""#gid=""&Enemies!R1C40&""&range=B""&MATCH(RC[-5],Enemies!C1:C1,0),VLOOKUP(RC[-5],Enemies!C1:C2,2,0)),"""")"	"=IFERROR(HYPERLINK(""#gid=""&Enemies!R1C40&""&range=B""&MATCH(RC[-5],Enemies!C1:C1,0),VLOOKUP(RC[-5],Enemies!C1:C2,2,0)),"""")"
36	760000000	90	34000	34	100000	600	255000	9750	238000	9100	221000	8450	170000	6500	136000	5200	102000	3900	85000	3250	"=IF(SUM(ARRAYFORMULA(IFERROR(VLOOKUP(R[0]C[1]:R[0]C[5],Enemies!C1:C10,COLUMN(Enemies!C10:C10),0),0)))>0,SUM(ARRAYFORMULA(IFERROR(VLOOKUP(R[0]C[1]:R[0]C[5],Enemies!C1:C10,COLUMN(Enemies!C10:C10),0),0))),"""")"	4086	4087			4088	"=IFERROR(HYPERLINK(""#gid=""&Enemies!R1C40&""&range=B""&MATCH(RC[-5],Enemies!C1:C1,0),VLOOKUP(RC[-5],Enemies!C1:C2,2,0)),"""")"	"=IFERROR(HYPERLINK(""#gid=""&Enemies!R1C40&""&range=B""&MATCH(RC[-5],Enemies!C1:C1,0),VLOOKUP(RC[-5],Enemies!C1:C2,2,0)),"""")"	"=IFERROR(HYPERLINK(""#gid=""&Enemies!R1C40&""&range=B""&MATCH(RC[-5],Enemies!C1:C1,0),VLOOKUP(RC[-5],Enemies!C1:C2,2,0)),"""")"	"=IFERROR(HYPERLINK(""#gid=""&Enemies!R1C40&""&range=B""&MATCH(RC[-5],Enemies!C1:C1,0),VLOOKUP(RC[-5],Enemies!C1:C2,2,0)),"""")"	"=IFERROR(HYPERLINK(""#gid=""&Enemies!R1C40&""&range=B""&MATCH(RC[-5],Enemies!C1:C1,0),VLOOKUP(RC[-5],Enemies!C1:C2,2,0)),"""")"
37	770000000	90	34000	34	100000	600	255000	9750	238000	9100	221000	8450	170000	6500	136000	5200	102000	3900	85000	3250	"=IF(SUM(ARRAYFORMULA(IFERROR(VLOOKUP(R[0]C[1]:R[0]C[5],Enemies!C1:C10,COLUMN(Enemies!C10:C10),0),0)))>0,SUM(ARRAYFORMULA(IFERROR(VLOOKUP(R[0]C[1]:R[0]C[5],Enemies!C1:C10,COLUMN(Enemies!C10:C10),0),0))),"""")"	4089	4089			4089	"=IFERROR(HYPERLINK(""#gid=""&Enemies!R1C40&""&range=B""&MATCH(RC[-5],Enemies!C1:C1,0),VLOOKUP(RC[-5],Enemies!C1:C2,2,0)),"""")"	"=IFERROR(HYPERLINK(""#gid=""&Enemies!R1C40&""&range=B""&MATCH(RC[-5],Enemies!C1:C1,0),VLOOKUP(RC[-5],Enemies!C1:C2,2,0)),"""")"	"=IFERROR(HYPERLINK(""#gid=""&Enemies!R1C40&""&range=B""&MATCH(RC[-5],Enemies!C1:C1,0),VLOOKUP(RC[-5],Enemies!C1:C2,2,0)),"""")"	"=IFERROR(HYPERLINK(""#gid=""&Enemies!R1C40&""&range=B""&MATCH(RC[-5],Enemies!C1:C1,0),VLOOKUP(RC[-5],Enemies!C1:C2,2,0)),"""")"	"=IFERROR(HYPERLINK(""#gid=""&Enemies!R1C40&""&range=B""&MATCH(RC[-5],Enemies!C1:C1,0),VLOOKUP(RC[-5],Enemies!C1:C2,2,0)),"""")"
38	780000000	90	34000	34	100000	600	255000	9750	238000	9100	221000	8450	170000	6500	136000	5200	102000	3900	85000	3250	"=IF(SUM(ARRAYFORMULA(IFERROR(VLOOKUP(R[0]C[1]:R[0]C[5],Enemies!C1:C10,COLUMN(Enemies!C10:C10),0),0)))>0,SUM(ARRAYFORMULA(IFERROR(VLOOKUP(R[0]C[1]:R[0]C[5],Enemies!C1:C10,COLUMN(Enemies!C10:C10),0),0))),"""")"	4090	4090			4090	"=IFERROR(HYPERLINK(""#gid=""&Enemies!R1C40&""&range=B""&MATCH(RC[-5],Enemies!C1:C1,0),VLOOKUP(RC[-5],Enemies!C1:C2,2,0)),"""")"	"=IFERROR(HYPERLINK(""#gid=""&Enemies!R1C40&""&range=B""&MATCH(RC[-5],Enemies!C1:C1,0),VLOOKUP(RC[-5],Enemies!C1:C2,2,0)),"""")"	"=IFERROR(HYPERLINK(""#gid=""&Enemies!R1C40&""&range=B""&MATCH(RC[-5],Enemies!C1:C1,0),VLOOKUP(RC[-5],Enemies!C1:C2,2,0)),"""")"	"=IFERROR(HYPERLINK(""#gid=""&Enemies!R1C40&""&range=B""&MATCH(RC[-5],Enemies!C1:C1,0),VLOOKUP(RC[-5],Enemies!C1:C2,2,0)),"""")"	"=IFERROR(HYPERLINK(""#gid=""&Enemies!R1C40&""&range=B""&MATCH(RC[-5],Enemies!C1:C1,0),VLOOKUP(RC[-5],Enemies!C1:C2,2,0)),"""")"
39	790000000	90	34000	34	100000	600	255000	9750	238000	9100	221000	8450	170000	6500	136000	5200	102000	3900	85000	3250	"=IF(SUM(ARRAYFORMULA(IFERROR(VLOOKUP(R[0]C[1]:R[0]C[5],Enemies!C1:C10,COLUMN(Enemies!C10:C10),0),0)))>0,SUM(ARRAYFORMULA(IFERROR(VLOOKUP(R[0]C[1]:R[0]C[5],Enemies!C1:C10,COLUMN(Enemies!C10:C10),0),0))),"""")"	4091	4091			4091	"=IFERROR(HYPERLINK(""#gid=""&Enemies!R1C40&""&range=B""&MATCH(RC[-5],Enemies!C1:C1,0),VLOOKUP(RC[-5],Enemies!C1:C2,2,0)),"""")"	"=IFERROR(HYPERLINK(""#gid=""&Enemies!R1C40&""&range=B""&MATCH(RC[-5],Enemies!C1:C1,0),VLOOKUP(RC[-5],Enemies!C1:C2,2,0)),"""")"	"=IFERROR(HYPERLINK(""#gid=""&Enemies!R1C40&""&range=B""&MATCH(RC[-5],Enemies!C1:C1,0),VLOOKUP(RC[-5],Enemies!C1:C2,2,0)),"""")"	"=IFERROR(HYPERLINK(""#gid=""&Enemies!R1C40&""&range=B""&MATCH(RC[-5],Enemies!C1:C1,0),VLOOKUP(RC[-5],Enemies!C1:C2,2,0)),"""")"	"=IFERROR(HYPERLINK(""#gid=""&Enemies!R1C40&""&range=B""&MATCH(RC[-5],Enemies!C1:C1,0),VLOOKUP(RC[-5],Enemies!C1:C2,2,0)),"""")"
40	800000000	90	34000	34	100000	600	255000	9750	238000	9100	221000	8450	170000	6500	136000	5200	102000	3900	85000	3250	"=IF(SUM(ARRAYFORMULA(IFERROR(VLOOKUP(R[0]C[1]:R[0]C[5],Enemies!C1:C10,COLUMN(Enemies!C10:C10),0),0)))>0,SUM(ARRAYFORMULA(IFERROR(VLOOKUP(R[0]C[1]:R[0]C[5],Enemies!C1:C10,COLUMN(Enemies!C10:C10),0),0))),"""")"	4092	4092			4092	"=IFERROR(HYPERLINK(""#gid=""&Enemies!R1C40&""&range=B""&MATCH(RC[-5],Enemies!C1:C1,0),VLOOKUP(RC[-5],Enemies!C1:C2,2,0)),"""")"	"=IFERROR(HYPERLINK(""#gid=""&Enemies!R1C40&""&range=B""&MATCH(RC[-5],Enemies!C1:C1,0),VLOOKUP(RC[-5],Enemies!C1:C2,2,0)),"""")"	"=IFERROR(HYPERLINK(""#gid=""&Enemies!R1C40&""&range=B""&MATCH(RC[-5],Enemies!C1:C1,0),VLOOKUP(RC[-5],Enemies!C1:C2,2,0)),"""")"	"=IFERROR(HYPERLINK(""#gid=""&Enemies!R1C40&""&range=B""&MATCH(RC[-5],Enemies!C1:C1,0),VLOOKUP(RC[-5],Enemies!C1:C2,2,0)),"""")"	"=IFERROR(HYPERLINK(""#gid=""&Enemies!R1C40&""&range=B""&MATCH(RC[-5],Enemies!C1:C1,0),VLOOKUP(RC[-5],Enemies!C1:C2,2,0)),"""")"
41	810000000	90	34000	34	100000	600	255000	9750	238000	9100	221000	8450	170000	6500	136000	5200	102000	3900	85000	3250	"=IF(SUM(ARRAYFORMULA(IFERROR(VLOOKUP(R[0]C[1]:R[0]C[5],Enemies!C1:C10,COLUMN(Enemies!C10:C10),0),0)))>0,SUM(ARRAYFORMULA(IFERROR(VLOOKUP(R[0]C[1]:R[0]C[5],Enemies!C1:C10,COLUMN(Enemies!C10:C10),0),0))),"""")"	4093	4093			4093	"=IFERROR(HYPERLINK(""#gid=""&Enemies!R1C40&""&range=B""&MATCH(RC[-5],Enemies!C1:C1,0),VLOOKUP(RC[-5],Enemies!C1:C2,2,0)),"""")"	"=IFERROR(HYPERLINK(""#gid=""&Enemies!R1C40&""&range=B""&MATCH(RC[-5],Enemies!C1:C1,0),VLOOKUP(RC[-5],Enemies!C1:C2,2,0)),"""")"	"=IFERROR(HYPERLINK(""#gid=""&Enemies!R1C40&""&range=B""&MATCH(RC[-5],Enemies!C1:C1,0),VLOOKUP(RC[-5],Enemies!C1:C2,2,0)),"""")"	"=IFERROR(HYPERLINK(""#gid=""&Enemies!R1C40&""&range=B""&MATCH(RC[-5],Enemies!C1:C1,0),VLOOKUP(RC[-5],Enemies!C1:C2,2,0)),"""")"	"=IFERROR(HYPERLINK(""#gid=""&Enemies!R1C40&""&range=B""&MATCH(RC[-5],Enemies!C1:C1,0),VLOOKUP(RC[-5],Enemies!C1:C2,2,0)),"""")"
42	820000000	90	34000	34	100000	600	255000	9750	238000	9100	221000	8450	170000	6500	136000	5200	102000	3900	85000	3250	"=IF(SUM(ARRAYFORMULA(IFERROR(VLOOKUP(R[0]C[1]:R[0]C[5],Enemies!C1:C10,COLUMN(Enemies!C10:C10),0),0)))>0,SUM(ARRAYFORMULA(IFERROR(VLOOKUP(R[0]C[1]:R[0]C[5],Enemies!C1:C10,COLUMN(Enemies!C10:C10),0),0))),"""")"	4094	4094			4094	"=IFERROR(HYPERLINK(""#gid=""&Enemies!R1C40&""&range=B""&MATCH(RC[-5],Enemies!C1:C1,0),VLOOKUP(RC[-5],Enemies!C1:C2,2,0)),"""")"	"=IFERROR(HYPERLINK(""#gid=""&Enemies!R1C40&""&range=B""&MATCH(RC[-5],Enemies!C1:C1,0),VLOOKUP(RC[-5],Enemies!C1:C2,2,0)),"""")"	"=IFERROR(HYPERLINK(""#gid=""&Enemies!R1C40&""&range=B""&MATCH(RC[-5],Enemies!C1:C1,0),VLOOKUP(RC[-5],Enemies!C1:C2,2,0)),"""")"	"=IFERROR(HYPERLINK(""#gid=""&Enemies!R1C40&""&range=B""&MATCH(RC[-5],Enemies!C1:C1,0),VLOOKUP(RC[-5],Enemies!C1:C2,2,0)),"""")"	"=IFERROR(HYPERLINK(""#gid=""&Enemies!R1C40&""&range=B""&MATCH(RC[-5],Enemies!C1:C1,0),VLOOKUP(RC[-5],Enemies!C1:C2,2,0)),"""")"
43	830000000	90	34000	34	100000	600	255000	9750	238000	9100	221000	8450	170000	6500	136000	5200	102000	3900	85000	3250	"=IF(SUM(ARRAYFORMULA(IFERROR(VLOOKUP(R[0]C[1]:R[0]C[5],Enemies!C1:C10,COLUMN(Enemies!C10:C10),0),0)))>0,SUM(ARRAYFORMULA(IFERROR(VLOOKUP(R[0]C[1]:R[0]C[5],Enemies!C1:C10,COLUMN(Enemies!C10:C10),0),0))),"""")"	4095	4095			4095	"=IFERROR(HYPERLINK(""#gid=""&Enemies!R1C40&""&range=B""&MATCH(RC[-5],Enemies!C1:C1,0),VLOOKUP(RC[-5],Enemies!C1:C2,2,0)),"""")"	"=IFERROR(HYPERLINK(""#gid=""&Enemies!R1C40&""&range=B""&MATCH(RC[-5],Enemies!C1:C1,0),VLOOKUP(RC[-5],Enemies!C1:C2,2,0)),"""")"	"=IFERROR(HYPERLINK(""#gid=""&Enemies!R1C40&""&range=B""&MATCH(RC[-5],Enemies!C1:C1,0),VLOOKUP(RC[-5],Enemies!C1:C2,2,0)),"""")"	"=IFERROR(HYPERLINK(""#gid=""&Enemies!R1C40&""&range=B""&MATCH(RC[-5],Enemies!C1:C1,0),VLOOKUP(RC[-5],Enemies!C1:C2,2,0)),"""")"	"=IFERROR(HYPERLINK(""#gid=""&Enemies!R1C40&""&range=B""&MATCH(RC[-5],Enemies!C1:C1,0),VLOOKUP(RC[-5],Enemies!C1:C2,2,0)),"""")"
44	840000000	90	34000	34	100000	600	255000	9750	238000	9100	221000	8450	170000	6500	136000	5200	102000	3900	85000	3250	"=IF(SUM(ARRAYFORMULA(IFERROR(VLOOKUP(R[0]C[1]:R[0]C[5],Enemies!C1:C10,COLUMN(Enemies!C10:C10),0),0)))>0,SUM(ARRAYFORMULA(IFERROR(VLOOKUP(R[0]C[1]:R[0]C[5],Enemies!C1:C10,COLUMN(Enemies!C10:C10),0),0))),"""")"	4096	4096			4096	"=IFERROR(HYPERLINK(""#gid=""&Enemies!R1C40&""&range=B""&MATCH(RC[-5],Enemies!C1:C1,0),VLOOKUP(RC[-5],Enemies!C1:C2,2,0)),"""")"	"=IFERROR(HYPERLINK(""#gid=""&Enemies!R1C40&""&range=B""&MATCH(RC[-5],Enemies!C1:C1,0),VLOOKUP(RC[-5],Enemies!C1:C2,2,0)),"""")"	"=IFERROR(HYPERLINK(""#gid=""&Enemies!R1C40&""&range=B""&MATCH(RC[-5],Enemies!C1:C1,0),VLOOKUP(RC[-5],Enemies!C1:C2,2,0)),"""")"	"=IFERROR(HYPERLINK(""#gid=""&Enemies!R1C40&""&range=B""&MATCH(RC[-5],Enemies!C1:C1,0),VLOOKUP(RC[-5],Enemies!C1:C2,2,0)),"""")"	"=IFERROR(HYPERLINK(""#gid=""&Enemies!R1C40&""&range=B""&MATCH(RC[-5],Enemies!C1:C1,0),VLOOKUP(RC[-5],Enemies!C1:C2,2,0)),"""")"
45	850000000	90	34000	34	100000	600	255000	9750	238000	9100	221000	8450	170000	6500	136000	5200	102000	3900	85000	3250	"=IF(SUM(ARRAYFORMULA(IFERROR(VLOOKUP(R[0]C[1]:R[0]C[5],Enemies!C1:C10,COLUMN(Enemies!C10:C10),0),0)))>0,SUM(ARRAYFORMULA(IFERROR(VLOOKUP(R[0]C[1]:R[0]C[5],Enemies!C1:C10,COLUMN(Enemies!C10:C10),0),0))),"""")"	4097	4097			4097	"=IFERROR(HYPERLINK(""#gid=""&Enemies!R1C40&""&range=B""&MATCH(RC[-5],Enemies!C1:C1,0),VLOOKUP(RC[-5],Enemies!C1:C2,2,0)),"""")"	"=IFERROR(HYPERLINK(""#gid=""&Enemies!R1C40&""&range=B""&MATCH(RC[-5],Enemies!C1:C1,0),VLOOKUP(RC[-5],Enemies!C1:C2,2,0)),"""")"	"=IFERROR(HYPERLINK(""#gid=""&Enemies!R1C40&""&range=B""&MATCH(RC[-5],Enemies!C1:C1,0),VLOOKUP(RC[-5],Enemies!C1:C2,2,0)),"""")"	"=IFERROR(HYPERLINK(""#gid=""&Enemies!R1C40&""&range=B""&MATCH(RC[-5],Enemies!C1:C1,0),VLOOKUP(RC[-5],Enemies!C1:C2,2,0)),"""")"	"=IFERROR(HYPERLINK(""#gid=""&Enemies!R1C40&""&range=B""&MATCH(RC[-5],Enemies!C1:C1,0),VLOOKUP(RC[-5],Enemies!C1:C2,2,0)),"""")"
46	860000000	90	34000	34	100000	600	255000	9750	238000	9100	221000	8450	170000	6500	136000	5200	102000	3900	85000	3250	"=IF(SUM(ARRAYFORMULA(IFERROR(VLOOKUP(R[0]C[1]:R[0]C[5],Enemies!C1:C10,COLUMN(Enemies!C10:C10),0),0)))>0,SUM(ARRAYFORMULA(IFERROR(VLOOKUP(R[0]C[1]:R[0]C[5],Enemies!C1:C10,COLUMN(Enemies!C10:C10),0),0))),"""")"	4098	4098			4098	"=IFERROR(HYPERLINK(""#gid=""&Enemies!R1C40&""&range=B""&MATCH(RC[-5],Enemies!C1:C1,0),VLOOKUP(RC[-5],Enemies!C1:C2,2,0)),"""")"	"=IFERROR(HYPERLINK(""#gid=""&Enemies!R1C40&""&range=B""&MATCH(RC[-5],Enemies!C1:C1,0),VLOOKUP(RC[-5],Enemies!C1:C2,2,0)),"""")"	"=IFERROR(HYPERLINK(""#gid=""&Enemies!R1C40&""&range=B""&MATCH(RC[-5],Enemies!C1:C1,0),VLOOKUP(RC[-5],Enemies!C1:C2,2,0)),"""")"	"=IFERROR(HYPERLINK(""#gid=""&Enemies!R1C40&""&range=B""&MATCH(RC[-5],Enemies!C1:C1,0),VLOOKUP(RC[-5],Enemies!C1:C2,2,0)),"""")"	"=IFERROR(HYPERLINK(""#gid=""&Enemies!R1C40&""&range=B""&MATCH(RC[-5],Enemies!C1:C1,0),VLOOKUP(RC[-5],Enemies!C1:C2,2,0)),"""")"
47	870000000	90	34000	34	100000	600	255000	9750	238000	9100	221000	8450	170000	6500	136000	5200	102000	3900	85000	3250	"=IF(SUM(ARRAYFORMULA(IFERROR(VLOOKUP(R[0]C[1]:R[0]C[5],Enemies!C1:C10,COLUMN(Enemies!C10:C10),0),0)))>0,SUM(ARRAYFORMULA(IFERROR(VLOOKUP(R[0]C[1]:R[0]C[5],Enemies!C1:C10,COLUMN(Enemies!C10:C10),0),0))),"""")"	4099	4099			4099	"=IFERROR(HYPERLINK(""#gid=""&Enemies!R1C40&""&range=B""&MATCH(RC[-5],Enemies!C1:C1,0),VLOOKUP(RC[-5],Enemies!C1:C2,2,0)),"""")"	"=IFERROR(HYPERLINK(""#gid=""&Enemies!R1C40&""&range=B""&MATCH(RC[-5],Enemies!C1:C1,0),VLOOKUP(RC[-5],Enemies!C1:C2,2,0)),"""")"	"=IFERROR(HYPERLINK(""#gid=""&Enemies!R1C40&""&range=B""&MATCH(RC[-5],Enemies!C1:C1,0),VLOOKUP(RC[-5],Enemies!C1:C2,2,0)),"""")"	"=IFERROR(HYPERLINK(""#gid=""&Enemies!R1C40&""&range=B""&MATCH(RC[-5],Enemies!C1:C1,0),VLOOKUP(RC[-5],Enemies!C1:C2,2,0)),"""")"	"=IFERROR(HYPERLINK(""#gid=""&Enemies!R1C40&""&range=B""&MATCH(RC[-5],Enemies!C1:C1,0),VLOOKUP(RC[-5],Enemies!C1:C2,2,0)),"""")"
48	880000000	90	34000	34	100000	600	255000	9750	238000	9100	221000	8450	170000	6500	136000	5200	102000	3900	85000	3250	"=IF(SUM(ARRAYFORMULA(IFERROR(VLOOKUP(R[0]C[1]:R[0]C[5],Enemies!C1:C10,COLUMN(Enemies!C10:C10),0),0)))>0,SUM(ARRAYFORMULA(IFERROR(VLOOKUP(R[0]C[1]:R[0]C[5],Enemies!C1:C10,COLUMN(Enemies!C10:C10),0),0))),"""")"	4100	4100			4100	"=IFERROR(HYPERLINK(""#gid=""&Enemies!R1C40&""&range=B""&MATCH(RC[-5],Enemies!C1:C1,0),VLOOKUP(RC[-5],Enemies!C1:C2,2,0)),"""")"	"=IFERROR(HYPERLINK(""#gid=""&Enemies!R1C40&""&range=B""&MATCH(RC[-5],Enemies!C1:C1,0),VLOOKUP(RC[-5],Enemies!C1:C2,2,0)),"""")"	"=IFERROR(HYPERLINK(""#gid=""&Enemies!R1C40&""&range=B""&MATCH(RC[-5],Enemies!C1:C1,0),VLOOKUP(RC[-5],Enemies!C1:C2,2,0)),"""")"	"=IFERROR(HYPERLINK(""#gid=""&Enemies!R1C40&""&range=B""&MATCH(RC[-5],Enemies!C1:C1,0),VLOOKUP(RC[-5],Enemies!C1:C2,2,0)),"""")"	"=IFERROR(HYPERLINK(""#gid=""&Enemies!R1C40&""&range=B""&MATCH(RC[-5],Enemies!C1:C1,0),VLOOKUP(RC[-5],Enemies!C1:C2,2,0)),"""")"
49	890000000	90	34000	34	100000	600	255000	9750	238000	9100	221000	8450	170000	6500	136000	5200	102000	3900	85000	3250	"=IF(SUM(ARRAYFORMULA(IFERROR(VLOOKUP(R[0]C[1]:R[0]C[5],Enemies!C1:C10,COLUMN(Enemies!C10:C10),0),0)))>0,SUM(ARRAYFORMULA(IFERROR(VLOOKUP(R[0]C[1]:R[0]C[5],Enemies!C1:C10,COLUMN(Enemies!C10:C10),0),0))),"""")"	4101	4101			4101	"=IFERROR(HYPERLINK(""#gid=""&Enemies!R1C40&""&range=B""&MATCH(RC[-5],Enemies!C1:C1,0),VLOOKUP(RC[-5],Enemies!C1:C2,2,0)),"""")"	"=IFERROR(HYPERLINK(""#gid=""&Enemies!R1C40&""&range=B""&MATCH(RC[-5],Enemies!C1:C1,0),VLOOKUP(RC[-5],Enemies!C1:C2,2,0)),"""")"	"=IFERROR(HYPERLINK(""#gid=""&Enemies!R1C40&""&range=B""&MATCH(RC[-5],Enemies!C1:C1,0),VLOOKUP(RC[-5],Enemies!C1:C2,2,0)),"""")"	"=IFERROR(HYPERLINK(""#gid=""&Enemies!R1C40&""&range=B""&MATCH(RC[-5],Enemies!C1:C1,0),VLOOKUP(RC[-5],Enemies!C1:C2,2,0)),"""")"	"=IFERROR(HYPERLINK(""#gid=""&Enemies!R1C40&""&range=B""&MATCH(RC[-5],Enemies!C1:C1,0),VLOOKUP(RC[-5],Enemies!C1:C2,2,0)),"""")"
50	900000000	90	34000	34	100000	600	255000	9750	238000	9100	221000	8450	170000	6500	136000	5200	102000	3900	85000	3250	"=IF(SUM(ARRAYFORMULA(IFERROR(VLOOKUP(R[0]C[1]:R[0]C[5],Enemies!C1:C10,COLUMN(Enemies!C10:C10),0),0)))>0,SUM(ARRAYFORMULA(IFERROR(VLOOKUP(R[0]C[1]:R[0]C[5],Enemies!C1:C10,COLUMN(Enemies!C10:C10),0),0))),"""")"	4102	4102			4102	"=IFERROR(HYPERLINK(""#gid=""&Enemies!R1C40&""&range=B""&MATCH(RC[-5],Enemies!C1:C1,0),VLOOKUP(RC[-5],Enemies!C1:C2,2,0)),"""")"	"=IFERROR(HYPERLINK(""#gid=""&Enemies!R1C40&""&range=B""&MATCH(RC[-5],Enemies!C1:C1,0),VLOOKUP(RC[-5],Enemies!C1:C2,2,0)),"""")"	"=IFERROR(HYPERLINK(""#gid=""&Enemies!R1C40&""&range=B""&MATCH(RC[-5],Enemies!C1:C1,0),VLOOKUP(RC[-5],Enemies!C1:C2,2,0)),"""")"	"=IFERROR(HYPERLINK(""#gid=""&Enemies!R1C40&""&range=B""&MATCH(RC[-5],Enemies!C1:C1,0),VLOOKUP(RC[-5],Enemies!C1:C2,2,0)),"""")"	"=IFERROR(HYPERLINK(""#gid=""&Enemies!R1C40&""&range=B""&MATCH(RC[-5],Enemies!C1:C1,0),VLOOKUP(RC[-5],Enemies!C1:C2,2,0)),"""")"
51	910000000	90	34000	34	100000	600	255000	9750	238000	9100	221000	8450	170000	6500	136000	5200	102000	3900	85000	3250	"=IF(SUM(ARRAYFORMULA(IFERROR(VLOOKUP(R[0]C[1]:R[0]C[5],Enemies!C1:C10,COLUMN(Enemies!C10:C10),0),0)))>0,SUM(ARRAYFORMULA(IFERROR(VLOOKUP(R[0]C[1]:R[0]C[5],Enemies!C1:C10,COLUMN(Enemies!C10:C10),0),0))),"""")"	4103	4103			4103	"=IFERROR(HYPERLINK(""#gid=""&Enemies!R1C40&""&range=B""&MATCH(RC[-5],Enemies!C1:C1,0),VLOOKUP(RC[-5],Enemies!C1:C2,2,0)),"""")"	"=IFERROR(HYPERLINK(""#gid=""&Enemies!R1C40&""&range=B""&MATCH(RC[-5],Enemies!C1:C1,0),VLOOKUP(RC[-5],Enemies!C1:C2,2,0)),"""")"	"=IFERROR(HYPERLINK(""#gid=""&Enemies!R1C40&""&range=B""&MATCH(RC[-5],Enemies!C1:C1,0),VLOOKUP(RC[-5],Enemies!C1:C2,2,0)),"""")"	"=IFERROR(HYPERLINK(""#gid=""&Enemies!R1C40&""&range=B""&MATCH(RC[-5],Enemies!C1:C1,0),VLOOKUP(RC[-5],Enemies!C1:C2,2,0)),"""")"	"=IFERROR(HYPERLINK(""#gid=""&Enemies!R1C40&""&range=B""&MATCH(RC[-5],Enemies!C1:C1,0),VLOOKUP(RC[-5],Enemies!C1:C2,2,0)),"""")"
52	920000000	90	34000	34	100000	600	255000	9750	238000	9100	221000	8450	170000	6500	136000	5200	102000	3900	85000	3250	"=IF(SUM(ARRAYFORMULA(IFERROR(VLOOKUP(R[0]C[1]:R[0]C[5],Enemies!C1:C10,COLUMN(Enemies!C10:C10),0),0)))>0,SUM(ARRAYFORMULA(IFERROR(VLOOKUP(R[0]C[1]:R[0]C[5],Enemies!C1:C10,COLUMN(Enemies!C10:C10),0),0))),"""")"	4104	4104			4104	"=IFERROR(HYPERLINK(""#gid=""&Enemies!R1C40&""&range=B""&MATCH(RC[-5],Enemies!C1:C1,0),VLOOKUP(RC[-5],Enemies!C1:C2,2,0)),"""")"	"=IFERROR(HYPERLINK(""#gid=""&Enemies!R1C40&""&range=B""&MATCH(RC[-5],Enemies!C1:C1,0),VLOOKUP(RC[-5],Enemies!C1:C2,2,0)),"""")"	"=IFERROR(HYPERLINK(""#gid=""&Enemies!R1C40&""&range=B""&MATCH(RC[-5],Enemies!C1:C1,0),VLOOKUP(RC[-5],Enemies!C1:C2,2,0)),"""")"	"=IFERROR(HYPERLINK(""#gid=""&Enemies!R1C40&""&range=B""&MATCH(RC[-5],Enemies!C1:C1,0),VLOOKUP(RC[-5],Enemies!C1:C2,2,0)),"""")"	"=IFERROR(HYPERLINK(""#gid=""&Enemies!R1C40&""&range=B""&MATCH(RC[-5],Enemies!C1:C1,0),VLOOKUP(RC[-5],Enemies!C1:C2,2,0)),"""")"
53	930000000	90	34000	34	100000	600	255000	9750	238000	9100	221000	8450	170000	6500	136000	5200	102000	3900	85000	3250	"=IF(SUM(ARRAYFORMULA(IFERROR(VLOOKUP(R[0]C[1]:R[0]C[5],Enemies!C1:C10,COLUMN(Enemies!C10:C10),0),0)))>0,SUM(ARRAYFORMULA(IFERROR(VLOOKUP(R[0]C[1]:R[0]C[5],Enemies!C1:C10,COLUMN(Enemies!C10:C10),0),0))),"""")"	4105	4105			4105	"=IFERROR(HYPERLINK(""#gid=""&Enemies!R1C40&""&range=B""&MATCH(RC[-5],Enemies!C1:C1,0),VLOOKUP(RC[-5],Enemies!C1:C2,2,0)),"""")"	"=IFERROR(HYPERLINK(""#gid=""&Enemies!R1C40&""&range=B""&MATCH(RC[-5],Enemies!C1:C1,0),VLOOKUP(RC[-5],Enemies!C1:C2,2,0)),"""")"	"=IFERROR(HYPERLINK(""#gid=""&Enemies!R1C40&""&range=B""&MATCH(RC[-5],Enemies!C1:C1,0),VLOOKUP(RC[-5],Enemies!C1:C2,2,0)),"""")"	"=IFERROR(HYPERLINK(""#gid=""&Enemies!R1C40&""&range=B""&MATCH(RC[-5],Enemies!C1:C1,0),VLOOKUP(RC[-5],Enemies!C1:C2,2,0)),"""")"	"=IFERROR(HYPERLINK(""#gid=""&Enemies!R1C40&""&range=B""&MATCH(RC[-5],Enemies!C1:C1,0),VLOOKUP(RC[-5],Enemies!C1:C2,2,0)),"""")"
54	940000000	90	34000	34	100000	600	255000	9750	238000	9100	221000	8450	170000	6500	136000	5200	102000	3900	85000	3250	"=IF(SUM(ARRAYFORMULA(IFERROR(VLOOKUP(R[0]C[1]:R[0]C[5],Enemies!C1:C10,COLUMN(Enemies!C10:C10),0),0)))>0,SUM(ARRAYFORMULA(IFERROR(VLOOKUP(R[0]C[1]:R[0]C[5],Enemies!C1:C10,COLUMN(Enemies!C10:C10),0),0))),"""")"	4106	4106			4106	"=IFERROR(HYPERLINK(""#gid=""&Enemies!R1C40&""&range=B""&MATCH(RC[-5],Enemies!C1:C1,0),VLOOKUP(RC[-5],Enemies!C1:C2,2,0)),"""")"	"=IFERROR(HYPERLINK(""#gid=""&Enemies!R1C40&""&range=B""&MATCH(RC[-5],Enemies!C1:C1,0),VLOOKUP(RC[-5],Enemies!C1:C2,2,0)),"""")"	"=IFERROR(HYPERLINK(""#gid=""&Enemies!R1C40&""&range=B""&MATCH(RC[-5],Enemies!C1:C1,0),VLOOKUP(RC[-5],Enemies!C1:C2,2,0)),"""")"	"=IFERROR(HYPERLINK(""#gid=""&Enemies!R1C40&""&range=B""&MATCH(RC[-5],Enemies!C1:C1,0),VLOOKUP(RC[-5],Enemies!C1:C2,2,0)),"""")"	"=IFERROR(HYPERLINK(""#gid=""&Enemies!R1C40&""&range=B""&MATCH(RC[-5],Enemies!C1:C1,0),VLOOKUP(RC[-5],Enemies!C1:C2,2,0)),"""")"
55	950000000	90	34000	34	100000	600	255000	9750	238000	9100	221000	8450	170000	6500	136000	5200	102000	3900	85000	3250	"=IF(SUM(ARRAYFORMULA(IFERROR(VLOOKUP(R[0]C[1]:R[0]C[5],Enemies!C1:C10,COLUMN(Enemies!C10:C10),0),0)))>0,SUM(ARRAYFORMULA(IFERROR(VLOOKUP(R[0]C[1]:R[0]C[5],Enemies!C1:C10,COLUMN(Enemies!C10:C10),0),0))),"""")"	4107	4107			4107	"=IFERROR(HYPERLINK(""#gid=""&Enemies!R1C40&""&range=B""&MATCH(RC[-5],Enemies!C1:C1,0),VLOOKUP(RC[-5],Enemies!C1:C2,2,0)),"""")"	"=IFERROR(HYPERLINK(""#gid=""&Enemies!R1C40&""&range=B""&MATCH(RC[-5],Enemies!C1:C1,0),VLOOKUP(RC[-5],Enemies!C1:C2,2,0)),"""")"	"=IFERROR(HYPERLINK(""#gid=""&Enemies!R1C40&""&range=B""&MATCH(RC[-5],Enemies!C1:C1,0),VLOOKUP(RC[-5],Enemies!C1:C2,2,0)),"""")"	"=IFERROR(HYPERLINK(""#gid=""&Enemies!R1C40&""&range=B""&MATCH(RC[-5],Enemies!C1:C1,0),VLOOKUP(RC[-5],Enemies!C1:C2,2,0)),"""")"	"=IFERROR(HYPERLINK(""#gid=""&Enemies!R1C40&""&range=B""&MATCH(RC[-5],Enemies!C1:C1,0),VLOOKUP(RC[-5],Enemies!C1:C2,2,0)),"""")"
56	955000000	90	34000	34	100000	600	255000	9750	238000	9100	221000	8450	170000	6500	136000	5200	102000	3900	85000	3250	"=IF(SUM(ARRAYFORMULA(IFERROR(VLOOKUP(R[0]C[1]:R[0]C[5],Enemies!C1:C10,COLUMN(Enemies!C10:C10),0),0)))>0,SUM(ARRAYFORMULA(IFERROR(VLOOKUP(R[0]C[1]:R[0]C[5],Enemies!C1:C10,COLUMN(Enemies!C10:C10),0),0))),"""")"	4108	4108			4108	"=IFERROR(HYPERLINK(""#gid=""&Enemies!R1C40&""&range=B""&MATCH(RC[-5],Enemies!C1:C1,0),VLOOKUP(RC[-5],Enemies!C1:C2,2,0)),"""")"	"=IFERROR(HYPERLINK(""#gid=""&Enemies!R1C40&""&range=B""&MATCH(RC[-5],Enemies!C1:C1,0),VLOOKUP(RC[-5],Enemies!C1:C2,2,0)),"""")"	"=IFERROR(HYPERLINK(""#gid=""&Enemies!R1C40&""&range=B""&MATCH(RC[-5],Enemies!C1:C1,0),VLOOKUP(RC[-5],Enemies!C1:C2,2,0)),"""")"	"=IFERROR(HYPERLINK(""#gid=""&Enemies!R1C40&""&range=B""&MATCH(RC[-5],Enemies!C1:C1,0),VLOOKUP(RC[-5],Enemies!C1:C2,2,0)),"""")"	"=IFERROR(HYPERLINK(""#gid=""&Enemies!R1C40&""&range=B""&MATCH(RC[-5],Enemies!C1:C1,0),VLOOKUP(RC[-5],Enemies!C1:C2,2,0)),"""")"
57	960000000	90	34000	34	100000	600	255000	9750	238000	9100	221000	8450	170000	6500	136000	5200	102000	3900	85000	3250	"=IF(SUM(ARRAYFORMULA(IFERROR(VLOOKUP(R[0]C[1]:R[0]C[5],Enemies!C1:C10,COLUMN(Enemies!C10:C10),0),0)))>0,SUM(ARRAYFORMULA(IFERROR(VLOOKUP(R[0]C[1]:R[0]C[5],Enemies!C1:C10,COLUMN(Enemies!C10:C10),0),0))),"""")"	4109	4109			4109	"=IFERROR(HYPERLINK(""#gid=""&Enemies!R1C40&""&range=B""&MATCH(RC[-5],Enemies!C1:C1,0),VLOOKUP(RC[-5],Enemies!C1:C2,2,0)),"""")"	"=IFERROR(HYPERLINK(""#gid=""&Enemies!R1C40&""&range=B""&MATCH(RC[-5],Enemies!C1:C1,0),VLOOKUP(RC[-5],Enemies!C1:C2,2,0)),"""")"	"=IFERROR(HYPERLINK(""#gid=""&Enemies!R1C40&""&range=B""&MATCH(RC[-5],Enemies!C1:C1,0),VLOOKUP(RC[-5],Enemies!C1:C2,2,0)),"""")"	"=IFERROR(HYPERLINK(""#gid=""&Enemies!R1C40&""&range=B""&MATCH(RC[-5],Enemies!C1:C1,0),VLOOKUP(RC[-5],Enemies!C1:C2,2,0)),"""")"	"=IFERROR(HYPERLINK(""#gid=""&Enemies!R1C40&""&range=B""&MATCH(RC[-5],Enemies!C1:C1,0),VLOOKUP(RC[-5],Enemies!C1:C2,2,0)),"""")"
58	965000000	90	34000	34	100000	600	255000	9750	238000	9100	221000	8450	170000	6500	136000	5200	102000	3900	85000	3250	"=IF(SUM(ARRAYFORMULA(IFERROR(VLOOKUP(R[0]C[1]:R[0]C[5],Enemies!C1:C10,COLUMN(Enemies!C10:C10),0),0)))>0,SUM(ARRAYFORMULA(IFERROR(VLOOKUP(R[0]C[1]:R[0]C[5],Enemies!C1:C10,COLUMN(Enemies!C10:C10),0),0))),"""")"	4110	4110			4110	"=IFERROR(HYPERLINK(""#gid=""&Enemies!R1C40&""&range=B""&MATCH(RC[-5],Enemies!C1:C1,0),VLOOKUP(RC[-5],Enemies!C1:C2,2,0)),"""")"	"=IFERROR(HYPERLINK(""#gid=""&Enemies!R1C40&""&range=B""&MATCH(RC[-5],Enemies!C1:C1,0),VLOOKUP(RC[-5],Enemies!C1:C2,2,0)),"""")"	"=IFERROR(HYPERLINK(""#gid=""&Enemies!R1C40&""&range=B""&MATCH(RC[-5],Enemies!C1:C1,0),VLOOKUP(RC[-5],Enemies!C1:C2,2,0)),"""")"	"=IFERROR(HYPERLINK(""#gid=""&Enemies!R1C40&""&range=B""&MATCH(RC[-5],Enemies!C1:C1,0),VLOOKUP(RC[-5],Enemies!C1:C2,2,0)),"""")"	"=IFERROR(HYPERLINK(""#gid=""&Enemies!R1C40&""&range=B""&MATCH(RC[-5],Enemies!C1:C1,0),VLOOKUP(RC[-5],Enemies!C1:C2,2,0)),"""")"
59	970000000	90	34000	34	100000	600	255000	9750	238000	9100	221000	8450	170000	6500	136000	5200	102000	3900	85000	3250	"=IF(SUM(ARRAYFORMULA(IFERROR(VLOOKUP(R[0]C[1]:R[0]C[5],Enemies!C1:C10,COLUMN(Enemies!C10:C10),0),0)))>0,SUM(ARRAYFORMULA(IFERROR(VLOOKUP(R[0]C[1]:R[0]C[5],Enemies!C1:C10,COLUMN(Enemies!C10:C10),0),0))),"""")"	4111	4111			4111	"=IFERROR(HYPERLINK(""#gid=""&Enemies!R1C40&""&range=B""&MATCH(RC[-5],Enemies!C1:C1,0),VLOOKUP(RC[-5],Enemies!C1:C2,2,0)),"""")"	"=IFERROR(HYPERLINK(""#gid=""&Enemies!R1C40&""&range=B""&MATCH(RC[-5],Enemies!C1:C1,0),VLOOKUP(RC[-5],Enemies!C1:C2,2,0)),"""")"	"=IFERROR(HYPERLINK(""#gid=""&Enemies!R1C40&""&range=B""&MATCH(RC[-5],Enemies!C1:C1,0),VLOOKUP(RC[-5],Enemies!C1:C2,2,0)),"""")"	"=IFERROR(HYPERLINK(""#gid=""&Enemies!R1C40&""&range=B""&MATCH(RC[-5],Enemies!C1:C1,0),VLOOKUP(RC[-5],Enemies!C1:C2,2,0)),"""")"	"=IFERROR(HYPERLINK(""#gid=""&Enemies!R1C40&""&range=B""&MATCH(RC[-5],Enemies!C1:C1,0),VLOOKUP(RC[-5],Enemies!C1:C2,2,0)),"""")"
60	975000000	90	34000	34	100000	600	255000	9750	238000	9100	221000	8450	170000	6500	136000	5200	102000	3900	85000	3250	"=IF(SUM(ARRAYFORMULA(IFERROR(VLOOKUP(R[0]C[1]:R[0]C[5],Enemies!C1:C10,COLUMN(Enemies!C10:C10),0),0)))>0,SUM(ARRAYFORMULA(IFERROR(VLOOKUP(R[0]C[1]:R[0]C[5],Enemies!C1:C10,COLUMN(Enemies!C10:C10),0),0))),"""")"	4112	4112			4112	"=IFERROR(HYPERLINK(""#gid=""&Enemies!R1C40&""&range=B""&MATCH(RC[-5],Enemies!C1:C1,0),VLOOKUP(RC[-5],Enemies!C1:C2,2,0)),"""")"	"=IFERROR(HYPERLINK(""#gid=""&Enemies!R1C40&""&range=B""&MATCH(RC[-5],Enemies!C1:C1,0),VLOOKUP(RC[-5],Enemies!C1:C2,2,0)),"""")"	"=IFERROR(HYPERLINK(""#gid=""&Enemies!R1C40&""&range=B""&MATCH(RC[-5],Enemies!C1:C1,0),VLOOKUP(RC[-5],Enemies!C1:C2,2,0)),"""")"	"=IFERROR(HYPERLINK(""#gid=""&Enemies!R1C40&""&range=B""&MATCH(RC[-5],Enemies!C1:C1,0),VLOOKUP(RC[-5],Enemies!C1:C2,2,0)),"""")"	"=IFERROR(HYPERLINK(""#gid=""&Enemies!R1C40&""&range=B""&MATCH(RC[-5],Enemies!C1:C1,0),VLOOKUP(RC[-5],Enemies!C1:C2,2,0)),"""")"
