star_star_name	sum	sum	sum	food_total	self	fodder_faction_5	fodder_faction_6	fodder_any_9	fodder_any_10	return_self	return_9	return_10	food_loss
5*	"=SUM(IF(R[1]C17<>"""",R2C[-16]:INDEX(C[-16]:C[-16],MATCH(SUBSTITUTE(R[1]C17,""*"",""~*"")&""*"",C1:C1,0)-1),C[-16]:C[-16]))"	"=SUM(IF(R[1]C17<>"""",R2C[-16]:INDEX(C[-16]:C[-16],MATCH(SUBSTITUTE(R[1]C17,""*"",""~*"")&""*"",C1:C1,0)-1),C[-16]:C[-16]))"	"=SUM(IF(R[1]C17<>"""",R2C[-16]:INDEX(C[-16]:C[-16],MATCH(SUBSTITUTE(R[1]C17,""*"",""~*"")&""*"",C1:C1,0)-1),C[-16]:C[-16]))"	=IF(ISNUMBER(R[-1]C),R[-1]C,0)+RC[1]+RC[2]+RC[3]*R5C21+RC[4]*R8C21+RC[5]*R9C21	1								"=IF(RC[-3]>0,RC[-9]-RC[-3]-RC[-2]*R8C[-9]-RC[-1]*R9C[-9],"""")"
6*	"=SUM(IF(R[1]C17<>"""",R2C[-16]:INDEX(C[-16]:C[-16],MATCH(SUBSTITUTE(R[1]C17,""*"",""~*"")&""*"",C1:C1,0)-1),C[-16]:C[-16]))"	"=SUM(IF(R[1]C17<>"""",R2C[-16]:INDEX(C[-16]:C[-16],MATCH(SUBSTITUTE(R[1]C17,""*"",""~*"")&""*"",C1:C1,0)-1),C[-16]:C[-16]))"	"=SUM(IF(R[1]C17<>"""",R2C[-16]:INDEX(C[-16]:C[-16],MATCH(SUBSTITUTE(R[1]C17,""*"",""~*"")&""*"",C1:C1,0)-1),C[-16]:C[-16]))"	=IF(ISNUMBER(R[-1]C),R[-1]C,0)+RC[1]+RC[2]+RC[3]*R5C21+RC[4]*R8C21+RC[5]*R9C21	1	4							"=IF(RC[-3]>0,RC[-9]-RC[-3]-RC[-2]*R8C[-9]-RC[-1]*R9C[-9],"""")"
7*	"=SUM(IF(R[1]C17<>"""",R2C[-16]:INDEX(C[-16]:C[-16],MATCH(SUBSTITUTE(R[1]C17,""*"",""~*"")&""*"",C1:C1,0)-1),C[-16]:C[-16]))"	"=SUM(IF(R[1]C17<>"""",R2C[-16]:INDEX(C[-16]:C[-16],MATCH(SUBSTITUTE(R[1]C17,""*"",""~*"")&""*"",C1:C1,0)-1),C[-16]:C[-16]))"	"=SUM(IF(R[1]C17<>"""",R2C[-16]:INDEX(C[-16]:C[-16],MATCH(SUBSTITUTE(R[1]C17,""*"",""~*"")&""*"",C1:C1,0)-1),C[-16]:C[-16]))"	=IF(ISNUMBER(R[-1]C),R[-1]C,0)+RC[1]+RC[2]+RC[3]*R5C21+RC[4]*R8C21+RC[5]*R9C21		4							"=IF(RC[-3]>0,RC[-9]-RC[-3]-RC[-2]*R8C[-9]-RC[-1]*R9C[-9],"""")"
8*	"=SUM(IF(R[1]C17<>"""",R2C[-16]:INDEX(C[-16]:C[-16],MATCH(SUBSTITUTE(R[1]C17,""*"",""~*"")&""*"",C1:C1,0)-1),C[-16]:C[-16]))"	"=SUM(IF(R[1]C17<>"""",R2C[-16]:INDEX(C[-16]:C[-16],MATCH(SUBSTITUTE(R[1]C17,""*"",""~*"")&""*"",C1:C1,0)-1),C[-16]:C[-16]))"	"=SUM(IF(R[1]C17<>"""",R2C[-16]:INDEX(C[-16]:C[-16],MATCH(SUBSTITUTE(R[1]C17,""*"",""~*"")&""*"",C1:C1,0)-1),C[-16]:C[-16]))"	=IF(ISNUMBER(R[-1]C),R[-1]C,0)+RC[1]+RC[2]+RC[3]*R5C21+RC[4]*R8C21+RC[5]*R9C21		3	1						"=IF(RC[-3]>0,RC[-9]-RC[-3]-RC[-2]*R8C[-9]-RC[-1]*R9C[-9],"""")"
9*	"=SUM(IF(R[1]C17<>"""",R2C[-16]:INDEX(C[-16]:C[-16],MATCH(SUBSTITUTE(R[1]C17,""*"",""~*"")&""*"",C1:C1,0)-1),C[-16]:C[-16]))"	"=SUM(IF(R[1]C17<>"""",R2C[-16]:INDEX(C[-16]:C[-16],MATCH(SUBSTITUTE(R[1]C17,""*"",""~*"")&""*"",C1:C1,0)-1),C[-16]:C[-16]))"	"=SUM(IF(R[1]C17<>"""",R2C[-16]:INDEX(C[-16]:C[-16],MATCH(SUBSTITUTE(R[1]C17,""*"",""~*"")&""*"",C1:C1,0)-1),C[-16]:C[-16]))"	=IF(ISNUMBER(R[-1]C),R[-1]C,0)+RC[1]+RC[2]+RC[3]*R5C21+RC[4]*R8C21+RC[5]*R9C21	1	2	1						"=IF(RC[-3]>0,RC[-9]-RC[-3]-RC[-2]*R8C[-9]-RC[-1]*R9C[-9],"""")"
10*	"=SUM(IF(R[1]C17<>"""",R2C[-16]:INDEX(C[-16]:C[-16],MATCH(SUBSTITUTE(R[1]C17,""*"",""~*"")&""*"",C1:C1,0)-1),C[-16]:C[-16]))"	"=SUM(IF(R[1]C17<>"""",R2C[-16]:INDEX(C[-16]:C[-16],MATCH(SUBSTITUTE(R[1]C17,""*"",""~*"")&""*"",C1:C1,0)-1),C[-16]:C[-16]))"	"=SUM(IF(R[1]C17<>"""",R2C[-16]:INDEX(C[-16]:C[-16],MATCH(SUBSTITUTE(R[1]C17,""*"",""~*"")&""*"",C1:C1,0)-1),C[-16]:C[-16]))"	=IF(ISNUMBER(R[-1]C),R[-1]C,0)+RC[1]+RC[2]+RC[3]*R5C21+RC[4]*R8C21+RC[5]*R9C21	2		1	1		5	2		"=IF(RC[-3]>0,RC[-9]-RC[-3]-RC[-2]*R8C[-9]-RC[-1]*R9C[-9],"""")"
E1	"=SUM(IF(R[1]C17<>"""",R2C[-16]:INDEX(C[-16]:C[-16],MATCH(SUBSTITUTE(R[1]C17,""*"",""~*"")&""*"",C1:C1,0)-1),C[-16]:C[-16]))"	"=SUM(IF(R[1]C17<>"""",R2C[-16]:INDEX(C[-16]:C[-16],MATCH(SUBSTITUTE(R[1]C17,""*"",""~*"")&""*"",C1:C1,0)-1),C[-16]:C[-16]))"	"=SUM(IF(R[1]C17<>"""",R2C[-16]:INDEX(C[-16]:C[-16],MATCH(SUBSTITUTE(R[1]C17,""*"",""~*"")&""*"",C1:C1,0)-1),C[-16]:C[-16]))"	=IF(ISNUMBER(R[-1]C),R[-1]C,0)+RC[1]+RC[2]+RC[3]*R5C21+RC[4]*R8C21+RC[5]*R9C21	1			1		6	3		"=IF(RC[-3]>0,RC[-9]-RC[-3]-RC[-2]*R8C[-9]-RC[-1]*R9C[-9],"""")"
E2	"=SUM(IF(R[1]C17<>"""",R2C[-16]:INDEX(C[-16]:C[-16],MATCH(SUBSTITUTE(R[1]C17,""*"",""~*"")&""*"",C1:C1,0)-1),C[-16]:C[-16]))"	"=SUM(IF(R[1]C17<>"""",R2C[-16]:INDEX(C[-16]:C[-16],MATCH(SUBSTITUTE(R[1]C17,""*"",""~*"")&""*"",C1:C1,0)-1),C[-16]:C[-16]))"	"=SUM(IF(R[1]C17<>"""",R2C[-16]:INDEX(C[-16]:C[-16],MATCH(SUBSTITUTE(R[1]C17,""*"",""~*"")&""*"",C1:C1,0)-1),C[-16]:C[-16]))"	=IF(ISNUMBER(R[-1]C),R[-1]C,0)+RC[1]+RC[2]+RC[3]*R5C21+RC[4]*R8C21+RC[5]*R9C21	1			1		7	4		"=IF(RC[-3]>0,RC[-9]-RC[-3]-RC[-2]*R8C[-9]-RC[-1]*R9C[-9],"""")"
E3	"=SUM(IF(R[1]C17<>"""",R2C[-16]:INDEX(C[-16]:C[-16],MATCH(SUBSTITUTE(R[1]C17,""*"",""~*"")&""*"",C1:C1,0)-1),C[-16]:C[-16]))"	"=SUM(IF(R[1]C17<>"""",R2C[-16]:INDEX(C[-16]:C[-16],MATCH(SUBSTITUTE(R[1]C17,""*"",""~*"")&""*"",C1:C1,0)-1),C[-16]:C[-16]))"	"=SUM(IF(R[1]C17<>"""",R2C[-16]:INDEX(C[-16]:C[-16],MATCH(SUBSTITUTE(R[1]C17,""*"",""~*"")&""*"",C1:C1,0)-1),C[-16]:C[-16]))"	=IF(ISNUMBER(R[-1]C),R[-1]C,0)+RC[1]+RC[2]+RC[3]*R5C21+RC[4]*R8C21+RC[5]*R9C21					1	7	4	1	"=IF(RC[-3]>0,RC[-9]-RC[-3]-RC[-2]*R8C[-9]-RC[-1]*R9C[-9],"""")"
E4	"=SUM(IF(R[1]C17<>"""",R2C[-16]:INDEX(C[-16]:C[-16],MATCH(SUBSTITUTE(R[1]C17,""*"",""~*"")&""*"",C1:C1,0)-1),C[-16]:C[-16]))"	"=SUM(IF(R[1]C17<>"""",R2C[-16]:INDEX(C[-16]:C[-16],MATCH(SUBSTITUTE(R[1]C17,""*"",""~*"")&""*"",C1:C1,0)-1),C[-16]:C[-16]))"	"=SUM(IF(R[1]C17<>"""",R2C[-16]:INDEX(C[-16]:C[-16],MATCH(SUBSTITUTE(R[1]C17,""*"",""~*"")&""*"",C1:C1,0)-1),C[-16]:C[-16]))"	=IF(ISNUMBER(R[-1]C),R[-1]C,0)+RC[1]+RC[2]+RC[3]*R5C21+RC[4]*R8C21+RC[5]*R9C21	1				1	8	4	2	"=IF(RC[-3]>0,RC[-9]-RC[-3]-RC[-2]*R8C[-9]-RC[-1]*R9C[-9],"""")"
E5	"=SUM(IF(R[1]C17<>"""",R2C[-16]:INDEX(C[-16]:C[-16],MATCH(SUBSTITUTE(R[1]C17,""*"",""~*"")&""*"",C1:C1,0)-1),C[-16]:C[-16]))"	"=SUM(IF(R[1]C17<>"""",R2C[-16]:INDEX(C[-16]:C[-16],MATCH(SUBSTITUTE(R[1]C17,""*"",""~*"")&""*"",C1:C1,0)-1),C[-16]:C[-16]))"	"=SUM(IF(R[1]C17<>"""",R2C[-16]:INDEX(C[-16]:C[-16],MATCH(SUBSTITUTE(R[1]C17,""*"",""~*"")&""*"",C1:C1,0)-1),C[-16]:C[-16]))"	=IF(ISNUMBER(R[-1]C),R[-1]C,0)+RC[1]+RC[2]+RC[3]*R5C21+RC[4]*R8C21+RC[5]*R9C21	1				1	9	4	3	"=IF(RC[-3]>0,RC[-9]-RC[-3]-RC[-2]*R8C[-9]-RC[-1]*R9C[-9],"""")"
