id	lv_1	gems	reward1_1_range_min	reward1_1_range_max	reward2_1_range_min	reward2_1_range_max	reward3_1_range_min	reward3_1_range_max	reward4_1_range_min	reward4_1_range_max	reward5_1_range_min	reward5_1_range_max	reward6_1_gift_name_or_item_name	reward6_1_range_min	reward6_1_range_max	reward7_1_gift_name_or_item_name	reward7_1_range_min	reward7_1_range_max	reward8_1_gift_name	reward9_1_gift_name
1	1	60	50000	150000	30000	90000	10	20	10	12	3	5	Blue Artifact Piece	1	1	Gold Artifact Piece	1	1	Purple 1*	Purple 2*
2	100000	70	150000	250000	90000	150000	20	30	12	14	3	5	Gold Artifact Piece	1	1	Purple Artifact Fragment	5	7	Green 1*	Green 2*
3	450000	80	250000	350000	150000	210000	30	40	14	16	3	5	Purple Artifact Fragment	5	7	Green Artifact Fragment	1	4	Green 4*	Red 1*
4	900000	90	350000	450000	210000	270000	40	50	16	18	4	6	Green Artifact Fragment	2	3	Red Artifact Fragment	1	3	Red 2*	Red 3*
5	1500000	100	450000	550000	270000	330000	45	55	18	22	4	6	Red Artifact Fragment	1	3	Red Artifact Exclusive Fragment	1	3	Red 4*	Orange 1*
