actTime_1_date	actTime_2_date	instruct	levels_0_group_Equip_name	levels_0_group_Equip_noop	levels_0_num	levels_0_qlt_Equip_name	levels_0_qlt_Equip_noop	levels_1_num	levels_1_qlt_Equip_name	levels_1_qlt_Equip_noop	levels_2_num	levels_2_qlt_Equip_name	levels_2_qlt_Equip_noop
2020-06-15	2020-07-02	30000	Demon Bell	T2Q6-5431	7000	Demon Bell - Glittery	T2Q7-6001	10000	Demon Bell - Radiant	T2Q7-6002	13000	Demon Bell - Splendid	T2Q7-6003
2020-06-15	2020-07-02	30000	Antlers Cane	T2Q6-5437	7000	Antlers Cane - Glittery	T2Q7-6004	10000	Antlers Cane - Radiant	T2Q7-6005	13000	Antlers Cane - Splendid	T2Q7-6006
2020-06-15	2020-07-02	30000	Staff: Punisher of Immortal	T2Q6-5443	7000	Staff: Punisher of Immortal - Glittery	T2Q7-6007	10000	Staff: Punisher of Immortal - Radiant	T2Q7-6008	13000	Staff: Punisher of Immortal - Splendid	T2Q7-6009
2020-06-15	2020-07-02	30000	The Kiss of Ghost	T2Q6-5623	7000	The Kiss of Ghost - Glittery	T2Q7-6016	10000	The Kiss of Ghost - Radiant	T2Q7-6017	13000	The Kiss of Ghost - Splendid	T2Q7-6018
2020-06-15	2020-07-02	30000	Lucky Candy Bar	T2Q6-5629	7000	Lucky Candy Bar - Glittery	T2Q7-6019	10000	Lucky Candy Bar - Radiant	T2Q7-6020	13000	Lucky Candy Bar - Splendid	T2Q7-6021
2020-06-15	2020-07-02	30000	Ruyi Scepter	T2Q6-5647	7000	Ruyi Scepter - Glittery	T2Q7-6028	10000	Ruyi Scepter - Radiant	T2Q7-6029	13000	Ruyi Scepter - Splendid	T2Q7-6030
2020-05-18	2020-06-04	30000	Antlers Cane	T2Q6-5437	7000	Antlers Cane - Glittery	T2Q7-6004	10000	Antlers Cane - Radiant	T2Q7-6005	13000	Antlers Cane - Splendid	T2Q7-6006
2020-05-18	2020-06-04	30000	The Kiss of Ghost	T2Q6-5623	7000	The Kiss of Ghost - Glittery	T2Q7-6016	10000	The Kiss of Ghost - Radiant	T2Q7-6017	13000	The Kiss of Ghost - Splendid	T2Q7-6018
2020-05-18	2020-06-04	30000	Lucky Candy Bar	T2Q6-5629	7000	Lucky Candy Bar - Glittery	T2Q7-6019	10000	Lucky Candy Bar - Radiant	T2Q7-6020	13000	Lucky Candy Bar - Splendid	T2Q7-6021
2020-05-18	2020-06-04	30000	Ruyi Scepter	T2Q6-5647	7000	Ruyi Scepter - Glittery	T2Q7-6028	10000	Ruyi Scepter - Radiant	T2Q7-6029	13000	Ruyi Scepter - Splendid	T2Q7-6030
