name	event	id	storeId	cn_name	usd	vip	gv	gvpd	condition	actTime_2_date	lastDays	instruct	reward_2	reward_12003	reward_21	reward_1	reward_10	reward_11	reward_15	reward_40	reward_41	reward_12002	reward_58	reward_170	reward_other_0_item_name	reward_other_0_item_uiid	reward_other_0_item_num	reward_other_1_item_name	reward_other_1_item_uiid	reward_other_1_item_num	reward_other_2_item_name	reward_other_2_item_uiid	reward_other_2_item_num	reward_other_3_item_name	reward_other_3_item_uiid	reward_other_3_item_num	reward_other_4_item_name	reward_other_4_item_uiid	reward_other_4_item_num	reward_other_5_item_name	reward_other_5_item_uiid	reward_other_5_item_num
Gem Purchase 250			1	"=IFERROR(HYPERLINK(""#gid=""&'Package Prices'!R1C78&""&range=C""&MATCH(RC4,'Package Prices'!C1:C1,0),VLOOKUP(RC4,'Package Prices'!C1:C6,3,0)),"""")"	=VLOOKUP(RC4,'Package Prices'!C1:C6,6,0)	=VLOOKUP(RC4,'Package Prices'!C1:C6,4,0)	=SUMPRODUCT(R1C[6]:R1C[17],RC[6]:RC[17])+SUMPRODUCT({RC[20],RC[23],RC[26]},ARRAYFORMULA(IFERROR(VLOOKUP({RC[19],RC[22],RC[25]},Items!C4:C8,5,0),0)))	=RC[-1]/RC[-3]					250																													
Gem Purchase 500			2	"=IFERROR(HYPERLINK(""#gid=""&'Package Prices'!R1C78&""&range=C""&MATCH(RC4,'Package Prices'!C1:C1,0),VLOOKUP(RC4,'Package Prices'!C1:C6,3,0)),"""")"	=VLOOKUP(RC4,'Package Prices'!C1:C6,6,0)	=VLOOKUP(RC4,'Package Prices'!C1:C6,4,0)	=SUMPRODUCT(R1C[6]:R1C[17],RC[6]:RC[17])+SUMPRODUCT({RC[20],RC[23],RC[26]},ARRAYFORMULA(IFERROR(VLOOKUP({RC[19],RC[22],RC[25]},Items!C4:C8,5,0),0)))	=RC[-1]/RC[-3]					500																													
Gem Purchase 1000			3	"=IFERROR(HYPERLINK(""#gid=""&'Package Prices'!R1C78&""&range=C""&MATCH(RC4,'Package Prices'!C1:C1,0),VLOOKUP(RC4,'Package Prices'!C1:C6,3,0)),"""")"	=VLOOKUP(RC4,'Package Prices'!C1:C6,6,0)	=VLOOKUP(RC4,'Package Prices'!C1:C6,4,0)	=SUMPRODUCT(R1C[6]:R1C[17],RC[6]:RC[17])+SUMPRODUCT({RC[20],RC[23],RC[26]},ARRAYFORMULA(IFERROR(VLOOKUP({RC[19],RC[22],RC[25]},Items!C4:C8,5,0),0)))	=RC[-1]/RC[-3]					1000																													
Gem Purchase 2500			4	"=IFERROR(HYPERLINK(""#gid=""&'Package Prices'!R1C78&""&range=C""&MATCH(RC4,'Package Prices'!C1:C1,0),VLOOKUP(RC4,'Package Prices'!C1:C6,3,0)),"""")"	=VLOOKUP(RC4,'Package Prices'!C1:C6,6,0)	=VLOOKUP(RC4,'Package Prices'!C1:C6,4,0)	=SUMPRODUCT(R1C[6]:R1C[17],RC[6]:RC[17])+SUMPRODUCT({RC[20],RC[23],RC[26]},ARRAYFORMULA(IFERROR(VLOOKUP({RC[19],RC[22],RC[25]},Items!C4:C8,5,0),0)))	=RC[-1]/RC[-3]					2500																													
Gem Purchase 5000			5	"=IFERROR(HYPERLINK(""#gid=""&'Package Prices'!R1C78&""&range=C""&MATCH(RC4,'Package Prices'!C1:C1,0),VLOOKUP(RC4,'Package Prices'!C1:C6,3,0)),"""")"	=VLOOKUP(RC4,'Package Prices'!C1:C6,6,0)	=VLOOKUP(RC4,'Package Prices'!C1:C6,4,0)	=SUMPRODUCT(R1C[6]:R1C[17],RC[6]:RC[17])+SUMPRODUCT({RC[20],RC[23],RC[26]},ARRAYFORMULA(IFERROR(VLOOKUP({RC[19],RC[22],RC[25]},Items!C4:C8,5,0),0)))	=RC[-1]/RC[-3]					5000																													
Gem Purchase 250 x2			1	"=IFERROR(HYPERLINK(""#gid=""&'Package Prices'!R1C78&""&range=C""&MATCH(RC4,'Package Prices'!C1:C1,0),VLOOKUP(RC4,'Package Prices'!C1:C6,3,0)),"""")"	=VLOOKUP(RC4,'Package Prices'!C1:C6,6,0)	=VLOOKUP(RC4,'Package Prices'!C1:C6,4,0)	=SUMPRODUCT(R1C[6]:R1C[17],RC[6]:RC[17])+SUMPRODUCT({RC[20],RC[23],RC[26]},ARRAYFORMULA(IFERROR(VLOOKUP({RC[19],RC[22],RC[25]},Items!C4:C8,5,0),0)))	=RC[-1]/RC[-3]	First Time Purchase				500																													
Gem Purchase 500 x2			2	"=IFERROR(HYPERLINK(""#gid=""&'Package Prices'!R1C78&""&range=C""&MATCH(RC4,'Package Prices'!C1:C1,0),VLOOKUP(RC4,'Package Prices'!C1:C6,3,0)),"""")"	=VLOOKUP(RC4,'Package Prices'!C1:C6,6,0)	=VLOOKUP(RC4,'Package Prices'!C1:C6,4,0)	=SUMPRODUCT(R1C[6]:R1C[17],RC[6]:RC[17])+SUMPRODUCT({RC[20],RC[23],RC[26]},ARRAYFORMULA(IFERROR(VLOOKUP({RC[19],RC[22],RC[25]},Items!C4:C8,5,0),0)))	=RC[-1]/RC[-3]	First Time Purchase				1000																													
Gem Purchase 1000 x2			3	"=IFERROR(HYPERLINK(""#gid=""&'Package Prices'!R1C78&""&range=C""&MATCH(RC4,'Package Prices'!C1:C1,0),VLOOKUP(RC4,'Package Prices'!C1:C6,3,0)),"""")"	=VLOOKUP(RC4,'Package Prices'!C1:C6,6,0)	=VLOOKUP(RC4,'Package Prices'!C1:C6,4,0)	=SUMPRODUCT(R1C[6]:R1C[17],RC[6]:RC[17])+SUMPRODUCT({RC[20],RC[23],RC[26]},ARRAYFORMULA(IFERROR(VLOOKUP({RC[19],RC[22],RC[25]},Items!C4:C8,5,0),0)))	=RC[-1]/RC[-3]	First Time Purchase				2000																													
Gem Purchase 2500 x2			4	"=IFERROR(HYPERLINK(""#gid=""&'Package Prices'!R1C78&""&range=C""&MATCH(RC4,'Package Prices'!C1:C1,0),VLOOKUP(RC4,'Package Prices'!C1:C6,3,0)),"""")"	=VLOOKUP(RC4,'Package Prices'!C1:C6,6,0)	=VLOOKUP(RC4,'Package Prices'!C1:C6,4,0)	=SUMPRODUCT(R1C[6]:R1C[17],RC[6]:RC[17])+SUMPRODUCT({RC[20],RC[23],RC[26]},ARRAYFORMULA(IFERROR(VLOOKUP({RC[19],RC[22],RC[25]},Items!C4:C8,5,0),0)))	=RC[-1]/RC[-3]	First Time Purchase				5000																													
Gem Purchase 5000 x2			5	"=IFERROR(HYPERLINK(""#gid=""&'Package Prices'!R1C78&""&range=C""&MATCH(RC4,'Package Prices'!C1:C1,0),VLOOKUP(RC4,'Package Prices'!C1:C6,3,0)),"""")"	=VLOOKUP(RC4,'Package Prices'!C1:C6,6,0)	=VLOOKUP(RC4,'Package Prices'!C1:C6,4,0)	=SUMPRODUCT(R1C[6]:R1C[17],RC[6]:RC[17])+SUMPRODUCT({RC[20],RC[23],RC[26]},ARRAYFORMULA(IFERROR(VLOOKUP({RC[19],RC[22],RC[25]},Items!C4:C8,5,0),0)))	=RC[-1]/RC[-3]	First Time Purchase				10000																													
Privilege Card			32	"=IFERROR(HYPERLINK(""#gid=""&'Package Prices'!R1C78&""&range=C""&MATCH(RC4,'Package Prices'!C1:C1,0),VLOOKUP(RC4,'Package Prices'!C1:C6,3,0)),"""")"	=VLOOKUP(RC4,'Package Prices'!C1:C6,6,0)	=VLOOKUP(RC4,'Package Prices'!C1:C6,4,0)	=SUMPRODUCT(R1C[6]:R1C[17],RC[6]:RC[17])+SUMPRODUCT({RC[20],RC[23],RC[26]},ARRAYFORMULA(IFERROR(VLOOKUP({RC[19],RC[22],RC[25]},Items!C4:C8,5,0),0)))	=RC[-1]/RC[-3]					2800																													
Senior Privilege Card			6	"=IFERROR(HYPERLINK(""#gid=""&'Package Prices'!R1C78&""&range=C""&MATCH(RC4,'Package Prices'!C1:C1,0),VLOOKUP(RC4,'Package Prices'!C1:C6,3,0)),"""")"	=VLOOKUP(RC4,'Package Prices'!C1:C6,6,0)	=VLOOKUP(RC4,'Package Prices'!C1:C6,4,0)	=SUMPRODUCT(R1C[6]:R1C[17],RC[6]:RC[17])+SUMPRODUCT({RC[20],RC[23],RC[26]},ARRAYFORMULA(IFERROR(VLOOKUP({RC[19],RC[22],RC[25]},Items!C4:C8,5,0),0)))	=RC[-1]/RC[-3]					12000																													
Privilege Card Discount			43	"=IFERROR(HYPERLINK(""#gid=""&'Package Prices'!R1C78&""&range=C""&MATCH(RC4,'Package Prices'!C1:C1,0),VLOOKUP(RC4,'Package Prices'!C1:C6,3,0)),"""")"	=VLOOKUP(RC4,'Package Prices'!C1:C6,6,0)	=VLOOKUP(RC4,'Package Prices'!C1:C6,4,0)	=SUMPRODUCT(R1C[6]:R1C[17],RC[6]:RC[17])+SUMPRODUCT({RC[20],RC[23],RC[26]},ARRAYFORMULA(IFERROR(VLOOKUP({RC[19],RC[22],RC[25]},Items!C4:C8,5,0),0)))	=RC[-1]/RC[-3]	First Time Purchase				2800																													
Senior Privilege Card Discount			44	"=IFERROR(HYPERLINK(""#gid=""&'Package Prices'!R1C78&""&range=C""&MATCH(RC4,'Package Prices'!C1:C1,0),VLOOKUP(RC4,'Package Prices'!C1:C6,3,0)),"""")"	=VLOOKUP(RC4,'Package Prices'!C1:C6,6,0)	=VLOOKUP(RC4,'Package Prices'!C1:C6,4,0)	=SUMPRODUCT(R1C[6]:R1C[17],RC[6]:RC[17])+SUMPRODUCT({RC[20],RC[23],RC[26]},ARRAYFORMULA(IFERROR(VLOOKUP({RC[19],RC[22],RC[25]},Items!C4:C8,5,0),0)))	=RC[-1]/RC[-3]	First Time Purchase				12000																													
Subscribtion Week			33	"=IFERROR(HYPERLINK(""#gid=""&'Package Prices'!R1C78&""&range=C""&MATCH(RC4,'Package Prices'!C1:C1,0),VLOOKUP(RC4,'Package Prices'!C1:C6,3,0)),"""")"	=VLOOKUP(RC4,'Package Prices'!C1:C6,6,0)	=VLOOKUP(RC4,'Package Prices'!C1:C6,4,0)	=SUMPRODUCT(R1C[6]:R1C[17],RC[6]:RC[17])+SUMPRODUCT({RC[20],RC[23],RC[26]},ARRAYFORMULA(IFERROR(VLOOKUP({RC[19],RC[22],RC[25]},Items!C4:C8,5,0),0)))	=RC[-1]/RC[-3]								=IFS(R1C7<26,R1C7*1.067+22,R1C7<80,R1C7*0.334+42.7,R1C7<185,R1C7*0.218+53.6,R1C7<=400,MIN(R1C7,353)*0.107+73.4)*60*60*24/5/1000000*7*100%	=IFS(R1C7<19,R1C7*1.06+3.5,R1C7<26,R1C7*3.89-47.7,R1C7<72,R1C7*1.794+1.3,R1C7<80,R1C7*1.65+10.5,R1C7<185,R1C7*0.22+125.3,R1C7<=400,MIN(R1C7,353)*0.107+145.4)*60*60*24/5/1000000*7*60%																									
Subscribtion Month			35	"=IFERROR(HYPERLINK(""#gid=""&'Package Prices'!R1C78&""&range=C""&MATCH(RC4,'Package Prices'!C1:C1,0),VLOOKUP(RC4,'Package Prices'!C1:C6,3,0)),"""")"	=VLOOKUP(RC4,'Package Prices'!C1:C6,6,0)	=VLOOKUP(RC4,'Package Prices'!C1:C6,4,0)	=SUMPRODUCT(R1C[6]:R1C[17],RC[6]:RC[17])+SUMPRODUCT({RC[20],RC[23],RC[26]},ARRAYFORMULA(IFERROR(VLOOKUP({RC[19],RC[22],RC[25]},Items!C4:C8,5,0),0)))	=RC[-1]/RC[-3]								=IFS(R1C7<26,R1C7*1.067+22,R1C7<80,R1C7*0.334+42.7,R1C7<185,R1C7*0.218+53.6,R1C7<=400,MIN(R1C7,353)*0.107+73.4)*60*60*24/5/1000000*30*100%	=IFS(R1C7<19,R1C7*1.06+3.5,R1C7<26,R1C7*3.89-47.7,R1C7<72,R1C7*1.794+1.3,R1C7<80,R1C7*1.65+10.5,R1C7<185,R1C7*0.22+125.3,R1C7<=400,MIN(R1C7,353)*0.107+145.4)*60*60*24/5/1000000*30*60%																									
Subscribtion Quater			36	"=IFERROR(HYPERLINK(""#gid=""&'Package Prices'!R1C78&""&range=C""&MATCH(RC4,'Package Prices'!C1:C1,0),VLOOKUP(RC4,'Package Prices'!C1:C6,3,0)),"""")"	=VLOOKUP(RC4,'Package Prices'!C1:C6,6,0)	=VLOOKUP(RC4,'Package Prices'!C1:C6,4,0)	=SUMPRODUCT(R1C[6]:R1C[17],RC[6]:RC[17])+SUMPRODUCT({RC[20],RC[23],RC[26]},ARRAYFORMULA(IFERROR(VLOOKUP({RC[19],RC[22],RC[25]},Items!C4:C8,5,0),0)))	=RC[-1]/RC[-3]								=IFS(R1C7<26,R1C7*1.067+22,R1C7<80,R1C7*0.334+42.7,R1C7<185,R1C7*0.218+53.6,R1C7<=400,MIN(R1C7,353)*0.107+73.4)*60*60*24/5/1000000*90*100%	=IFS(R1C7<19,R1C7*1.06+3.5,R1C7<26,R1C7*3.89-47.7,R1C7<72,R1C7*1.794+1.3,R1C7<80,R1C7*1.65+10.5,R1C7<185,R1C7*0.22+125.3,R1C7<=400,MIN(R1C7,353)*0.107+145.4)*60*60*24/5/1000000*90*60%																									
Diamond Fund		100	37	"=IFERROR(HYPERLINK(""#gid=""&'Package Prices'!R1C78&""&range=C""&MATCH(RC4,'Package Prices'!C1:C1,0),VLOOKUP(RC4,'Package Prices'!C1:C6,3,0)),"""")"	=VLOOKUP(RC4,'Package Prices'!C1:C6,6,0)	=VLOOKUP(RC4,'Package Prices'!C1:C6,4,0)	=SUMPRODUCT(R1C[6]:R1C[17],RC[6]:RC[17])+SUMPRODUCT({RC[20],RC[23],RC[26]},ARRAYFORMULA(IFERROR(VLOOKUP({RC[19],RC[22],RC[25]},Items!C4:C8,5,0),0)))	=RC[-1]/RC[-3]			9999	1	20000																													
Weekly Package $10		5	22	"=IFERROR(HYPERLINK(""#gid=""&'Package Prices'!R1C78&""&range=C""&MATCH(RC4,'Package Prices'!C1:C1,0),VLOOKUP(RC4,'Package Prices'!C1:C6,3,0)),"""")"	=VLOOKUP(RC4,'Package Prices'!C1:C6,6,0)	=VLOOKUP(RC4,'Package Prices'!C1:C6,4,0)	=SUMPRODUCT(R1C[6]:R1C[17],RC[6]:RC[17])+SUMPRODUCT({RC[20],RC[23],RC[26]},ARRAYFORMULA(IFERROR(VLOOKUP({RC[19],RC[22],RC[25]},Items!C4:C8,5,0),0)))	=RC[-1]/RC[-3]			7	3		10		10.0									5* Hero Shard	T1XX-40002	50															
Weekly Package $20		6	23	"=IFERROR(HYPERLINK(""#gid=""&'Package Prices'!R1C78&""&range=C""&MATCH(RC4,'Package Prices'!C1:C1,0),VLOOKUP(RC4,'Package Prices'!C1:C6,3,0)),"""")"	=VLOOKUP(RC4,'Package Prices'!C1:C6,6,0)	=VLOOKUP(RC4,'Package Prices'!C1:C6,4,0)	=SUMPRODUCT(R1C[6]:R1C[17],RC[6]:RC[17])+SUMPRODUCT({RC[20],RC[23],RC[26]},ARRAYFORMULA(IFERROR(VLOOKUP({RC[19],RC[22],RC[25]},Items!C4:C8,5,0),0)))	=RC[-1]/RC[-3]			7	3		20			10.0								5* Hero Shard	T1XX-40002	50															
Weekly Package $50		7	24	"=IFERROR(HYPERLINK(""#gid=""&'Package Prices'!R1C78&""&range=C""&MATCH(RC4,'Package Prices'!C1:C1,0),VLOOKUP(RC4,'Package Prices'!C1:C6,3,0)),"""")"	=VLOOKUP(RC4,'Package Prices'!C1:C6,6,0)	=VLOOKUP(RC4,'Package Prices'!C1:C6,4,0)	=SUMPRODUCT(R1C[6]:R1C[17],RC[6]:RC[17])+SUMPRODUCT({RC[20],RC[23],RC[26]},ARRAYFORMULA(IFERROR(VLOOKUP({RC[19],RC[22],RC[25]},Items!C4:C8,5,0),0)))	=RC[-1]/RC[-3]			7	2			15				40.0						Elite 5* Hero Shard	T1XX-40039	50															
Weekly Package $70		8	25	"=IFERROR(HYPERLINK(""#gid=""&'Package Prices'!R1C78&""&range=C""&MATCH(RC4,'Package Prices'!C1:C1,0),VLOOKUP(RC4,'Package Prices'!C1:C6,3,0)),"""")"	=VLOOKUP(RC4,'Package Prices'!C1:C6,6,0)	=VLOOKUP(RC4,'Package Prices'!C1:C6,4,0)	=SUMPRODUCT(R1C[6]:R1C[17],RC[6]:RC[17])+SUMPRODUCT({RC[20],RC[23],RC[26]},ARRAYFORMULA(IFERROR(VLOOKUP({RC[19],RC[22],RC[25]},Items!C4:C8,5,0),0)))	=RC[-1]/RC[-3]			7	1	12000												Elite 5* Hero Shard	T1XX-40039	50															
Monthly Package $5		9	26	"=IFERROR(HYPERLINK(""#gid=""&'Package Prices'!R1C78&""&range=C""&MATCH(RC4,'Package Prices'!C1:C1,0),VLOOKUP(RC4,'Package Prices'!C1:C6,3,0)),"""")"	=VLOOKUP(RC4,'Package Prices'!C1:C6,6,0)	=VLOOKUP(RC4,'Package Prices'!C1:C6,4,0)	=SUMPRODUCT(R1C[6]:R1C[17],RC[6]:RC[17])+SUMPRODUCT({RC[20],RC[23],RC[26]},ARRAYFORMULA(IFERROR(VLOOKUP({RC[19],RC[22],RC[25]},Items!C4:C8,5,0),0)))	=RC[-1]/RC[-3]			30	1	300	5					5.0																							
Monthly Package $10		10	27	"=IFERROR(HYPERLINK(""#gid=""&'Package Prices'!R1C78&""&range=C""&MATCH(RC4,'Package Prices'!C1:C1,0),VLOOKUP(RC4,'Package Prices'!C1:C6,3,0)),"""")"	=VLOOKUP(RC4,'Package Prices'!C1:C6,6,0)	=VLOOKUP(RC4,'Package Prices'!C1:C6,4,0)	=SUMPRODUCT(R1C[6]:R1C[17],RC[6]:RC[17])+SUMPRODUCT({RC[20],RC[23],RC[26]},ARRAYFORMULA(IFERROR(VLOOKUP({RC[19],RC[22],RC[25]},Items!C4:C8,5,0),0)))	=RC[-1]/RC[-3]			30	1	600	10		20.0																										
Monthly Package $30		11	28	"=IFERROR(HYPERLINK(""#gid=""&'Package Prices'!R1C78&""&range=C""&MATCH(RC4,'Package Prices'!C1:C1,0),VLOOKUP(RC4,'Package Prices'!C1:C6,3,0)),"""")"	=VLOOKUP(RC4,'Package Prices'!C1:C6,6,0)	=VLOOKUP(RC4,'Package Prices'!C1:C6,4,0)	=SUMPRODUCT(R1C[6]:R1C[17],RC[6]:RC[17])+SUMPRODUCT({RC[20],RC[23],RC[26]},ARRAYFORMULA(IFERROR(VLOOKUP({RC[19],RC[22],RC[25]},Items!C4:C8,5,0),0)))	=RC[-1]/RC[-3]			30	1	1800	30						10000	2000																					
Monthly Package $50		12	29	"=IFERROR(HYPERLINK(""#gid=""&'Package Prices'!R1C78&""&range=C""&MATCH(RC4,'Package Prices'!C1:C1,0),VLOOKUP(RC4,'Package Prices'!C1:C6,3,0)),"""")"	=VLOOKUP(RC4,'Package Prices'!C1:C6,6,0)	=VLOOKUP(RC4,'Package Prices'!C1:C6,4,0)	=SUMPRODUCT(R1C[6]:R1C[17],RC[6]:RC[17])+SUMPRODUCT({RC[20],RC[23],RC[26]},ARRAYFORMULA(IFERROR(VLOOKUP({RC[19],RC[22],RC[25]},Items!C4:C8,5,0),0)))	=RC[-1]/RC[-3]			30	1	2700	50		80.0																										
Monthly Package $70		13	30	"=IFERROR(HYPERLINK(""#gid=""&'Package Prices'!R1C78&""&range=C""&MATCH(RC4,'Package Prices'!C1:C1,0),VLOOKUP(RC4,'Package Prices'!C1:C6,3,0)),"""")"	=VLOOKUP(RC4,'Package Prices'!C1:C6,6,0)	=VLOOKUP(RC4,'Package Prices'!C1:C6,4,0)	=SUMPRODUCT(R1C[6]:R1C[17],RC[6]:RC[17])+SUMPRODUCT({RC[20],RC[23],RC[26]},ARRAYFORMULA(IFERROR(VLOOKUP({RC[19],RC[22],RC[25]},Items!C4:C8,5,0),0)))	=RC[-1]/RC[-3]			30	1	4000	70					60.0																							
Monthly Package $100		14	31	"=IFERROR(HYPERLINK(""#gid=""&'Package Prices'!R1C78&""&range=C""&MATCH(RC4,'Package Prices'!C1:C1,0),VLOOKUP(RC4,'Package Prices'!C1:C6,3,0)),"""")"	=VLOOKUP(RC4,'Package Prices'!C1:C6,6,0)	=VLOOKUP(RC4,'Package Prices'!C1:C6,4,0)	=SUMPRODUCT(R1C[6]:R1C[17],RC[6]:RC[17])+SUMPRODUCT({RC[20],RC[23],RC[26]},ARRAYFORMULA(IFERROR(VLOOKUP({RC[19],RC[22],RC[25]},Items!C4:C8,5,0),0)))	=RC[-1]/RC[-3]			30	1	5000												Soul Symbol	T1XX-73	5	9* Fortress Puppet	T4F2-92006+3	1												
Daily Package $1		15	45	"=IFERROR(HYPERLINK(""#gid=""&'Package Prices'!R1C78&""&range=C""&MATCH(RC4,'Package Prices'!C1:C1,0),VLOOKUP(RC4,'Package Prices'!C1:C6,3,0)),"""")"	=VLOOKUP(RC4,'Package Prices'!C1:C6,6,0)	=VLOOKUP(RC4,'Package Prices'!C1:C6,4,0)	=SUMPRODUCT(R1C[6]:R1C[17],RC[6]:RC[17])+SUMPRODUCT({RC[20],RC[23],RC[26]},ARRAYFORMULA(IFERROR(VLOOKUP({RC[19],RC[22],RC[25]},Items!C4:C8,5,0),0)))	=RC[-1]/RC[-3]			1	1		3		1.0																										
Daily Package $2		16	46	"=IFERROR(HYPERLINK(""#gid=""&'Package Prices'!R1C78&""&range=C""&MATCH(RC4,'Package Prices'!C1:C1,0),VLOOKUP(RC4,'Package Prices'!C1:C6,3,0)),"""")"	=VLOOKUP(RC4,'Package Prices'!C1:C6,6,0)	=VLOOKUP(RC4,'Package Prices'!C1:C6,4,0)	=SUMPRODUCT(R1C[6]:R1C[17],RC[6]:RC[17])+SUMPRODUCT({RC[20],RC[23],RC[26]},ARRAYFORMULA(IFERROR(VLOOKUP({RC[19],RC[22],RC[25]},Items!C4:C8,5,0),0)))	=RC[-1]/RC[-3]			1	1	150	5																												
Monthly Carnival Card: FC		109	54	"=IFERROR(HYPERLINK(""#gid=""&'Package Prices'!R1C78&""&range=C""&MATCH(RC4,'Package Prices'!C1:C1,0),VLOOKUP(RC4,'Package Prices'!C1:C6,3,0)),"""")"	=VLOOKUP(RC4,'Package Prices'!C1:C6,6,0)	=VLOOKUP(RC4,'Package Prices'!C1:C6,4,0)	=SUMPRODUCT(R1C[6]:R1C[17],RC[6]:RC[17])+SUMPRODUCT({RC[20],RC[23],RC[26]},ARRAYFORMULA(IFERROR(VLOOKUP({RC[19],RC[22],RC[25]},Items!C4:C8,5,0),0)))	=RC[-1]/RC[-3]			30	1	2000												Universal Crystal	T1XX-244	20	Skin Shards Package	T1XX-227	1												
Monthly Carnival Card: FC+TQ		109	54	"=IFERROR(HYPERLINK(""#gid=""&'Package Prices'!R1C78&""&range=C""&MATCH(RC4,'Package Prices'!C1:C1,0),VLOOKUP(RC4,'Package Prices'!C1:C6,3,0)),"""")"	=VLOOKUP(RC4,'Package Prices'!C1:C6,6,0)	=VLOOKUP(RC4,'Package Prices'!C1:C6,4,0)	=SUMPRODUCT(R1C[6]:R1C[17],RC[6]:RC[17])+SUMPRODUCT({RC[20],RC[23],RC[26]},ARRAYFORMULA(IFERROR(VLOOKUP({RC[19],RC[22],RC[25]},Items!C4:C8,5,0),0)))	=RC[-1]/RC[-3]			30	1	3000												Universal Crystal	T1XX-244	40	Skin Shards Package	T1XX-227	1	Elite 5* Hero Shard	T1XX-40039	50									
Monthly Carnival Card: FC+TQ+FA		109	54	"=IFERROR(HYPERLINK(""#gid=""&'Package Prices'!R1C78&""&range=C""&MATCH(RC4,'Package Prices'!C1:C1,0),VLOOKUP(RC4,'Package Prices'!C1:C6,3,0)),"""")"	=VLOOKUP(RC4,'Package Prices'!C1:C6,6,0)	=VLOOKUP(RC4,'Package Prices'!C1:C6,4,0)	=SUMPRODUCT(R1C[6]:R1C[17],RC[6]:RC[17])+SUMPRODUCT({RC[20],RC[23],RC[26]},ARRAYFORMULA(IFERROR(VLOOKUP({RC[19],RC[22],RC[25]},Items!C4:C8,5,0),0)))	=RC[-1]/RC[-3]			30	1	4000											15	Universal Crystal	T1XX-244	80	Skin Shards Package	T1XX-227	1	Elite 5* Hero Shard	T1XX-40039	50									
Monthly Carnival Card: FC+TQ+BT		109	54	"=IFERROR(HYPERLINK(""#gid=""&'Package Prices'!R1C78&""&range=C""&MATCH(RC4,'Package Prices'!C1:C1,0),VLOOKUP(RC4,'Package Prices'!C1:C6,3,0)),"""")"	=VLOOKUP(RC4,'Package Prices'!C1:C6,6,0)	=VLOOKUP(RC4,'Package Prices'!C1:C6,4,0)	=SUMPRODUCT(R1C[6]:R1C[17],RC[6]:RC[17])+SUMPRODUCT({RC[20],RC[23],RC[26]},ARRAYFORMULA(IFERROR(VLOOKUP({RC[19],RC[22],RC[25]},Items!C4:C8,5,0),0)))	=RC[-1]/RC[-3]			30	1	3500											5	Universal Crystal	T1XX-244	120	Skin Shards Package	T1XX-227	1	Elite 5* Hero Shard	T1XX-40039	50									
Monthly Carnival Card: FC+TQ+FA+BT		109	54	"=IFERROR(HYPERLINK(""#gid=""&'Package Prices'!R1C78&""&range=C""&MATCH(RC4,'Package Prices'!C1:C1,0),VLOOKUP(RC4,'Package Prices'!C1:C6,3,0)),"""")"	=VLOOKUP(RC4,'Package Prices'!C1:C6,6,0)	=VLOOKUP(RC4,'Package Prices'!C1:C6,4,0)	=SUMPRODUCT(R1C[6]:R1C[17],RC[6]:RC[17])+SUMPRODUCT({RC[20],RC[23],RC[26]},ARRAYFORMULA(IFERROR(VLOOKUP({RC[19],RC[22],RC[25]},Items!C4:C8,5,0),0)))	=RC[-1]/RC[-3]			30	1	4500											20	Universal Crystal	T1XX-244	180	Skin Shards Package	T1XX-227	1	Elite 5* Hero Shard	T1XX-40039	50									
Monthly Carnival Card: FC+TQ+FA+BT+BS		109	54	"=IFERROR(HYPERLINK(""#gid=""&'Package Prices'!R1C78&""&range=C""&MATCH(RC4,'Package Prices'!C1:C1,0),VLOOKUP(RC4,'Package Prices'!C1:C6,3,0)),"""")"	=VLOOKUP(RC4,'Package Prices'!C1:C6,6,0)	=VLOOKUP(RC4,'Package Prices'!C1:C6,4,0)	=SUMPRODUCT(R1C[6]:R1C[17],RC[6]:RC[17])+SUMPRODUCT({RC[20],RC[23],RC[26]},ARRAYFORMULA(IFERROR(VLOOKUP({RC[19],RC[22],RC[25]},Items!C4:C8,5,0),0)))	=RC[-1]/RC[-3]			30	1	5000											25	Universal Crystal	T1XX-244	260	Skin Shards Package	T1XX-227	1	Elite 5* Hero Shard	T1XX-40039	50									
		21	7	"=IFERROR(HYPERLINK(""#gid=""&'Package Prices'!R1C78&""&range=C""&MATCH(RC4,'Package Prices'!C1:C1,0),VLOOKUP(RC4,'Package Prices'!C1:C6,3,0)),"""")"	=VLOOKUP(RC4,'Package Prices'!C1:C6,6,0)	=VLOOKUP(RC4,'Package Prices'!C1:C6,4,0)	=SUMPRODUCT(R1C[6]:R1C[17],RC[6]:RC[17])+SUMPRODUCT({RC[20],RC[23],RC[26]},ARRAYFORMULA(IFERROR(VLOOKUP({RC[19],RC[22],RC[25]},Items!C4:C8,5,0),0)))	=RC[-1]/RC[-3]			0.08333333333333333						1.0								5* Hero Shard	T1XX-40002	50															
		22	8	"=IFERROR(HYPERLINK(""#gid=""&'Package Prices'!R1C78&""&range=C""&MATCH(RC4,'Package Prices'!C1:C1,0),VLOOKUP(RC4,'Package Prices'!C1:C6,3,0)),"""")"	=VLOOKUP(RC4,'Package Prices'!C1:C6,6,0)	=VLOOKUP(RC4,'Package Prices'!C1:C6,4,0)	=SUMPRODUCT(R1C[6]:R1C[17],RC[6]:RC[17])+SUMPRODUCT({RC[20],RC[23],RC[26]},ARRAYFORMULA(IFERROR(VLOOKUP({RC[19],RC[22],RC[25]},Items!C4:C8,5,0),0)))	=RC[-1]/RC[-3]			0.08333333333333333		1000	10																												
		23	9	"=IFERROR(HYPERLINK(""#gid=""&'Package Prices'!R1C78&""&range=C""&MATCH(RC4,'Package Prices'!C1:C1,0),VLOOKUP(RC4,'Package Prices'!C1:C6,3,0)),"""")"	=VLOOKUP(RC4,'Package Prices'!C1:C6,6,0)	=VLOOKUP(RC4,'Package Prices'!C1:C6,4,0)	=SUMPRODUCT(R1C[6]:R1C[17],RC[6]:RC[17])+SUMPRODUCT({RC[20],RC[23],RC[26]},ARRAYFORMULA(IFERROR(VLOOKUP({RC[19],RC[22],RC[25]},Items!C4:C8,5,0),0)))	=RC[-1]/RC[-3]			0.16666666666666666		2000	20																												
		24	10	"=IFERROR(HYPERLINK(""#gid=""&'Package Prices'!R1C78&""&range=C""&MATCH(RC4,'Package Prices'!C1:C1,0),VLOOKUP(RC4,'Package Prices'!C1:C6,3,0)),"""")"	=VLOOKUP(RC4,'Package Prices'!C1:C6,6,0)	=VLOOKUP(RC4,'Package Prices'!C1:C6,4,0)	=SUMPRODUCT(R1C[6]:R1C[17],RC[6]:RC[17])+SUMPRODUCT({RC[20],RC[23],RC[26]},ARRAYFORMULA(IFERROR(VLOOKUP({RC[19],RC[22],RC[25]},Items!C4:C8,5,0),0)))	=RC[-1]/RC[-3]			0.8333333333333334		3000		6																											
		25	11	"=IFERROR(HYPERLINK(""#gid=""&'Package Prices'!R1C78&""&range=C""&MATCH(RC4,'Package Prices'!C1:C1,0),VLOOKUP(RC4,'Package Prices'!C1:C6,3,0)),"""")"	=VLOOKUP(RC4,'Package Prices'!C1:C6,6,0)	=VLOOKUP(RC4,'Package Prices'!C1:C6,4,0)	=SUMPRODUCT(R1C[6]:R1C[17],RC[6]:RC[17])+SUMPRODUCT({RC[20],RC[23],RC[26]},ARRAYFORMULA(IFERROR(VLOOKUP({RC[19],RC[22],RC[25]},Items!C4:C8,5,0),0)))	=RC[-1]/RC[-3]			0.8333333333333334		6000		12																											
		31	12	"=IFERROR(HYPERLINK(""#gid=""&'Package Prices'!R1C78&""&range=C""&MATCH(RC4,'Package Prices'!C1:C1,0),VLOOKUP(RC4,'Package Prices'!C1:C6,3,0)),"""")"	=VLOOKUP(RC4,'Package Prices'!C1:C6,6,0)	=VLOOKUP(RC4,'Package Prices'!C1:C6,4,0)	=SUMPRODUCT(R1C[6]:R1C[17],RC[6]:RC[17])+SUMPRODUCT({RC[20],RC[23],RC[26]},ARRAYFORMULA(IFERROR(VLOOKUP({RC[19],RC[22],RC[25]},Items!C4:C8,5,0),0)))	=RC[-1]/RC[-3]			0.16666666666666666		1000												Mirror Chain	T2Q5-5103	1	5* Dantalian	T4F3-5302	1												
		41	13	"=IFERROR(HYPERLINK(""#gid=""&'Package Prices'!R1C78&""&range=C""&MATCH(RC4,'Package Prices'!C1:C1,0),VLOOKUP(RC4,'Package Prices'!C1:C6,3,0)),"""")"	=VLOOKUP(RC4,'Package Prices'!C1:C6,6,0)	=VLOOKUP(RC4,'Package Prices'!C1:C6,4,0)	=SUMPRODUCT(R1C[6]:R1C[17],RC[6]:RC[17])+SUMPRODUCT({RC[20],RC[23],RC[26]},ARRAYFORMULA(IFERROR(VLOOKUP({RC[19],RC[22],RC[25]},Items!C4:C8,5,0),0)))	=RC[-1]/RC[-3]			0.08333333333333333		500				4.5		1.8																							
		42	14	"=IFERROR(HYPERLINK(""#gid=""&'Package Prices'!R1C78&""&range=C""&MATCH(RC4,'Package Prices'!C1:C1,0),VLOOKUP(RC4,'Package Prices'!C1:C6,3,0)),"""")"	=VLOOKUP(RC4,'Package Prices'!C1:C6,6,0)	=VLOOKUP(RC4,'Package Prices'!C1:C6,4,0)	=SUMPRODUCT(R1C[6]:R1C[17],RC[6]:RC[17])+SUMPRODUCT({RC[20],RC[23],RC[26]},ARRAYFORMULA(IFERROR(VLOOKUP({RC[19],RC[22],RC[25]},Items!C4:C8,5,0),0)))	=RC[-1]/RC[-3]			0.16666666666666666		1200				10.0		4.0																							
		101	38	"=IFERROR(HYPERLINK(""#gid=""&'Package Prices'!R1C78&""&range=C""&MATCH(RC4,'Package Prices'!C1:C1,0),VLOOKUP(RC4,'Package Prices'!C1:C6,3,0)),"""")"	=VLOOKUP(RC4,'Package Prices'!C1:C6,6,0)	=VLOOKUP(RC4,'Package Prices'!C1:C6,4,0)	=SUMPRODUCT(R1C[6]:R1C[17],RC[6]:RC[17])+SUMPRODUCT({RC[20],RC[23],RC[26]},ARRAYFORMULA(IFERROR(VLOOKUP({RC[19],RC[22],RC[25]},Items!C4:C8,5,0),0)))	=RC[-1]/RC[-3]			30	3					15.0	2.0																								
		102	39	"=IFERROR(HYPERLINK(""#gid=""&'Package Prices'!R1C78&""&range=C""&MATCH(RC4,'Package Prices'!C1:C1,0),VLOOKUP(RC4,'Package Prices'!C1:C6,3,0)),"""")"	=VLOOKUP(RC4,'Package Prices'!C1:C6,6,0)	=VLOOKUP(RC4,'Package Prices'!C1:C6,4,0)	=SUMPRODUCT(R1C[6]:R1C[17],RC[6]:RC[17])+SUMPRODUCT({RC[20],RC[23],RC[26]},ARRAYFORMULA(IFERROR(VLOOKUP({RC[19],RC[22],RC[25]},Items!C4:C8,5,0),0)))	=RC[-1]/RC[-3]			30	3	500			30.0																										
		103	40	"=IFERROR(HYPERLINK(""#gid=""&'Package Prices'!R1C78&""&range=C""&MATCH(RC4,'Package Prices'!C1:C1,0),VLOOKUP(RC4,'Package Prices'!C1:C6,3,0)),"""")"	=VLOOKUP(RC4,'Package Prices'!C1:C6,6,0)	=VLOOKUP(RC4,'Package Prices'!C1:C6,4,0)	=SUMPRODUCT(R1C[6]:R1C[17],RC[6]:RC[17])+SUMPRODUCT({RC[20],RC[23],RC[26]},ARRAYFORMULA(IFERROR(VLOOKUP({RC[19],RC[22],RC[25]},Items!C4:C8,5,0),0)))	=RC[-1]/RC[-3]			30	2		15	5																											
		104	41	"=IFERROR(HYPERLINK(""#gid=""&'Package Prices'!R1C78&""&range=C""&MATCH(RC4,'Package Prices'!C1:C1,0),VLOOKUP(RC4,'Package Prices'!C1:C6,3,0)),"""")"	=VLOOKUP(RC4,'Package Prices'!C1:C6,6,0)	=VLOOKUP(RC4,'Package Prices'!C1:C6,4,0)	=SUMPRODUCT(R1C[6]:R1C[17],RC[6]:RC[17])+SUMPRODUCT({RC[20],RC[23],RC[26]},ARRAYFORMULA(IFERROR(VLOOKUP({RC[19],RC[22],RC[25]},Items!C4:C8,5,0),0)))	=RC[-1]/RC[-3]			30	2							20.0	15000	3000																					
		105	42	"=IFERROR(HYPERLINK(""#gid=""&'Package Prices'!R1C78&""&range=C""&MATCH(RC4,'Package Prices'!C1:C1,0),VLOOKUP(RC4,'Package Prices'!C1:C6,3,0)),"""")"	=VLOOKUP(RC4,'Package Prices'!C1:C6,6,0)	=VLOOKUP(RC4,'Package Prices'!C1:C6,4,0)	=SUMPRODUCT(R1C[6]:R1C[17],RC[6]:RC[17])+SUMPRODUCT({RC[20],RC[23],RC[26]},ARRAYFORMULA(IFERROR(VLOOKUP({RC[19],RC[22],RC[25]},Items!C4:C8,5,0),0)))	=RC[-1]/RC[-3]			30	1													Fearless Armor	T2Q6-5235	1	Gothic Alice	T2F4-60083	1	5* Vesa	T4F4-5408	1									
		110	48	"=IFERROR(HYPERLINK(""#gid=""&'Package Prices'!R1C78&""&range=C""&MATCH(RC4,'Package Prices'!C1:C1,0),VLOOKUP(RC4,'Package Prices'!C1:C6,3,0)),"""")"	=VLOOKUP(RC4,'Package Prices'!C1:C6,6,0)	=VLOOKUP(RC4,'Package Prices'!C1:C6,4,0)	=SUMPRODUCT(R1C[6]:R1C[17],RC[6]:RC[17])+SUMPRODUCT({RC[20],RC[23],RC[26]},ARRAYFORMULA(IFERROR(VLOOKUP({RC[19],RC[22],RC[25]},Items!C4:C8,5,0),0)))	=RC[-1]/RC[-3]			30	1	500	3																												
		111	56	"=IFERROR(HYPERLINK(""#gid=""&'Package Prices'!R1C78&""&range=C""&MATCH(RC4,'Package Prices'!C1:C1,0),VLOOKUP(RC4,'Package Prices'!C1:C6,3,0)),"""")"	=VLOOKUP(RC4,'Package Prices'!C1:C6,6,0)	=VLOOKUP(RC4,'Package Prices'!C1:C6,4,0)	=SUMPRODUCT(R1C[6]:R1C[17],RC[6]:RC[17])+SUMPRODUCT({RC[20],RC[23],RC[26]},ARRAYFORMULA(IFERROR(VLOOKUP({RC[19],RC[22],RC[25]},Items!C4:C8,5,0),0)))	=RC[-1]/RC[-3]			15	1		10		10.0									Resource Booster Chest	T1XX-327	1															
		112	59	"=IFERROR(HYPERLINK(""#gid=""&'Package Prices'!R1C78&""&range=C""&MATCH(RC4,'Package Prices'!C1:C1,0),VLOOKUP(RC4,'Package Prices'!C1:C6,3,0)),"""")"	=VLOOKUP(RC4,'Package Prices'!C1:C6,6,0)	=VLOOKUP(RC4,'Package Prices'!C1:C6,4,0)	=SUMPRODUCT(R1C[6]:R1C[17],RC[6]:RC[17])+SUMPRODUCT({RC[20],RC[23],RC[26]},ARRAYFORMULA(IFERROR(VLOOKUP({RC[19],RC[22],RC[25]},Items!C4:C8,5,0),0)))	=RC[-1]/RC[-3]			15	1		10			10.0								Resource Booster Chest	T1XX-327	1	5* Hero Shard	T1XX-40002	50												
		113	62	"=IFERROR(HYPERLINK(""#gid=""&'Package Prices'!R1C78&""&range=C""&MATCH(RC4,'Package Prices'!C1:C1,0),VLOOKUP(RC4,'Package Prices'!C1:C6,3,0)),"""")"	=VLOOKUP(RC4,'Package Prices'!C1:C6,6,0)	=VLOOKUP(RC4,'Package Prices'!C1:C6,4,0)	=SUMPRODUCT(R1C[6]:R1C[17],RC[6]:RC[17])+SUMPRODUCT({RC[20],RC[23],RC[26]},ARRAYFORMULA(IFERROR(VLOOKUP({RC[19],RC[22],RC[25]},Items!C4:C8,5,0),0)))	=RC[-1]/RC[-3]			15	1		15		20.0									Resource Booster Chest	T1XX-327	1	5* Hero Shard	T1XX-40002	50												
		114	65	"=IFERROR(HYPERLINK(""#gid=""&'Package Prices'!R1C78&""&range=C""&MATCH(RC4,'Package Prices'!C1:C1,0),VLOOKUP(RC4,'Package Prices'!C1:C6,3,0)),"""")"	=VLOOKUP(RC4,'Package Prices'!C1:C6,6,0)	=VLOOKUP(RC4,'Package Prices'!C1:C6,4,0)	=SUMPRODUCT(R1C[6]:R1C[17],RC[6]:RC[17])+SUMPRODUCT({RC[20],RC[23],RC[26]},ARRAYFORMULA(IFERROR(VLOOKUP({RC[19],RC[22],RC[25]},Items!C4:C8,5,0),0)))	=RC[-1]/RC[-3]			15	1		20			20.0								Resource Booster Chest	T1XX-327	2	5* Hero Shard	T1XX-40002	50												
		115	69	"=IFERROR(HYPERLINK(""#gid=""&'Package Prices'!R1C78&""&range=C""&MATCH(RC4,'Package Prices'!C1:C1,0),VLOOKUP(RC4,'Package Prices'!C1:C6,3,0)),"""")"	=VLOOKUP(RC4,'Package Prices'!C1:C6,6,0)	=VLOOKUP(RC4,'Package Prices'!C1:C6,4,0)	=SUMPRODUCT(R1C[6]:R1C[17],RC[6]:RC[17])+SUMPRODUCT({RC[20],RC[23],RC[26]},ARRAYFORMULA(IFERROR(VLOOKUP({RC[19],RC[22],RC[25]},Items!C4:C8,5,0),0)))	=RC[-1]/RC[-3]			15	1			10	40.0									Resource Booster Chest	T1XX-327	2	Elite 5* Hero Shard	T1XX-40039	50												
		116	71	"=IFERROR(HYPERLINK(""#gid=""&'Package Prices'!R1C78&""&range=C""&MATCH(RC4,'Package Prices'!C1:C1,0),VLOOKUP(RC4,'Package Prices'!C1:C6,3,0)),"""")"	=VLOOKUP(RC4,'Package Prices'!C1:C6,6,0)	=VLOOKUP(RC4,'Package Prices'!C1:C6,4,0)	=SUMPRODUCT(R1C[6]:R1C[17],RC[6]:RC[17])+SUMPRODUCT({RC[20],RC[23],RC[26]},ARRAYFORMULA(IFERROR(VLOOKUP({RC[19],RC[22],RC[25]},Items!C4:C8,5,0),0)))	=RC[-1]/RC[-3]			15	1					40.0							20	6* Puppet Selection Chest	T1XX-305	1	Resource Booster Chest	T1XX-327	4												
		117	72	"=IFERROR(HYPERLINK(""#gid=""&'Package Prices'!R1C78&""&range=C""&MATCH(RC4,'Package Prices'!C1:C1,0),VLOOKUP(RC4,'Package Prices'!C1:C6,3,0)),"""")"	=VLOOKUP(RC4,'Package Prices'!C1:C6,6,0)	=VLOOKUP(RC4,'Package Prices'!C1:C6,4,0)	=SUMPRODUCT(R1C[6]:R1C[17],RC[6]:RC[17])+SUMPRODUCT({RC[20],RC[23],RC[26]},ARRAYFORMULA(IFERROR(VLOOKUP({RC[19],RC[22],RC[25]},Items!C4:C8,5,0),0)))	=RC[-1]/RC[-3]			15	1				50.0								20	Light/Dark Puppet Selection Chest	T1XX-316	1	Resource Booster Chest	T1XX-327	4												
		118	76	"=IFERROR(HYPERLINK(""#gid=""&'Package Prices'!R1C78&""&range=C""&MATCH(RC4,'Package Prices'!C1:C1,0),VLOOKUP(RC4,'Package Prices'!C1:C6,3,0)),"""")"	=VLOOKUP(RC4,'Package Prices'!C1:C6,6,0)	=VLOOKUP(RC4,'Package Prices'!C1:C6,4,0)	=SUMPRODUCT(R1C[6]:R1C[17],RC[6]:RC[17])+SUMPRODUCT({RC[20],RC[23],RC[26]},ARRAYFORMULA(IFERROR(VLOOKUP({RC[19],RC[22],RC[25]},Items!C4:C8,5,0),0)))	=RC[-1]/RC[-3]			15	1					50.0							35	6* Puppet Selection Chest	T1XX-305	2	Resource Booster Chest	T1XX-327	6												
		119	81	"=IFERROR(HYPERLINK(""#gid=""&'Package Prices'!R1C78&""&range=C""&MATCH(RC4,'Package Prices'!C1:C1,0),VLOOKUP(RC4,'Package Prices'!C1:C6,3,0)),"""")"	=VLOOKUP(RC4,'Package Prices'!C1:C6,6,0)	=VLOOKUP(RC4,'Package Prices'!C1:C6,4,0)	=SUMPRODUCT(R1C[6]:R1C[17],RC[6]:RC[17])+SUMPRODUCT({RC[20],RC[23],RC[26]},ARRAYFORMULA(IFERROR(VLOOKUP({RC[19],RC[22],RC[25]},Items!C4:C8,5,0),0)))	=RC[-1]/RC[-3]			15	1				100.0								60	Light/Dark Puppet Selection Chest	T1XX-316	3	Resource Booster Chest	T1XX-327	10												
		120	82	"=IFERROR(HYPERLINK(""#gid=""&'Package Prices'!R1C78&""&range=C""&MATCH(RC4,'Package Prices'!C1:C1,0),VLOOKUP(RC4,'Package Prices'!C1:C6,3,0)),"""")"	=VLOOKUP(RC4,'Package Prices'!C1:C6,6,0)	=VLOOKUP(RC4,'Package Prices'!C1:C6,4,0)	=SUMPRODUCT(R1C[6]:R1C[17],RC[6]:RC[17])+SUMPRODUCT({RC[20],RC[23],RC[26]},ARRAYFORMULA(IFERROR(VLOOKUP({RC[19],RC[22],RC[25]},Items!C4:C8,5,0),0)))	=RC[-1]/RC[-3]			15	1					100.0							65	Light/Dark Puppet Selection Chest	T1XX-316	3	Resource Booster Chest	T1XX-327	10												
		121	86	"=IFERROR(HYPERLINK(""#gid=""&'Package Prices'!R1C78&""&range=C""&MATCH(RC4,'Package Prices'!C1:C1,0),VLOOKUP(RC4,'Package Prices'!C1:C6,3,0)),"""")"	=VLOOKUP(RC4,'Package Prices'!C1:C6,6,0)	=VLOOKUP(RC4,'Package Prices'!C1:C6,4,0)	=SUMPRODUCT(R1C[6]:R1C[17],RC[6]:RC[17])+SUMPRODUCT({RC[20],RC[23],RC[26]},ARRAYFORMULA(IFERROR(VLOOKUP({RC[19],RC[22],RC[25]},Items!C4:C8,5,0),0)))	=RC[-1]/RC[-3]			15	1				150.0								100	Resource Booster Chest	T1XX-327	15	9* Forest Puppet	T4F4-94006+3	1												
		122	87	"=IFERROR(HYPERLINK(""#gid=""&'Package Prices'!R1C78&""&range=C""&MATCH(RC4,'Package Prices'!C1:C1,0),VLOOKUP(RC4,'Package Prices'!C1:C6,3,0)),"""")"	=VLOOKUP(RC4,'Package Prices'!C1:C6,6,0)	=VLOOKUP(RC4,'Package Prices'!C1:C6,4,0)	=SUMPRODUCT(R1C[6]:R1C[17],RC[6]:RC[17])+SUMPRODUCT({RC[20],RC[23],RC[26]},ARRAYFORMULA(IFERROR(VLOOKUP({RC[19],RC[22],RC[25]},Items!C4:C8,5,0),0)))	=RC[-1]/RC[-3]			15	1					150.0							110	Resource Booster Chest	T1XX-327	15	9* Forest Puppet	T4F4-94006+3	1												
		123	94	"=IFERROR(HYPERLINK(""#gid=""&'Package Prices'!R1C78&""&range=C""&MATCH(RC4,'Package Prices'!C1:C1,0),VLOOKUP(RC4,'Package Prices'!C1:C6,3,0)),"""")"	=VLOOKUP(RC4,'Package Prices'!C1:C6,6,0)	=VLOOKUP(RC4,'Package Prices'!C1:C6,4,0)	=SUMPRODUCT(R1C[6]:R1C[17],RC[6]:RC[17])+SUMPRODUCT({RC[20],RC[23],RC[26]},ARRAYFORMULA(IFERROR(VLOOKUP({RC[19],RC[22],RC[25]},Items!C4:C8,5,0),0)))	=RC[-1]/RC[-3]			15	1				200.0								170	Resource Booster Chest	T1XX-327	20	10* Fortress Puppet	T4F2-92010	1												
		124	95	"=IFERROR(HYPERLINK(""#gid=""&'Package Prices'!R1C78&""&range=C""&MATCH(RC4,'Package Prices'!C1:C1,0),VLOOKUP(RC4,'Package Prices'!C1:C6,3,0)),"""")"	=VLOOKUP(RC4,'Package Prices'!C1:C6,6,0)	=VLOOKUP(RC4,'Package Prices'!C1:C6,4,0)	=SUMPRODUCT(R1C[6]:R1C[17],RC[6]:RC[17])+SUMPRODUCT({RC[20],RC[23],RC[26]},ARRAYFORMULA(IFERROR(VLOOKUP({RC[19],RC[22],RC[25]},Items!C4:C8,5,0),0)))	=RC[-1]/RC[-3]			15	1					200.0							180	Resource Booster Chest	T1XX-327	20	10* Fortress Puppet	T4F2-92010	1												
		125	66	"=IFERROR(HYPERLINK(""#gid=""&'Package Prices'!R1C78&""&range=C""&MATCH(RC4,'Package Prices'!C1:C1,0),VLOOKUP(RC4,'Package Prices'!C1:C6,3,0)),"""")"	=VLOOKUP(RC4,'Package Prices'!C1:C6,6,0)	=VLOOKUP(RC4,'Package Prices'!C1:C6,4,0)	=SUMPRODUCT(R1C[6]:R1C[17],RC[6]:RC[17])+SUMPRODUCT({RC[20],RC[23],RC[26]},ARRAYFORMULA(IFERROR(VLOOKUP({RC[19],RC[22],RC[25]},Items!C4:C8,5,0),0)))	=RC[-1]/RC[-3]			1	1	1000	10											Orange Artifact Fragment	T1Q6-56001	50	5* Hero Shard	T1XX-40002	50												
		126	73	"=IFERROR(HYPERLINK(""#gid=""&'Package Prices'!R1C78&""&range=C""&MATCH(RC4,'Package Prices'!C1:C1,0),VLOOKUP(RC4,'Package Prices'!C1:C6,3,0)),"""")"	=VLOOKUP(RC4,'Package Prices'!C1:C6,6,0)	=VLOOKUP(RC4,'Package Prices'!C1:C6,4,0)	=SUMPRODUCT(R1C[6]:R1C[17],RC[6]:RC[17])+SUMPRODUCT({RC[20],RC[23],RC[26]},ARRAYFORMULA(IFERROR(VLOOKUP({RC[19],RC[22],RC[25]},Items!C4:C8,5,0),0)))	=RC[-1]/RC[-3]			1	1	5000		15										Orange Artifact Exclusive Fragment	T1Q6-56099	50	Elite 5* Hero Shard	T1XX-40039	50												
"=""""&RC[1]&"" Value Package $""&ROUND(RC[5])"	WF & CL	3538	21	"=IFERROR(HYPERLINK(""#gid=""&'Package Prices'!R1C78&""&range=C""&MATCH(RC4,'Package Prices'!C1:C1,0),VLOOKUP(RC4,'Package Prices'!C1:C6,3,0)),"""")"	=VLOOKUP(RC4,'Package Prices'!C1:C6,6,0)	=VLOOKUP(RC4,'Package Prices'!C1:C6,4,0)	=SUMPRODUCT(R1C[6]:R1C[17],RC[6]:RC[17])+SUMPRODUCT({RC[20],RC[23],RC[26]},ARRAYFORMULA(IFERROR(VLOOKUP({RC[19],RC[22],RC[25]},Items!C4:C8,5,0),0)))	=RC[-1]/RC[-3]		2020-07-02	11	3	10000		10							150			Hourglass	T1XX-364	600															
"=""""&RC[1]&"" Value Package $""&ROUND(RC[5])"	WF & CL	3539	20	"=IFERROR(HYPERLINK(""#gid=""&'Package Prices'!R1C78&""&range=C""&MATCH(RC4,'Package Prices'!C1:C1,0),VLOOKUP(RC4,'Package Prices'!C1:C6,3,0)),"""")"	=VLOOKUP(RC4,'Package Prices'!C1:C6,6,0)	=VLOOKUP(RC4,'Package Prices'!C1:C6,4,0)	=SUMPRODUCT(R1C[6]:R1C[17],RC[6]:RC[17])+SUMPRODUCT({RC[20],RC[23],RC[26]},ARRAYFORMULA(IFERROR(VLOOKUP({RC[19],RC[22],RC[25]},Items!C4:C8,5,0),0)))	=RC[-1]/RC[-3]		2020-07-02	11	3	7000		6							100			Hourglass	T1XX-364	400															
"=""""&RC[1]&"" Value Package $""&ROUND(RC[5])"	WF & CL	3540	18	"=IFERROR(HYPERLINK(""#gid=""&'Package Prices'!R1C78&""&range=C""&MATCH(RC4,'Package Prices'!C1:C1,0),VLOOKUP(RC4,'Package Prices'!C1:C6,3,0)),"""")"	=VLOOKUP(RC4,'Package Prices'!C1:C6,6,0)	=VLOOKUP(RC4,'Package Prices'!C1:C6,4,0)	=SUMPRODUCT(R1C[6]:R1C[17],RC[6]:RC[17])+SUMPRODUCT({RC[20],RC[23],RC[26]},ARRAYFORMULA(IFERROR(VLOOKUP({RC[19],RC[22],RC[25]},Items!C4:C8,5,0),0)))	=RC[-1]/RC[-3]		2020-07-02	11	5	3000		3							40			Hourglass	T1XX-364	160															
"=""""&RC[1]&"" Value Package $""&ROUND(RC[5])"	WF & CL	3541	16	"=IFERROR(HYPERLINK(""#gid=""&'Package Prices'!R1C78&""&range=C""&MATCH(RC4,'Package Prices'!C1:C1,0),VLOOKUP(RC4,'Package Prices'!C1:C6,3,0)),"""")"	=VLOOKUP(RC4,'Package Prices'!C1:C6,6,0)	=VLOOKUP(RC4,'Package Prices'!C1:C6,4,0)	=SUMPRODUCT(R1C[6]:R1C[17],RC[6]:RC[17])+SUMPRODUCT({RC[20],RC[23],RC[26]},ARRAYFORMULA(IFERROR(VLOOKUP({RC[19],RC[22],RC[25]},Items!C4:C8,5,0),0)))	=RC[-1]/RC[-3]		2020-07-02	11	5	1000		1							10			Hourglass	T1XX-364	50															
Anniversary Packages	PS	3509	49	"=IFERROR(HYPERLINK(""#gid=""&'Package Prices'!R1C78&""&range=C""&MATCH(RC4,'Package Prices'!C1:C1,0),VLOOKUP(RC4,'Package Prices'!C1:C6,3,0)),"""")"	=VLOOKUP(RC4,'Package Prices'!C1:C6,6,0)	=VLOOKUP(RC4,'Package Prices'!C1:C6,4,0)	=SUMPRODUCT(R1C[6]:R1C[17],RC[6]:RC[17])+SUMPRODUCT({RC[20],RC[23],RC[26]},ARRAYFORMULA(IFERROR(VLOOKUP({RC[19],RC[22],RC[25]},Items!C4:C8,5,0),0)))	=RC[-1]/RC[-3]		2020-06-25	11	1	2020		6									25	Zongzi	T1XX-359	100															
	PS	3510	51	"=IFERROR(HYPERLINK(""#gid=""&'Package Prices'!R1C78&""&range=C""&MATCH(RC4,'Package Prices'!C1:C1,0),VLOOKUP(RC4,'Package Prices'!C1:C6,3,0)),"""")"	=VLOOKUP(RC4,'Package Prices'!C1:C6,6,0)	=VLOOKUP(RC4,'Package Prices'!C1:C6,4,0)	=SUMPRODUCT(R1C[6]:R1C[17],RC[6]:RC[17])+SUMPRODUCT({RC[20],RC[23],RC[26]},ARRAYFORMULA(IFERROR(VLOOKUP({RC[19],RC[22],RC[25]},Items!C4:C8,5,0),0)))	=RC[-1]/RC[-3]		2020-06-25	11	1	2500		20									35	4th Anniversary Limited: Princess Carrie	T2F5-60168	1															
"=""""&RC[1]&"" Value Package $""&ROUND(RC[5])"	PS	3513	21	"=IFERROR(HYPERLINK(""#gid=""&'Package Prices'!R1C78&""&range=C""&MATCH(RC4,'Package Prices'!C1:C1,0),VLOOKUP(RC4,'Package Prices'!C1:C6,3,0)),"""")"	=VLOOKUP(RC4,'Package Prices'!C1:C6,6,0)	=VLOOKUP(RC4,'Package Prices'!C1:C6,4,0)	=SUMPRODUCT(R1C[6]:R1C[17],RC[6]:RC[17])+SUMPRODUCT({RC[20],RC[23],RC[26]},ARRAYFORMULA(IFERROR(VLOOKUP({RC[19],RC[22],RC[25]},Items!C4:C8,5,0),0)))	=RC[-1]/RC[-3]		2020-06-25	11	5	5000		33										Anniversary Badge	T1XX-354	100															
"=""""&RC[1]&"" Value Package $""&ROUND(RC[5])"	PS	3514	20	"=IFERROR(HYPERLINK(""#gid=""&'Package Prices'!R1C78&""&range=C""&MATCH(RC4,'Package Prices'!C1:C1,0),VLOOKUP(RC4,'Package Prices'!C1:C6,3,0)),"""")"	=VLOOKUP(RC4,'Package Prices'!C1:C6,6,0)	=VLOOKUP(RC4,'Package Prices'!C1:C6,4,0)	=SUMPRODUCT(R1C[6]:R1C[17],RC[6]:RC[17])+SUMPRODUCT({RC[20],RC[23],RC[26]},ARRAYFORMULA(IFERROR(VLOOKUP({RC[19],RC[22],RC[25]},Items!C4:C8,5,0),0)))	=RC[-1]/RC[-3]		2020-06-25	11	5	3500		23										Anniversary Badge	T1XX-354	70															
"=""""&RC[1]&"" Value Package $""&ROUND(RC[5])"	PS	3515	19	"=IFERROR(HYPERLINK(""#gid=""&'Package Prices'!R1C78&""&range=C""&MATCH(RC4,'Package Prices'!C1:C1,0),VLOOKUP(RC4,'Package Prices'!C1:C6,3,0)),"""")"	=VLOOKUP(RC4,'Package Prices'!C1:C6,6,0)	=VLOOKUP(RC4,'Package Prices'!C1:C6,4,0)	=SUMPRODUCT(R1C[6]:R1C[17],RC[6]:RC[17])+SUMPRODUCT({RC[20],RC[23],RC[26]},ARRAYFORMULA(IFERROR(VLOOKUP({RC[19],RC[22],RC[25]},Items!C4:C8,5,0),0)))	=RC[-1]/RC[-3]		2020-06-25	11	5	2500		16										Anniversary Badge	T1XX-354	50															
"=""""&RC[1]&"" Value Package $""&ROUND(RC[5])"	PS	3516	18	"=IFERROR(HYPERLINK(""#gid=""&'Package Prices'!R1C78&""&range=C""&MATCH(RC4,'Package Prices'!C1:C1,0),VLOOKUP(RC4,'Package Prices'!C1:C6,3,0)),"""")"	=VLOOKUP(RC4,'Package Prices'!C1:C6,6,0)	=VLOOKUP(RC4,'Package Prices'!C1:C6,4,0)	=SUMPRODUCT(R1C[6]:R1C[17],RC[6]:RC[17])+SUMPRODUCT({RC[20],RC[23],RC[26]},ARRAYFORMULA(IFERROR(VLOOKUP({RC[19],RC[22],RC[25]},Items!C4:C8,5,0),0)))	=RC[-1]/RC[-3]		2020-06-25	11	5	1500		10										Zongzi	T1XX-359	60															
"=""""&RC[1]&"" Value Package $""&ROUND(RC[5])"	PS	3517	16	"=IFERROR(HYPERLINK(""#gid=""&'Package Prices'!R1C78&""&range=C""&MATCH(RC4,'Package Prices'!C1:C1,0),VLOOKUP(RC4,'Package Prices'!C1:C6,3,0)),"""")"	=VLOOKUP(RC4,'Package Prices'!C1:C6,6,0)	=VLOOKUP(RC4,'Package Prices'!C1:C6,4,0)	=SUMPRODUCT(R1C[6]:R1C[17],RC[6]:RC[17])+SUMPRODUCT({RC[20],RC[23],RC[26]},ARRAYFORMULA(IFERROR(VLOOKUP({RC[19],RC[22],RC[25]},Items!C4:C8,5,0),0)))	=RC[-1]/RC[-3]		2020-06-25	11	5	500		3										Zongzi	T1XX-359	20															
"=""""&RC[1]&"" Value Package $""&ROUND(RC[5])"	HS	3489	21	"=IFERROR(HYPERLINK(""#gid=""&'Package Prices'!R1C78&""&range=C""&MATCH(RC4,'Package Prices'!C1:C1,0),VLOOKUP(RC4,'Package Prices'!C1:C6,3,0)),"""")"	=VLOOKUP(RC4,'Package Prices'!C1:C6,6,0)	=VLOOKUP(RC4,'Package Prices'!C1:C6,4,0)	=SUMPRODUCT(R1C[6]:R1C[17],RC[6]:RC[17])+SUMPRODUCT({RC[20],RC[23],RC[26]},ARRAYFORMULA(IFERROR(VLOOKUP({RC[19],RC[22],RC[25]},Items!C4:C8,5,0),0)))	=RC[-1]/RC[-3]		2020-06-18	13	5	5000	120											Anniversary Badge	T1XX-354	100															
"=""""&RC[1]&"" Value Package $""&ROUND(RC[5])"	HS	3490	20	"=IFERROR(HYPERLINK(""#gid=""&'Package Prices'!R1C78&""&range=C""&MATCH(RC4,'Package Prices'!C1:C1,0),VLOOKUP(RC4,'Package Prices'!C1:C6,3,0)),"""")"	=VLOOKUP(RC4,'Package Prices'!C1:C6,6,0)	=VLOOKUP(RC4,'Package Prices'!C1:C6,4,0)	=SUMPRODUCT(R1C[6]:R1C[17],RC[6]:RC[17])+SUMPRODUCT({RC[20],RC[23],RC[26]},ARRAYFORMULA(IFERROR(VLOOKUP({RC[19],RC[22],RC[25]},Items!C4:C8,5,0),0)))	=RC[-1]/RC[-3]		2020-06-18	13	5	3500	80											Anniversary Badge	T1XX-354	70															
"=""""&RC[1]&"" Value Package $""&ROUND(RC[5])"	HS	3491	19	"=IFERROR(HYPERLINK(""#gid=""&'Package Prices'!R1C78&""&range=C""&MATCH(RC4,'Package Prices'!C1:C1,0),VLOOKUP(RC4,'Package Prices'!C1:C6,3,0)),"""")"	=VLOOKUP(RC4,'Package Prices'!C1:C6,6,0)	=VLOOKUP(RC4,'Package Prices'!C1:C6,4,0)	=SUMPRODUCT(R1C[6]:R1C[17],RC[6]:RC[17])+SUMPRODUCT({RC[20],RC[23],RC[26]},ARRAYFORMULA(IFERROR(VLOOKUP({RC[19],RC[22],RC[25]},Items!C4:C8,5,0),0)))	=RC[-1]/RC[-3]		2020-06-18	13	5	2500	55											Anniversary Badge	T1XX-354	50															
"=""""&RC[1]&"" Value Package $""&ROUND(RC[5])"	HS	3492	18	"=IFERROR(HYPERLINK(""#gid=""&'Package Prices'!R1C78&""&range=C""&MATCH(RC4,'Package Prices'!C1:C1,0),VLOOKUP(RC4,'Package Prices'!C1:C6,3,0)),"""")"	=VLOOKUP(RC4,'Package Prices'!C1:C6,6,0)	=VLOOKUP(RC4,'Package Prices'!C1:C6,4,0)	=SUMPRODUCT(R1C[6]:R1C[17],RC[6]:RC[17])+SUMPRODUCT({RC[20],RC[23],RC[26]},ARRAYFORMULA(IFERROR(VLOOKUP({RC[19],RC[22],RC[25]},Items!C4:C8,5,0),0)))	=RC[-1]/RC[-3]		2020-06-18	13	5	1500	35											Anniversary Badge	T1XX-354	30															
"=""""&RC[1]&"" Value Package $""&ROUND(RC[5])"	HS	3493	16	"=IFERROR(HYPERLINK(""#gid=""&'Package Prices'!R1C78&""&range=C""&MATCH(RC4,'Package Prices'!C1:C1,0),VLOOKUP(RC4,'Package Prices'!C1:C6,3,0)),"""")"	=VLOOKUP(RC4,'Package Prices'!C1:C6,6,0)	=VLOOKUP(RC4,'Package Prices'!C1:C6,4,0)	=SUMPRODUCT(R1C[6]:R1C[17],RC[6]:RC[17])+SUMPRODUCT({RC[20],RC[23],RC[26]},ARRAYFORMULA(IFERROR(VLOOKUP({RC[19],RC[22],RC[25]},Items!C4:C8,5,0),0)))	=RC[-1]/RC[-3]		2020-06-18	13	5	500	10											Anniversary Badge	T1XX-354	10															
4th Anniversary Card	HS	3507	17	"=IFERROR(HYPERLINK(""#gid=""&'Package Prices'!R1C78&""&range=C""&MATCH(RC4,'Package Prices'!C1:C1,0),VLOOKUP(RC4,'Package Prices'!C1:C6,3,0)),"""")"	=VLOOKUP(RC4,'Package Prices'!C1:C6,6,0)	=VLOOKUP(RC4,'Package Prices'!C1:C6,4,0)	=SUMPRODUCT(R1C[6]:R1C[17],RC[6]:RC[17])+SUMPRODUCT({RC[20],RC[23],RC[26]},ARRAYFORMULA(IFERROR(VLOOKUP({RC[19],RC[22],RC[25]},Items!C4:C8,5,0),0)))	=RC[-1]/RC[-3]		2020-06-18	13	1	=999*15			=R1C7*0.099*15								=4*15																		
"=""""&RC[1]&"" Value Package $""&ROUND(RC[5])"	IA	3472	21	"=IFERROR(HYPERLINK(""#gid=""&'Package Prices'!R1C78&""&range=C""&MATCH(RC4,'Package Prices'!C1:C1,0),VLOOKUP(RC4,'Package Prices'!C1:C6,3,0)),"""")"	=VLOOKUP(RC4,'Package Prices'!C1:C6,6,0)	=VLOOKUP(RC4,'Package Prices'!C1:C6,4,0)	=SUMPRODUCT(R1C[6]:R1C[17],RC[6]:RC[17])+SUMPRODUCT({RC[20],RC[23],RC[26]},ARRAYFORMULA(IFERROR(VLOOKUP({RC[19],RC[22],RC[25]},Items!C4:C8,5,0),0)))	=RC[-1]/RC[-3]		2020-06-11	11	4	5000												Dice	T1XX-346	40															
"=""""&RC[1]&"" Value Package $""&ROUND(RC[5])"	IA	3473	20	"=IFERROR(HYPERLINK(""#gid=""&'Package Prices'!R1C78&""&range=C""&MATCH(RC4,'Package Prices'!C1:C1,0),VLOOKUP(RC4,'Package Prices'!C1:C6,3,0)),"""")"	=VLOOKUP(RC4,'Package Prices'!C1:C6,6,0)	=VLOOKUP(RC4,'Package Prices'!C1:C6,4,0)	=SUMPRODUCT(R1C[6]:R1C[17],RC[6]:RC[17])+SUMPRODUCT({RC[20],RC[23],RC[26]},ARRAYFORMULA(IFERROR(VLOOKUP({RC[19],RC[22],RC[25]},Items!C4:C8,5,0),0)))	=RC[-1]/RC[-3]		2020-06-11	11	4	3500												Dice	T1XX-346	28															
"=""""&RC[1]&"" Value Package $""&ROUND(RC[5])"	IA	3474	18	"=IFERROR(HYPERLINK(""#gid=""&'Package Prices'!R1C78&""&range=C""&MATCH(RC4,'Package Prices'!C1:C1,0),VLOOKUP(RC4,'Package Prices'!C1:C6,3,0)),"""")"	=VLOOKUP(RC4,'Package Prices'!C1:C6,6,0)	=VLOOKUP(RC4,'Package Prices'!C1:C6,4,0)	=SUMPRODUCT(R1C[6]:R1C[17],RC[6]:RC[17])+SUMPRODUCT({RC[20],RC[23],RC[26]},ARRAYFORMULA(IFERROR(VLOOKUP({RC[19],RC[22],RC[25]},Items!C4:C8,5,0),0)))	=RC[-1]/RC[-3]		2020-06-11	11	4	1500												Dice	T1XX-346	12															
"=""""&RC[1]&"" Value Package $""&ROUND(RC[5])"	IA	3475	16	"=IFERROR(HYPERLINK(""#gid=""&'Package Prices'!R1C78&""&range=C""&MATCH(RC4,'Package Prices'!C1:C1,0),VLOOKUP(RC4,'Package Prices'!C1:C6,3,0)),"""")"	=VLOOKUP(RC4,'Package Prices'!C1:C6,6,0)	=VLOOKUP(RC4,'Package Prices'!C1:C6,4,0)	=SUMPRODUCT(R1C[6]:R1C[17],RC[6]:RC[17])+SUMPRODUCT({RC[20],RC[23],RC[26]},ARRAYFORMULA(IFERROR(VLOOKUP({RC[19],RC[22],RC[25]},Items!C4:C8,5,0),0)))	=RC[-1]/RC[-3]		2020-06-11	11	4	500												Dice	T1XX-346	4															
"=""""&RC[1]&"" Value Package $""&ROUND(RC[5])"	WF & CL	3447	21	"=IFERROR(HYPERLINK(""#gid=""&'Package Prices'!R1C78&""&range=C""&MATCH(RC4,'Package Prices'!C1:C1,0),VLOOKUP(RC4,'Package Prices'!C1:C6,3,0)),"""")"	=VLOOKUP(RC4,'Package Prices'!C1:C6,6,0)	=VLOOKUP(RC4,'Package Prices'!C1:C6,4,0)	=SUMPRODUCT(R1C[6]:R1C[17],RC[6]:RC[17])+SUMPRODUCT({RC[20],RC[23],RC[26]},ARRAYFORMULA(IFERROR(VLOOKUP({RC[19],RC[22],RC[25]},Items!C4:C8,5,0),0)))	=RC[-1]/RC[-3]		2020-06-04	10	3	10000		10							150			Pearl Shell	T1XX-345	600															
"=""""&RC[1]&"" Value Package $""&ROUND(RC[5])"	WF & CL	3448	20	"=IFERROR(HYPERLINK(""#gid=""&'Package Prices'!R1C78&""&range=C""&MATCH(RC4,'Package Prices'!C1:C1,0),VLOOKUP(RC4,'Package Prices'!C1:C6,3,0)),"""")"	=VLOOKUP(RC4,'Package Prices'!C1:C6,6,0)	=VLOOKUP(RC4,'Package Prices'!C1:C6,4,0)	=SUMPRODUCT(R1C[6]:R1C[17],RC[6]:RC[17])+SUMPRODUCT({RC[20],RC[23],RC[26]},ARRAYFORMULA(IFERROR(VLOOKUP({RC[19],RC[22],RC[25]},Items!C4:C8,5,0),0)))	=RC[-1]/RC[-3]		2020-06-04	10	3	7000		6							100			Pearl Shell	T1XX-345	400															
"=""""&RC[1]&"" Value Package $""&ROUND(RC[5])"	WF & CL	3449	18	"=IFERROR(HYPERLINK(""#gid=""&'Package Prices'!R1C78&""&range=C""&MATCH(RC4,'Package Prices'!C1:C1,0),VLOOKUP(RC4,'Package Prices'!C1:C6,3,0)),"""")"	=VLOOKUP(RC4,'Package Prices'!C1:C6,6,0)	=VLOOKUP(RC4,'Package Prices'!C1:C6,4,0)	=SUMPRODUCT(R1C[6]:R1C[17],RC[6]:RC[17])+SUMPRODUCT({RC[20],RC[23],RC[26]},ARRAYFORMULA(IFERROR(VLOOKUP({RC[19],RC[22],RC[25]},Items!C4:C8,5,0),0)))	=RC[-1]/RC[-3]		2020-06-04	10	5	3000		3							40			Pearl Shell	T1XX-345	160															
"=""""&RC[1]&"" Value Package $""&ROUND(RC[5])"	WF & CL	3450	16	"=IFERROR(HYPERLINK(""#gid=""&'Package Prices'!R1C78&""&range=C""&MATCH(RC4,'Package Prices'!C1:C1,0),VLOOKUP(RC4,'Package Prices'!C1:C6,3,0)),"""")"	=VLOOKUP(RC4,'Package Prices'!C1:C6,6,0)	=VLOOKUP(RC4,'Package Prices'!C1:C6,4,0)	=SUMPRODUCT(R1C[6]:R1C[17],RC[6]:RC[17])+SUMPRODUCT({RC[20],RC[23],RC[26]},ARRAYFORMULA(IFERROR(VLOOKUP({RC[19],RC[22],RC[25]},Items!C4:C8,5,0),0)))	=RC[-1]/RC[-3]		2020-06-04	10	5	1000		1							10			Pearl Shell	T1XX-345	50															
"=""""&RC[1]&"" Value Package $""&ROUND(RC[5])"	PS	3423	21	"=IFERROR(HYPERLINK(""#gid=""&'Package Prices'!R1C78&""&range=C""&MATCH(RC4,'Package Prices'!C1:C1,0),VLOOKUP(RC4,'Package Prices'!C1:C6,3,0)),"""")"	=VLOOKUP(RC4,'Package Prices'!C1:C6,6,0)	=VLOOKUP(RC4,'Package Prices'!C1:C6,4,0)	=SUMPRODUCT(R1C[6]:R1C[17],RC[6]:RC[17])+SUMPRODUCT({RC[20],RC[23],RC[26]},ARRAYFORMULA(IFERROR(VLOOKUP({RC[19],RC[22],RC[25]},Items!C4:C8,5,0),0)))	=RC[-1]/RC[-3]		2020-05-28	11	5	5000		33										Memento	T1XX-341	30	Ticket	T1XX-343	120												
"=""""&RC[1]&"" Value Package $""&ROUND(RC[5])"	PS	3424	20	"=IFERROR(HYPERLINK(""#gid=""&'Package Prices'!R1C78&""&range=C""&MATCH(RC4,'Package Prices'!C1:C1,0),VLOOKUP(RC4,'Package Prices'!C1:C6,3,0)),"""")"	=VLOOKUP(RC4,'Package Prices'!C1:C6,6,0)	=VLOOKUP(RC4,'Package Prices'!C1:C6,4,0)	=SUMPRODUCT(R1C[6]:R1C[17],RC[6]:RC[17])+SUMPRODUCT({RC[20],RC[23],RC[26]},ARRAYFORMULA(IFERROR(VLOOKUP({RC[19],RC[22],RC[25]},Items!C4:C8,5,0),0)))	=RC[-1]/RC[-3]		2020-05-28	11	5	3500		23										Memento	T1XX-341	21	Ticket	T1XX-343	84												
"=""""&RC[1]&"" Value Package $""&ROUND(RC[5])"	PS	3425	18	"=IFERROR(HYPERLINK(""#gid=""&'Package Prices'!R1C78&""&range=C""&MATCH(RC4,'Package Prices'!C1:C1,0),VLOOKUP(RC4,'Package Prices'!C1:C6,3,0)),"""")"	=VLOOKUP(RC4,'Package Prices'!C1:C6,6,0)	=VLOOKUP(RC4,'Package Prices'!C1:C6,4,0)	=SUMPRODUCT(R1C[6]:R1C[17],RC[6]:RC[17])+SUMPRODUCT({RC[20],RC[23],RC[26]},ARRAYFORMULA(IFERROR(VLOOKUP({RC[19],RC[22],RC[25]},Items!C4:C8,5,0),0)))	=RC[-1]/RC[-3]		2020-05-28	11	5	1500		10										Memento	T1XX-341	9	Ticket	T1XX-343	36												
"=""""&RC[1]&"" Value Package $""&ROUND(RC[5])"	PS	3426	16	"=IFERROR(HYPERLINK(""#gid=""&'Package Prices'!R1C78&""&range=C""&MATCH(RC4,'Package Prices'!C1:C1,0),VLOOKUP(RC4,'Package Prices'!C1:C6,3,0)),"""")"	=VLOOKUP(RC4,'Package Prices'!C1:C6,6,0)	=VLOOKUP(RC4,'Package Prices'!C1:C6,4,0)	=SUMPRODUCT(R1C[6]:R1C[17],RC[6]:RC[17])+SUMPRODUCT({RC[20],RC[23],RC[26]},ARRAYFORMULA(IFERROR(VLOOKUP({RC[19],RC[22],RC[25]},Items!C4:C8,5,0),0)))	=RC[-1]/RC[-3]		2020-05-28	11	5	500		3										Memento	T1XX-341	3	Ticket	T1XX-343	12												
"=""""&RC[1]&"" Value Package $""&ROUND(RC[5])"	PS	3427	17	"=IFERROR(HYPERLINK(""#gid=""&'Package Prices'!R1C78&""&range=C""&MATCH(RC4,'Package Prices'!C1:C1,0),VLOOKUP(RC4,'Package Prices'!C1:C6,3,0)),"""")"	=VLOOKUP(RC4,'Package Prices'!C1:C6,6,0)	=VLOOKUP(RC4,'Package Prices'!C1:C6,4,0)	=SUMPRODUCT(R1C[6]:R1C[17],RC[6]:RC[17])+SUMPRODUCT({RC[20],RC[23],RC[26]},ARRAYFORMULA(IFERROR(VLOOKUP({RC[19],RC[22],RC[25]},Items!C4:C8,5,0),0)))	=RC[-1]/RC[-3]		2020-05-28	11	1	1888		15										Ticket	T1XX-343	90	Magic Source	T2Q6-5236	1												
