id	needExp	gold
1	50	10000
2	62	10300
3	78	10600
4	97	10900
5	122	11200
6	152	11500
7	190	11800
8	238	12100
9	298	12400
10	372	12700
11	465	13000
12	582	13300
13	727	13600
14	909	13900
15	1136	14200
16	1421	14500
17	1776	14800
18	2000	15100
19	2200	15400
20	2400	15700
21	2600	16000
22	3000	16300
23	3200	16600
24	3600	16900
25	4000	17200
26	4500	17500
27	5000	17800
28	5500	18100
29	6000	18400
30	7000	18700
31	12030	19000
32	13594	19300
33	15362	19600
34	17359	19900
35	18227	20200
36	19138	20500
37	20095	20800
38	21100	21100
39	22155	21400
40	23262	21700
41	24425	22000
42	25647	22300
43	26929	22600
44	28276	22900
45	29689	23200
46	31174	23500
47	32733	23800
48	34369	24100
49	36088	24400
50	42584	24700
51	50249	25000
52	59294	25300
53	69967	25600
54	82561	25900
55	97422	26200
56	114958	26500
57	135650	26800
58	160067	27100
59	188880	27400
60	222878	27700
61	262996	28000
62	310336	28300
63	366196	28600
64	432112	28900
65	449396	29200
66	467372	29500
67	486067	29800
68	505510	30100
69	525730	30400
70	546759	30700
71	568630	31000
72	591375	31300
73	615030	31600
74	639631	31900
75	665216	32200
76	691825	32500
77	719498	32800
78	748278	33100
79	778209	33400
80	856030	33700
81	924512	34000
82	998474	34300
83	1078351	34600
84	1164620	34900
85	1257789	35200
86	1358412	35500
87	1467085	35800
88	1584452	36100
89	1711209	36400
90	1848105	36700
91	1995954	37000
92	2155630	37300
93	2328080	37600
94	2514327	37900
95	2715473	38200
96	2932711	38500
97	3167328	38800
98	3420714	39100
99	3694371	39400
100	3805203	39700
101	3976437	40000
102	4155376	40300
103	4342368	40600
104	4537775	40900
105	4741975	41200
106	4955364	41500
107	5178355	41800
108	5411381	42100
109	5654893	42400
110	5909364	42700
111	6175285	43000
112	6453173	43300
113	6743566	43600
114	7047026	43900
115	7364142	44200
116	7365750	44500
117	7477319	44800
118	7478951	45100
119	7590591	45400
120	7592247	45700
121	7703960	46000
122	7705640	46300
123	7817425	46600
124	7819129	46900
125	7930985	47200
126	7932713	47500
127	8044642	47800
128	8046394	48100
129	8158394	48400
130	8160170	48700
131	8272243	49000
132	8274043	49300
133	8386187	49600
134	8388011	49900
135	8500228	50200
136	8502076	50500
137	8614365	50800
138	8616237	51100
139	8728597	51400
140	8730493	51700
141	8842926	52000
142	8844846	52300
143	8846766	52600
144	8959294	52900
145	8961238	53200
146	9073839	53500
147	9075807	53800
148	9077775	54100
149	9190471	54400
150	9192463	54700
151	9305232	55000
152	9307248	55300
153	9309264	55600
154	9422129	55900
155	9424169	56200
156	9537105	56500
157	9539169	56800
158	9541233	57100
159	9654266	57400
160	9656354	57700
161	9769458	58000
162	9771570	58300
163	9773682	58600
164	9886883	58900
165	9889019	59200
166	10002292	59500
167	10004452	59800
168	10006612	60100
169	10119980	60400
170	10122164	60700
171	10235605	61000
172	10237813	61300
173	10240021	61600
174	10353557	61900
175	10355789	62200
176	10469398	62500
177	10471654	62800
178	10473910	63100
179	10587614	63400
180	10589894	63700
181	10703671	64000
182	10705975	64300
183	10708279	64600
184	10822152	64900
185	10824480	65200
186	10938424	65500
187	10940776	65800
188	10943128	66100
189	11057169	66400
190	11059545	66700
191	11173657	67000
192	11176057	67300
193	11178457	67600
194	11292666	67900
195	11295090	68200
196	11409370	68500
197	11411818	68800
198	11414266	69100
199	11528643	69400
200	11531115	69700
201	11645564	70000
202	11648060	70000
203	11650556	70000
204	11653052	70000
205	11655548	70000
206	11770140	70000
207	11772660	70000
208	11775180	70000
209	11777700	70000
210	11780220	70000
211	11894957	80000
212	11897501	80000
213	11900045	80000
214	11902589	80000
215	11905133	80000
216	12020013	80000
217	12022581	80000
218	12025149	80000
219	12027717	80000
220	12030285	80000
221	12145310	90000
222	12147902	90000
223	12150494	90000
224	12153086	90000
225	12155678	90000
226	12270846	90000
227	12273462	90000
228	12276078	90000
229	12278694	90000
230	12281310	90000
231	12396623	100000
232	12399263	100000
233	12401903	100000
234	12404543	100000
235	12407183	100000
236	12522640	100000
237	12525304	100000
238	12527968	100000
239	12530632	100000
240	12533296	100000
241	12648896	120000
242	12651584	120000
243	12654272	120000
244	12656960	120000
245	12659648	120000
246	12775393	120000
247	12778105	120000
248	12780817	120000
249	12783529	120000
250	12786241	120000
251	13354836	140000
252	13923671	140000
253	14492745	140000
254	15062060	140000
255	15631615	140000
256	16201410	140000
257	16771445	140000
258	17341720	140000
259	17912235	140000
260	18482990	140000
261	19053985	160000
262	19625219	160000
263	20196694	160000
264	20768409	160000
265	21340364	160000
266	21912559	160000
267	22484994	160000
268	23057669	160000
269	23630584	160000
270	24203739	160000
271	24777133	180000
272	25350768	180000
273	25924643	180000
274	26498758	180000
275	27073113	180000
276	27647708	180000
277	28222543	180000
278	28797618	180000
279	29372933	180000
280	29948487	180000
281	30524282	200000
282	31100317	200000
283	31676592	200000
284	32253107	200000
285	32829862	200000
286	33406857	200000
287	33984092	200000
288	34561567	200000
289	35139281	200000
290	35717236	200000
291	36295431	220000
292	36873866	220000
293	37452541	220000
294	38031456	220000
295	38610611	220000
296	39190006	220000
297	39769641	220000
298	40349515	220000
299	40929630	220000
300	41509985	220000
301	41523053	240000
302	41536121	240000
303	41549189	240000
304	41562257	240000
305	41575325	240000
306	41588393	240000
307	41601461	240000
308	41614529	240000
309	41627597	240000
310	41640665	240000
311	41653733	260000
312	41666801	260000
313	41679869	260000
314	41692937	260000
315	41706005	260000
316	41719073	260000
317	41732141	260000
318	41745209	260000
319	41758277	260000
320	41771345	260000
321	41784413	280000
322	41797481	280000
323	41810549	280000
324	41823617	280000
325	41836685	280000
326	41849753	280000
327	41862821	280000
328	41875889	280000
329	41888957	280000
330	41902025	280000
331	41915093	300000
332	41928161	300000
333	41941229	300000
334	41954297	300000
335	41967365	300000
336	41980433	300000
337	41993501	300000
338	42006569	300000
339	42019637	300000
340	42032705	300000
341	42045773	320000
342	42058841	320000
343	42071909	320000
344	42084977	320000
345	42098045	320000
346	42111113	320000
347	42124181	320000
348	42137249	320000
349	42150317	320000
350	42163385	320000
351	42176453	340000
352	42189521	340000
353	42202589	340000
354	42215657	340000
355	42228725	340000
356	42241793	340000
357	42254861	340000
358	42267929	340000
359	42280997	340000
360	42294065	340000
361	42307133	360000
362	42320201	360000
363	42333269	360000
364	42346337	360000
365	42359405	360000
366	42372473	360000
367	42385541	360000
368	42398609	360000
369	42411677	360000
370	46652844	360000
371	48985486	380000
372	51434760	380000
373	54006498	380000
374	56706822	380000
375	59542163	380000
376	62519271	380000
377	65645234	380000
378	68927495	380000
379	72373869	380000
380	75992562	380000
381	79792190	400000
382	83781799	400000
383	87970888	400000
384	92369432	400000
385	96987903	400000
386	101837298	400000
387	106929162	400000
388	112275620	400000
389	117889401	400000
390	123783871	400000
391	129973064	420000
392	136471717	420000
393	143295302	420000
394	150460067	420000
395	157983070	420000
396	165882223	420000
397	174176334	420000
398	182885150	420000
399	192029407	420000
400	0	420000
