actTime_1_date	actTime_2_date	instruct	limitNum	rewards_1_item_name	rewards_1_item_uiid	rewards_1_item_num	rewards_2_item_name	rewards_2_item_uiid	rewards_2_item_num	rewards_3_item_name	rewards_3_item_uiid	rewards_3_item_num	rewards_4_item_name	rewards_4_item_uiid	rewards_4_item_num
2020-06-15	2020-06-25	10	4	4* Light Hero Shard	T1F6-40026	30	4* Dark Hero Shard	T1F5-40025	30						
2020-06-15	2020-06-25	20	4	5* Abyss Hero Shard	T1F3-40013	50									
2020-06-15	2020-06-25	30	4	5* Forest Hero Shard	T1F4-40014	50									
2020-06-15	2020-06-25	40	4	5* Dark Spirit	T4F5-54503	1									
2020-06-15	2020-06-25	50	4	5* Divine Spirit	T4F6-54603	1									
2020-06-15	2020-06-25	60	4	5* Kroos	T4F3-5311	1									
2020-06-15	2020-06-25	80	4	5* Delacium	T4F3-5314	1	Glorious Relic	T1XX-170	15						
2020-05-18	2020-05-28	10	4	4* Light Hero Shard	T1F6-40026	30	4* Dark Hero Shard	T1F5-40025	30	Memento	T1XX-341	5	Post Card	T1XX-342	30
2020-05-18	2020-05-28	20	4	5* Shadow Hero Shard	T1F1-40011	50	Memento	T1XX-341	5	Post Card	T1XX-342	30			
2020-05-18	2020-05-28	30	4	5* Fortress Hero Shard	T1F2-40012	50	Memento	T1XX-341	5	Post Card	T1XX-342	30			
2020-05-18	2020-05-28	40	4	5* Dark Spirit	T4F5-54503	1	Memento	T1XX-341	5	Post Card	T1XX-342	30			
2020-05-18	2020-05-28	50	4	5* Divine Spirit	T4F6-54603	1	Memento	T1XX-341	5	Post Card	T1XX-342	30			
2020-05-18	2020-05-28	60	4	5* Heart Watcher	T4F4-5410	1	Memento	T1XX-341	5	Post Card	T1XX-342	30			
2020-05-18	2020-05-28	80	4	5* Elyvia	T4F4-5414	1	Glorious Relic	T1XX-170	15	Memento	T1XX-341	5	Post Card	T1XX-342	40
